<?xml version="1.0" encoding="UTF-8" standalone="no"?>
<!-- Created with Inkscape (http://www.inkscape.org/) -->

<svg
   xmlns:dc="http://purl.org/dc/elements/1.1/"
   xmlns:cc="http://creativecommons.org/ns#"
   xmlns:rdf="http://www.w3.org/1999/02/22-rdf-syntax-ns#"
   xmlns:svg="http://www.w3.org/2000/svg"
   xmlns="http://www.w3.org/2000/svg"
   xmlns:sodipodi="http://sodipodi.sourceforge.net/DTD/sodipodi-0.dtd"
   xmlns:inkscape="http://www.inkscape.org/namespaces/inkscape"
   id="svg4155"
   version="1.1"
   inkscape:version="0.91 r13725"
   xml:space="preserve"
   width="540"
   height="260.60223"
   viewBox="0 0 540 260.60223"
   sodipodi:docname="timetable.svg"><metadata
     id="metadata4161"><rdf:RDF><cc:Work
         rdf:about=""><dc:format>image/svg+xml</dc:format><dc:type
           rdf:resource="http://purl.org/dc/dcmitype/StillImage" /><dc:title></dc:title></cc:Work></rdf:RDF></metadata><defs
     id="defs4159" /><sodipodi:namedview
     pagecolor="#ffffff"
     bordercolor="#666666"
     borderopacity="1"
     objecttolerance="10"
     gridtolerance="10"
     guidetolerance="10"
     inkscape:pageopacity="0"
     inkscape:pageshadow="2"
     inkscape:window-width="1680"
     inkscape:window-height="999"
     id="namedview4157"
     showgrid="false"
     fit-margin-top="0"
     fit-margin-left="0"
     fit-margin-right="0"
     fit-margin-bottom="0"
     inkscape:zoom="1.6666667"
     inkscape:cx="370.2546"
     inkscape:cy="-14.177013"
     inkscape:window-x="0"
     inkscape:window-y="172"
     inkscape:window-maximized="1"
     inkscape:current-layer="g4163" /><g
     id="g4163"
     inkscape:groupmode="layer"
     inkscape:label="proposal_MASTER"
     transform="matrix(1.25,0,0,-1.25,-135,404.7705)"><text
       transform="matrix(1,0,0,-1,214.247,315.651)"
       style="font-variant:normal;font-size:11.9552002px;font-family:'Nimbus Roman No9 L';-inkscape-font-specification:NimbusRomNo9L-Regu;writing-mode:lr-tb;fill:#000000;fill-opacity:1;fill-rule:nonzero;stroke:none"
       id="text4259"><tspan
         x="0 6.3482113 11.65632 17.633921 20.957466 29.254374 35.231976 38.220776 44.198376 51.228031 59.859688 63.183231 67.833801 72.484375 77.792488 81.773567 85.097115 90.40522 93.728767 97.052315 103.02991 111.99632 119.97043 125.94803 135.24918 141.22678 144.55032 149.85843 153.18198 156.50552 162.48312 171.44952 178.33572 181.65927 190.9604 196.26852 199.59207 204.90018 210.87778 214.20132"
         y="0"
         sodipodi:role="line"
         id="tspan4261">Table3.1:DissertationCompletionTimetable</tspan></text>
<g
       id="g4263"
       transform="translate(108,297.422)"><path
         d="M 0,0 432,0"
         style="fill:none;stroke:#000000;stroke-width:0.398;stroke-linecap:butt;stroke-linejoin:miter;stroke-miterlimit:10;stroke-dasharray:none;stroke-opacity:1"
         id="path4265"
         inkscape:connector-curvature="0" /></g><g
       id="g4267"
       transform="translate(108,285.267)"><path
         d="m 0,0 294.656,0 0,11.955 L 0,11.955 0,0 Z"
         style="fill:#dfdfdf;fill-opacity:1;fill-rule:nonzero;stroke:none"
         id="path4269"
         inkscape:connector-curvature="0" /></g><g
       id="g4271"
       transform="translate(402.656,285.267)"><path
         d="m 0,0 68.672,0 0,11.955 L 0,11.955 0,0 Z"
         style="fill:#dfdfdf;fill-opacity:1;fill-rule:nonzero;stroke:none"
         id="path4273"
         inkscape:connector-curvature="0" /></g><text
       transform="matrix(1,0,0,-1,413.052,288.854)"
       style="font-variant:normal;font-size:9.96259975px;font-family:'Nimbus Roman No9 L';-inkscape-font-specification:NimbusRomNo9L-Regu;writing-mode:lr-tb;fill:#000000;fill-opacity:1;fill-rule:nonzero;stroke:none"
       id="text4275"><tspan
         x="0 5.5392056 8.3088083 12.732203 16.049749 21.310001 30.166752 35.148052 40.129353 42.898956"
         y="0"
         sodipodi:role="line"
         id="tspan4277">StartMonth</tspan></text>
<g
       id="g4279"
       transform="translate(471.328,285.267)"><path
         d="m 0,0 68.672,0 0,11.955 L 0,11.955 0,0 Z"
         style="fill:#dfdfdf;fill-opacity:1;fill-rule:nonzero;stroke:none"
         id="path4281"
         inkscape:connector-curvature="0" /></g><text
       transform="matrix(1,0,0,-1,483.109,288.854)"
       style="font-variant:normal;font-size:9.96259975px;font-family:'Nimbus Roman No9 L';-inkscape-font-specification:NimbusRomNo9L-Regu;writing-mode:lr-tb;fill:#000000;fill-opacity:1;fill-rule:nonzero;stroke:none"
       id="text4283"><tspan
         x="0 6.0871487 11.068449 18.5404 27.39715 32.378448 37.359749 40.129353"
         y="0"
         sodipodi:role="line"
         id="tspan4285">EndMonth</tspan></text>
<g
       id="g4287"
       transform="translate(108,273.312)"><path
         d="m 0,0 294.656,0 0,11.955 L 0,11.955 0,0 Z"
         style="fill:#dfdfdf;fill-opacity:1;fill-rule:nonzero;stroke:none"
         id="path4289"
         inkscape:connector-curvature="0" /></g><text
       transform="matrix(1,0,0,-1,113.978,282.876)"
       style="font-variant:normal;font-size:9.96259975px;font-family:'Nimbus Roman No9 L';-inkscape-font-specification:NimbusRomNo9L-Regu;writing-mode:lr-tb;fill:#000000;fill-opacity:1;fill-rule:nonzero;stroke:none"
       id="text4291"><tspan
         x="0 7.192997 11.616391 14.385994 17.155598 22.136898 29.608847 32.926392 35.695995 40.119389"
         y="0"
         sodipodi:role="line"
         id="tspan4293">ActionItem</tspan></text>
<g
       id="g4295"
       transform="translate(402.656,273.312)"><path
         d="m 0,0 68.672,0 0,11.955 L 0,11.955 0,0 Z"
         style="fill:#dfdfdf;fill-opacity:1;fill-rule:nonzero;stroke:none"
         id="path4297"
         inkscape:connector-curvature="0" /></g><text
       transform="matrix(1,0,0,-1,418.043,276.898)"
       style="font-variant:normal;font-size:9.96259975px;font-family:'Nimbus Roman No9 L';-inkscape-font-specification:NimbusRomNo9L-Regu;writing-mode:lr-tb;fill:#000000;fill-opacity:1;fill-rule:nonzero;stroke:none"
       id="text4299"><tspan
         x="0 3.3175459 10.510543 14.933937 19.357332 26.829281 29.598885 34.580185"
         y="0"
         sodipodi:role="line"
         id="tspan4301">(week/4)</tspan></text>
<g
       id="g4303"
       transform="translate(471.328,273.312)"><path
         d="m 0,0 68.672,0 0,11.955 L 0,11.955 0,0 Z"
         style="fill:#dfdfdf;fill-opacity:1;fill-rule:nonzero;stroke:none"
         id="path4305"
         inkscape:connector-curvature="0" /></g><text
       transform="matrix(1,0,0,-1,486.715,276.898)"
       style="font-variant:normal;font-size:9.96259975px;font-family:'Nimbus Roman No9 L';-inkscape-font-specification:NimbusRomNo9L-Regu;writing-mode:lr-tb;fill:#000000;fill-opacity:1;fill-rule:nonzero;stroke:none"
       id="text4307"><tspan
         x="0 3.3175459 10.510543 14.933937 19.357332 26.829281 29.598885 34.580185"
         y="0"
         sodipodi:role="line"
         id="tspan4309">(week/4)</tspan></text>
<g
       id="g4311"
       transform="translate(108,273.113)"><path
         d="M 0,0 432,0"
         style="fill:none;stroke:#000000;stroke-width:0.398;stroke-linecap:butt;stroke-linejoin:miter;stroke-miterlimit:10;stroke-dasharray:none;stroke-opacity:1"
         id="path4313"
         inkscape:connector-curvature="0" /></g><text
       transform="matrix(1,0,0,-1,113.978,264.545)"
       style="font-variant:normal;font-size:9.96259975px;font-family:'Nimbus Roman No9 L';-inkscape-font-specification:NimbusRomNo9L-Regu;writing-mode:lr-tb;fill:#000000;fill-opacity:1;fill-rule:nonzero;stroke:none"
       id="text4315"><tspan
         x="0 3.3175459 11.068449 16.049749 18.819351 23.242746 30.993649 35.417042 40.398342 45.658596 50.440643 55.421944 62.893894 70.644798 75.068192 82.819092 87.800392 91.117943 98.58989 103.57119 107.99458 112.97588 115.74548 123.21744 127.64083 131.51628 134.28589 137.05548 144.8064 149.22978 151.99939 154.769 159.75029 167.22224 170.53978 175.52109 178.01173 182.99304 185.48369 190.46498 192.95564 197.37903 297.98135 303.52057 307.94397 312.92526 316.2428 321.22412 325.64749 328.96506 336.43701 339.75455 344.73584 366.65356 372.19278 376.61618 381.59747 384.91501 389.8963 394.3197 397.63727 405.10919 408.42676 413.40805"
         y="0"
         sodipodi:role="line"
         id="tspan4317">Implementbugmemorydepthestimation(3.1.1.a)February(2)February(3)</tspan></text>
<g
       id="g4319"
       transform="translate(108,260.759)"><path
         d="M 0,0 432,0"
         style="fill:none;stroke:#000000;stroke-width:0.398;stroke-linecap:butt;stroke-linejoin:miter;stroke-miterlimit:10;stroke-dasharray:none;stroke-opacity:1"
         id="path4321"
         inkscape:connector-curvature="0" /></g><text
       transform="matrix(1,0,0,-1,113.978,252.191)"
       style="font-variant:normal;font-size:9.96259975px;font-family:'Nimbus Roman No9 L';-inkscape-font-specification:NimbusRomNo9L-Regu;writing-mode:lr-tb;fill:#000000;fill-opacity:1;fill-rule:nonzero;stroke:none"
       id="text4323"><tspan
         x="0 3.3175459 11.068449 16.049749 18.819351 23.242746 30.993649 35.417042 40.398342 45.658596 50.639896 55.621197 60.04459 65.025887 67.795494 70.565094 73.334702 77.758095 80.527695 83.048233 87.880096 94.794136 99.775436 104.75674 108.63219 111.40179 114.71934 120.25854 125.5188 133.2697 138.25101 143.2323 147.6557 152.91595 157.33934 160.40782 165.94702 170.37042 173.14003 177.56342 182.54472 186.81868 194.29062 202.04153 206.46492 210.88832 214.76376 219.74507 223.06261 227.48601 233.85211 237.16966 242.15096 244.6416 249.62291 252.11356 257.09485 259.58551 264.5668 297.98135 303.52057 307.94397 312.92526 316.2428 321.22412 325.64749 328.96506 336.43701 339.75455 344.73584 366.65356 372.19278 376.61618 381.59747 384.91501 389.8963 394.3197 397.63727 405.10919 408.42676 413.40805"
         y="0"
         sodipodi:role="line"
         id="tspan4325">Implementquantitativepost-Simodeleffciencymeasures(3.1.1.b)February(3)February(4)</tspan></text>
<g
       id="g4327"
       transform="translate(108,248.405)"><path
         d="M 0,0 432,0"
         style="fill:none;stroke:#000000;stroke-width:0.398;stroke-linecap:butt;stroke-linejoin:miter;stroke-miterlimit:10;stroke-dasharray:none;stroke-opacity:1"
         id="path4329"
         inkscape:connector-curvature="0" /></g><text
       transform="matrix(1,0,0,-1,113.978,239.837)"
       style="font-variant:normal;font-size:9.96259975px;font-family:'Nimbus Roman No9 L';-inkscape-font-specification:NimbusRomNo9L-Regu;writing-mode:lr-tb;fill:#000000;fill-opacity:1;fill-rule:nonzero;stroke:none"
       id="text4331"><tspan
         x="0 6.0871487 11.068449 16.049749 20.473143 25.454443 32.926392 36.801846 41.225239 46.485493 51.466793 57.274986 60.04459 64.467987 68.89138 72.208923 77.190224 79.959831 84.941124 92.413078 97.294754 101.71815 105.03569 110.01699 114.44038 117.20999 123.57609 126.89364 131.87494 134.36559 139.34689 141.83754 146.81883 149.30948 153.73288 302.96268 311.81943 316.2428 319.56036 323.98376 331.45569 334.77325 339.75455 372.88019 381.73694 386.16034 389.47787 393.90128 398.88257 402.20013 407.18143"
         y="0"
         sodipodi:role="line"
         id="tspan4333">Expandsetoflearningkernels(3.1.3.a)March(1)March(3)</tspan></text>
<g
       id="g4335"
       transform="translate(108,236.052)"><path
         d="M 0,0 432,0"
         style="fill:none;stroke:#000000;stroke-width:0.398;stroke-linecap:butt;stroke-linejoin:miter;stroke-miterlimit:10;stroke-dasharray:none;stroke-opacity:1"
         id="path4337"
         inkscape:connector-curvature="0" /></g><text
       transform="matrix(1,0,0,-1,113.978,227.484)"
       style="font-variant:normal;font-size:9.96259975px;font-family:'Nimbus Roman No9 L';-inkscape-font-specification:NimbusRomNo9L-Regu;writing-mode:lr-tb;fill:#000000;fill-opacity:1;fill-rule:nonzero;stroke:none"
       id="text4339"><tspan
         x="0 5.5392056 8.8567514 13.280146 17.155598 21.578991 24.896538 27.66614 32.647442 39.561485 44.542786 48.966179 52.084473 55.40202 60.283691 64.707085 68.024635 73.005936 77.429329 82.689583 85.459183 88.776726 93.200127 95.969727 100.95103 103.72063 108.70193 116.17388 121.15518 124.47272 129.45403 133.87743 138.30081 143.28212 148.26341 151.58096 156.00435 162.37045 165.688 170.6693 173.15996 178.14125 180.6319 185.6132 188.10385 193.08514 302.96268 311.81943 316.2428 319.56036 323.98376 331.45569 334.77325 339.75455 374.11557 381.30856 386.28986 389.60739 392.37701 397.63727 400.9548 405.9361"
         y="0"
         sodipodi:role="line"
         id="tspan4341">Prescribeper-kerneltrainingprocedures(3.1.3.b)March(1)April(1)</tspan></text>
<g
       id="g4343"
       transform="translate(108,223.698)"><path
         d="M 0,0 432,0"
         style="fill:none;stroke:#000000;stroke-width:0.398;stroke-linecap:butt;stroke-linejoin:miter;stroke-miterlimit:10;stroke-dasharray:none;stroke-opacity:1"
         id="path4345"
         inkscape:connector-curvature="0" /></g><text
       transform="matrix(1,0,0,-1,113.978,215.13)"
       style="font-variant:normal;font-size:9.96259975px;font-family:'Nimbus Roman No9 L';-inkscape-font-specification:NimbusRomNo9L-Regu;writing-mode:lr-tb;fill:#000000;fill-opacity:1;fill-rule:nonzero;stroke:none"
       id="text4347"><tspan
         x="0 3.3175459 11.068449 16.049749 18.819351 23.242746 30.993649 35.417042 40.398342 47.252613 55.003513 59.42691 63.850304 68.831604 73.254997 78.236298 81.005898 84.881355 96.716919 100.03447 105.01577 112.41798 116.84137 121.82267 124.59228 129.57358 137.32448 141.74788 144.51747 148.94087 158.00684 162.43024 167.41153 172.39284 175.16243 179.58583 188.09389 192.51729 197.49858 206.56454 209.33415 214.31544 218.1909 222.6143 225.93184 228.70145 231.47105 236.45235 245.51831 250.49962 257.90182 262.78351 267.20691 270.52444 275.50574 279.92914"
         y="0"
         sodipodi:role="line"
         id="tspan4349">Implementmechanismforautomatedchoiceandinsertionofkernel</tspan><tspan
         x="9.9619999 13.279546 18.260845 20.751495 25.732796 28.223446 33.204746 35.695396 40.11879"
         y="11.955"
         sodipodi:role="line"
         id="tspan4351">(3.1.3.c)</tspan><tspan
         x="305.44501 312.638 317.61929 320.93683 323.70645 328.96671 332.28424 337.26553 374.11719 381.31021 386.2915 389.60904 392.37866 397.63889 400.95645 405.93774"
         y="5.9770002"
         sodipodi:role="line"
         id="tspan4353">April(1)April(4)</tspan></text>
<g
       id="g4355"
       transform="translate(108,199.389)"><path
         d="M 0,0 432,0"
         style="fill:none;stroke:#000000;stroke-width:0.398;stroke-linecap:butt;stroke-linejoin:miter;stroke-miterlimit:10;stroke-dasharray:none;stroke-opacity:1"
         id="path4357"
         inkscape:connector-curvature="0" /></g><text
       transform="matrix(1,0,0,-1,113.978,190.821)"
       style="font-variant:normal;font-size:9.96259975px;font-family:'Nimbus Roman No9 L';-inkscape-font-specification:NimbusRomNo9L-Regu;writing-mode:lr-tb;fill:#000000;fill-opacity:1;fill-rule:nonzero;stroke:none"
       id="text4359"><tspan
         x="0 6.0871487 10.510543 13.280146 16.049749 21.031048 25.454443 28.224047 35.138092 39.412045 44.393345 49.374645 53.798038 58.779339 63.760639 68.184036 75.655983 78.425591 82.848984 87.272377 90.58992 95.57122 98.340828 103.32213 110.79408 118.54498 122.96837 127.39177 132.37306 136.79646 141.77776 144.54736 148.42282 156.17372 162.53983 167.52112 174.99307 178.86852 183.84982 187.16737 189.93697 197.03033 201.45374 204.77129 306.82816 310.70361 315.68491 320.6662 327.58026 330.8978 335.87909 375.50037 379.37579 384.35712 389.33841 396.25244 399.57001 404.5513"
         y="0"
         sodipodi:role="line"
         id="tspan4361">ValidateexpandedlearningmechanismsonsoftwareJune(1)June(2)</tspan></text>
<g
       id="g4363"
       transform="translate(108,187.035)"><path
         d="M 0,0 432,0"
         style="fill:none;stroke:#000000;stroke-width:0.398;stroke-linecap:butt;stroke-linejoin:miter;stroke-miterlimit:10;stroke-dasharray:none;stroke-opacity:1"
         id="path4365"
         inkscape:connector-curvature="0" /></g><text
       transform="matrix(1,0,0,-1,113.978,178.468)"
       style="font-variant:normal;font-size:9.96259975px;font-family:'Nimbus Roman No9 L';-inkscape-font-specification:NimbusRomNo9L-Regu;writing-mode:lr-tb;fill:#000000;fill-opacity:1;fill-rule:nonzero;stroke:none"
       id="text4367"><tspan
         x="0 6.0871487 10.510543 13.280146 16.049749 21.031048 25.454443 28.224047 35.138092 39.412045 44.393345 49.374645 53.798038 58.779339 63.760639 68.184036 75.655983 78.425591 82.848984 87.272377 90.58992 95.57122 98.340828 103.32213 110.79408 118.54498 122.96837 127.39177 132.37306 136.79646 141.77776 144.54736 148.42282 156.17372 162.53983 167.52112 174.99307 179.97437 184.39777 187.71532 192.69661 199.78998 204.21338 207.53091 306.82816 310.70361 315.68491 320.6662 327.58026 330.8978 335.87909 376.32724 380.2027 385.18399 387.95361 395.42557 398.7431 403.7244"
         y="0"
         sodipodi:role="line"
         id="tspan4369">ValidateexpandedlearningmechanismsonhardwareJune(2)July(2)</tspan></text>
<g
       id="g4371"
       transform="translate(108,174.682)"><path
         d="M 0,0 432,0"
         style="fill:none;stroke:#000000;stroke-width:0.398;stroke-linecap:butt;stroke-linejoin:miter;stroke-miterlimit:10;stroke-dasharray:none;stroke-opacity:1"
         id="path4373"
         inkscape:connector-curvature="0" /></g><text
       transform="matrix(1,0,0,-1,113.978,166.114)"
       style="font-variant:normal;font-size:9.96259975px;font-family:'Nimbus Roman No9 L';-inkscape-font-specification:NimbusRomNo9L-Regu;writing-mode:lr-tb;fill:#000000;fill-opacity:1;fill-rule:nonzero;stroke:none"
       id="text4375"><tspan
         x="0 6.6450543 11.068449 15.850496 20.831797 23.601398 26.371002 33.842953 38.824253 41.593857 46.01725 50.99855 55.979851 60.961151 64.836601 67.606201 73.972305 76.741905 81.723206 85.040756 88.358299 92.781693 96.657143 99.42675 102.74429 107.72559 112.14899 114.91859 119.89989 123.21744 130.13148 134.55487 137.87242 142.85371 147.83502 152.81631 160.28827 164.56223 169.54353 174.52483 178.94823 183.92952 187.80498 190.57457 195.55588 203.02783 208.00912 213.81732 216.58693 221.01031 225.43372 228.75125 233.73256 236.50217 241.48346 248.95541 251.72502 256.70633 261.68762 264.45721 308.90039 312.77582 317.75714 320.52673 325.50803 328.82556 333.80688 376.32724 380.2027 385.18399 387.95361 395.42557 398.7431 403.7244"
         y="0"
         sodipodi:role="line"
         id="tspan4377">RebuilddiagnosisinfrastructurearoundexpansionoflearningtoolsJuly(2)July(4)</tspan></text>
<g
       id="g4379"
       transform="translate(108,162.328)"><path
         d="M 0,0 432,0"
         style="fill:none;stroke:#000000;stroke-width:0.398;stroke-linecap:butt;stroke-linejoin:miter;stroke-miterlimit:10;stroke-dasharray:none;stroke-opacity:1"
         id="path4381"
         inkscape:connector-curvature="0" /></g><text
       transform="matrix(1,0,0,-1,113.978,153.76)"
       style="font-variant:normal;font-size:9.96259975px;font-family:'Nimbus Roman No9 L';-inkscape-font-specification:NimbusRomNo9L-Regu;writing-mode:lr-tb;fill:#000000;fill-opacity:1;fill-rule:nonzero;stroke:none"
       id="text4383"><tspan
         x="0 6.6450543 11.068449 13.838052 16.607655 21.031048 24.348595 31.820545 36.801846 42.610039 47.591339 50.360943 54.784336 59.765636 64.746941 69.728241 73.603691 76.373291 79.142891 86.056938 90.330894 95.312195 100.2935 103.0631 108.0444 111.36195 115.78534 118.55494 121.32454 126.30584 131.28714 137.65324 142.63454 150.10649 152.8761 157.29948 160.43771 165.41901 172.33305 177.06529 181.48868 184.80623 187.57584 191.99922 194.76883 202.24078 207.22208 213.03027 220.22327 229.08002 237.10988 240.98534 245.96663 249.84209 252.61168 257.0351 307.65506 311.53049 316.51181 319.2814 326.75336 330.07089 335.05222 363.32605 368.86526 373.28867 378.26996 381.03955 385.46295 393.21387 398.19516 402.61856 408.42676 411.74429 416.72559"
         y="0"
         sodipodi:role="line"
         id="tspan4385">BatteryofdiagnosticexplorationsonlargevarietyofAMSsystemJuly(4)September(2)</tspan></text>
<g
       id="g4387"
       transform="translate(108,149.974)"><path
         d="M 0,0 432,0"
         style="fill:none;stroke:#000000;stroke-width:0.398;stroke-linecap:butt;stroke-linejoin:miter;stroke-miterlimit:10;stroke-dasharray:none;stroke-opacity:1"
         id="path4389"
         inkscape:connector-curvature="0" /></g><text
       transform="matrix(1,0,0,-1,113.978,141.407)"
       style="font-variant:normal;font-size:9.96259975px;font-family:'Nimbus Roman No9 L';-inkscape-font-specification:NimbusRomNo9L-Regu;writing-mode:lr-tb;fill:#000000;fill-opacity:1;fill-rule:nonzero;stroke:none"
       id="text4391"><tspan
         x="0 3.3175459 7.900342 12.732203 17.155598 20.473143 25.454443 29.877838 34.859138 42.052135 44.821739 52.572639 57.55394 60.871487 65.703346 70.53521 77.170303 81.045753 83.815353 91.566254 96.547554 99.317162 102.08676 106.51015 111.49146 115.91485 120.89615 125.87745 131.9646 136.94589 141.36929 144.68684 149.11023 156.86113 161.28453 164.05414 167.37167 170.14128 176.77637 179.99429 184.41769 189.39899 192.16859 197.14989 201.02534 205.44873 210.43004 214.3055 217.07509 219.8447 222.36523 227.34653 230.11613 232.88574 240.07874 244.50214 247.27173 252.25304 257.23434 260.55188 263.32147 266.09109 271.07239 278.82327"
         y="0"
         sodipodi:role="line"
         id="tspan4393">Invertandimprovesimultaneousparametricfaultsensitivityalgorithms</tspan><tspan
         x="9.9619999 13.279546 18.260845 20.751495 25.732796 28.223446 33.204746"
         y="11.956"
         sodipodi:role="line"
         id="tspan4395">(3.1.2.</tspan></text>
<text
       transform="matrix(1,0,0,-1,149.674,129.451)"
       style="font-variant:normal;font-weight:normal;font-size:9.96259975px;font-family:CMSY10;-inkscape-font-specification:CMSY10;writing-mode:lr-tb;fill:#000000;fill-opacity:1;fill-rule:nonzero;stroke:none"
       id="text4397"><tspan
         x="0"
         y="0"
         id="tspan4399">{</tspan></text>
<text
       transform="matrix(1,0,0,-1,154.655,129.451)"
       style="font-variant:normal;font-size:9.96259975px;font-family:'Nimbus Roman No9 L';-inkscape-font-specification:NimbusRomNo9L-Regu;writing-mode:lr-tb;fill:#000000;fill-opacity:1;fill-rule:nonzero;stroke:none"
       id="text4401"><tspan
         x="0 4.4233942 6.9140444"
         y="0"
         sodipodi:role="line"
         id="tspan4403">a,b</tspan></text>
<text
       transform="matrix(1,0,0,-1,166.55,129.451)"
       style="font-variant:normal;font-weight:normal;font-size:9.96259975px;font-family:CMSY10;-inkscape-font-specification:CMSY10;writing-mode:lr-tb;fill:#000000;fill-opacity:1;fill-rule:nonzero;stroke:none"
       id="text4405"><tspan
         x="0"
         y="0"
         id="tspan4407">}</tspan></text>
<text
       transform="matrix(1,0,0,-1,171.532,129.451)"
       style="font-variant:normal;font-size:9.96259975px;font-family:'Nimbus Roman No9 L';-inkscape-font-specification:NimbusRomNo9L-Regu;writing-mode:lr-tb;fill:#000000;fill-opacity:1;fill-rule:nonzero;stroke:none"
       id="text4409"><tspan
         x="0"
         y="0"
         id="tspan4411">)</tspan><tspan
         x="237.10201 242.6412 247.06461 252.0459 254.81551 259.23889 266.98981 271.9711 276.3945 282.2027 285.52023 290.50153 305.7742 311.31342 315.73682 320.71811 323.4877 327.9111 335.66199 340.64331 345.06671 350.87488 354.19244 359.17374"
         y="-5.9780002"
         sodipodi:role="line"
         id="tspan4413">September(2)September(4)</tspan></text>
<g
       id="g4415"
       transform="translate(108,125.666)"><path
         d="M 0,0 432,0"
         style="fill:none;stroke:#000000;stroke-width:0.398;stroke-linecap:butt;stroke-linejoin:miter;stroke-miterlimit:10;stroke-dasharray:none;stroke-opacity:1"
         id="path4417"
         inkscape:connector-curvature="0" /></g><text
       transform="matrix(1,0,0,-1,113.978,117.098)"
       style="font-variant:normal;font-size:9.96259975px;font-family:'Nimbus Roman No9 L';-inkscape-font-specification:NimbusRomNo9L-Regu;writing-mode:lr-tb;fill:#000000;fill-opacity:1;fill-rule:nonzero;stroke:none"
       id="text4419"><tspan
         x="0 9.4046946 12.72224 15.491843 18.261446 25.175489 30.15679 32.926392 36.801846 40.677296 45.100689 48.418236 51.18784 55.611233 58.380836 61.15044 66.131737 308.77087 315.96387 320.38727 325.64749 328.96506 333.94635 377.44305 384.63605 389.05945 394.3197 397.63727 402.61856"
         y="0"
         sodipodi:role="line"
         id="tspan4421">WritedissertationOct(1)Oct(4)</tspan></text>
</g></svg>