<?xml version="1.0" encoding="UTF-8" standalone="no"?>
<!-- Created with matplotlib (https://matplotlib.org/) -->

<svg
   xmlns:dc="http://purl.org/dc/elements/1.1/"
   xmlns:cc="http://creativecommons.org/ns#"
   xmlns:rdf="http://www.w3.org/1999/02/22-rdf-syntax-ns#"
   xmlns:svg="http://www.w3.org/2000/svg"
   xmlns="http://www.w3.org/2000/svg"
   xmlns:xlink="http://www.w3.org/1999/xlink"
   xmlns:sodipodi="http://sodipodi.sourceforge.net/DTD/sodipodi-0.dtd"
   xmlns:inkscape="http://www.inkscape.org/namespaces/inkscape"
   height="345.6pt"
   version="1.1"
   viewBox="0 0 460.8 345.6"
   width="460.8pt"
   id="svg455"
   sodipodi:docname="10violins.svg"
   inkscape:version="0.92.3 (2405546, 2018-03-11)">
  <metadata
     id="metadata459">
    <rdf:RDF>
      <cc:Work
         rdf:about="">
        <dc:format>image/svg+xml</dc:format>
        <dc:type
           rdf:resource="http://purl.org/dc/dcmitype/StillImage" />
        <dc:title></dc:title>
      </cc:Work>
    </rdf:RDF>
  </metadata>
  <sodipodi:namedview
     pagecolor="#ffffff"
     bordercolor="#666666"
     borderopacity="1"
     objecttolerance="10"
     gridtolerance="10"
     guidetolerance="10"
     inkscape:pageopacity="0"
     inkscape:pageshadow="2"
     inkscape:window-width="1319"
     inkscape:window-height="880"
     id="namedview457"
     showgrid="false"
     inkscape:zoom="0.85611981"
     inkscape:cx="285.56942"
     inkscape:cy="115.83186"
     inkscape:window-x="0"
     inkscape:window-y="0"
     inkscape:window-maximized="0"
     inkscape:current-layer="svg455" />
  <defs
     id="defs4">
    <style
       type="text/css"
       id="style2">
*{stroke-linecap:butt;stroke-linejoin:round;}
  </style>
  </defs>
  <g
     id="figure_1">
    <g
       id="patch_1">
      <path
         d="M 0 345.6  L 460.8 345.6  L 460.8 0  L 0 0  z "
         style="fill:#ffffff;"
         id="path6" />
    </g>
    <g
       id="axes_1">
      <g
         id="patch_2">
        <path
           d="M 57.6 307.584  L 414.72 307.584  L 414.72 41.472  L 57.6 41.472  z "
           style="fill:#ffffff;"
           id="path9" />
      </g>
      <g
         id="PolyCollection_1">
        <defs
           id="defs13">
          <path
             d="M 75.459973 -50.112  L 75.452027 -50.112  L 75.442131 -52.118683  L 75.422863 -54.125367  L 75.395267 -56.13205  L 75.360483 -58.138733  L 75.327118 -60.145417  L 75.312393 -62.1521  L 75.313191 -64.158783  L 75.313507 -66.165467  L 75.320967 -68.17215  L 75.350665 -70.178833  L 75.393974 -72.185517  L 75.428026 -74.1922  L 75.439608 -76.198883  L 75.431533 -78.205567  L 75.419139 -80.21225  L 75.419777 -82.218933  L 75.433827 -84.225617  L 75.447501 -86.2323  L 75.453447 -88.238983  L 75.453251 -90.245667  L 75.44906 -92.25235  L 75.442357 -94.259033  L 75.434457 -96.265717  L 75.426064 -98.2724  L 75.42174 -100.279083  L 75.427595 -102.285767  L 75.439717 -104.29245  L 75.446533 -106.299133  L 75.44007 -108.305817  L 75.421508 -110.3125  L 75.40561 -112.319183  L 75.408372 -114.325867  L 75.424298 -116.33255  L 75.435762 -118.339233  L 75.435046 -120.345917  L 75.422697 -122.3526  L 75.399367 -124.359283  L 75.369051 -126.365967  L 75.342563 -128.37265  L 75.324741 -130.379333  L 75.302477 -132.386017  L 75.256641 -134.3927  L 75.181171 -136.399383  L 75.088941 -138.406067  L 74.998787 -140.41275  L 74.911694 -142.419433  L 74.808825 -144.426117  L 74.66881 -146.4328  L 74.474358 -148.439483  L 74.226633 -150.446167  L 73.948924 -152.45285  L 73.654393 -154.459533  L 73.332284 -156.466217  L 72.93784 -158.4729  L 72.41061 -160.479583  L 71.766889 -162.486267  L 71.105654 -164.49295  L 70.486932 -166.499633  L 69.888693 -168.506317  L 69.265782 -170.513  L 68.533025 -172.519683  L 67.453232 -174.526367  L 65.866292 -176.53305  L 64.297976 -178.539733  L 63.599375 -180.546417  L 63.855114 -182.5531  L 64.495808 -184.559783  L 64.933566 -186.566467  L 65.162623 -188.57315  L 65.843047 -190.579833  L 67.082557 -192.586517  L 68.219442 -194.5932  L 68.909782 -196.599883  L 69.381272 -198.606566  L 69.947562 -200.61325  L 70.694933 -202.619933  L 71.499 -204.626616  L 72.241307 -206.6333  L 72.913681 -208.639983  L 73.508825 -210.646666  L 73.980635 -212.65335  L 74.314608 -214.660033  L 74.546443 -216.666716  L 74.730649 -218.6734  L 74.897364 -220.680083  L 75.034399 -222.686766  L 75.131106 -224.69345  L 75.209338 -226.700133  L 75.284575 -228.706816  L 75.345855 -230.7135  L 75.38258 -232.720183  L 75.39954 -234.726866  L 75.40895 -236.73355  L 75.418469 -238.740233  L 75.429214 -240.746916  L 75.439621 -242.7536  L 75.447808 -244.760283  L 75.452854 -246.766966  L 75.455139 -248.77365  L 75.456861 -248.77365  L 75.456861 -248.77365  L 75.459146 -246.766966  L 75.464192 -244.760283  L 75.472379 -242.7536  L 75.482786 -240.746916  L 75.493531 -238.740233  L 75.50305 -236.73355  L 75.51246 -234.726866  L 75.52942 -232.720183  L 75.566145 -230.7135  L 75.627425 -228.706816  L 75.702662 -226.700133  L 75.780894 -224.69345  L 75.877601 -222.686766  L 76.014636 -220.680083  L 76.181351 -218.6734  L 76.365557 -216.666716  L 76.597392 -214.660033  L 76.931365 -212.65335  L 77.403175 -210.646666  L 77.998319 -208.639983  L 78.670693 -206.6333  L 79.413 -204.626616  L 80.217067 -202.619933  L 80.964438 -200.61325  L 81.530728 -198.606566  L 82.002218 -196.599883  L 82.692558 -194.5932  L 83.829443 -192.586517  L 85.068953 -190.579833  L 85.749377 -188.57315  L 85.978434 -186.566467  L 86.416192 -184.559783  L 87.056886 -182.5531  L 87.312625 -180.546417  L 86.614024 -178.539733  L 85.045708 -176.53305  L 83.458768 -174.526367  L 82.378975 -172.519683  L 81.646218 -170.513  L 81.023307 -168.506317  L 80.425068 -166.499633  L 79.806346 -164.49295  L 79.145111 -162.486267  L 78.50139 -160.479583  L 77.97416 -158.4729  L 77.579716 -156.466217  L 77.257607 -154.459533  L 76.963076 -152.45285  L 76.685367 -150.446167  L 76.437642 -148.439483  L 76.24319 -146.4328  L 76.103175 -144.426117  L 76.000306 -142.419433  L 75.913213 -140.41275  L 75.823059 -138.406067  L 75.730829 -136.399383  L 75.655359 -134.3927  L 75.609523 -132.386017  L 75.587259 -130.379333  L 75.569437 -128.37265  L 75.542949 -126.365967  L 75.512633 -124.359283  L 75.489303 -122.3526  L 75.476954 -120.345917  L 75.476238 -118.339233  L 75.487702 -116.33255  L 75.503628 -114.325867  L 75.50639 -112.319183  L 75.490492 -110.3125  L 75.47193 -108.305817  L 75.465467 -106.299133  L 75.472283 -104.29245  L 75.484405 -102.285767  L 75.49026 -100.279083  L 75.485936 -98.2724  L 75.477543 -96.265717  L 75.469643 -94.259033  L 75.46294 -92.25235  L 75.458749 -90.245667  L 75.458553 -88.238983  L 75.464499 -86.2323  L 75.478173 -84.225617  L 75.492223 -82.218933  L 75.492861 -80.21225  L 75.480467 -78.205567  L 75.472392 -76.198883  L 75.483974 -74.1922  L 75.518026 -72.185517  L 75.561335 -70.178833  L 75.591033 -68.17215  L 75.598493 -66.165467  L 75.598809 -64.158783  L 75.599607 -62.1521  L 75.584882 -60.145417  L 75.551517 -58.138733  L 75.516733 -56.13205  L 75.489137 -54.125367  L 75.469869 -52.118683  L 75.459973 -50.112  z "
             id="mc28a5898e4"
             style="stroke:#3d3d3d;stroke-width:1.5;" />
        </defs>
        <g
           clip-path="url(#p1ff4332ef8)"
           id="g17">
          <use
             style="fill:#3274a1;stroke:#3d3d3d;stroke-width:1.5;"
             x="0"
             xlink:href="#mc28a5898e4"
             y="345.6"
             id="use15" />
        </g>
      </g>
      <g
         id="PolyCollection_2">
        <defs
           id="defs21">
          <path
             d="M 111.171933 -92.62901  L 111.164067 -92.62901  L 111.15425 -94.643181  L 111.13549 -96.657353  L 111.110747 -98.671525  L 111.08471 -100.685696  L 111.064838 -102.699868  L 111.05797 -104.714039  L 111.052774 -106.728211  L 111.036196 -108.742383  L 111.025089 -110.756554  L 111.04505 -112.770726  L 111.090875 -114.784897  L 111.131693 -116.799069  L 111.144936 -118.813241  L 111.131887 -120.827412  L 111.114411 -122.841584  L 111.116975 -124.855756  L 111.138024 -126.869927  L 111.157128 -128.884099  L 111.165215 -130.89827  L 111.165578 -132.912442  L 111.160498 -134.926614  L 111.149904 -136.940785  L 111.136203 -138.954957  L 111.125204 -140.969129  L 111.124331 -142.9833  L 111.136063 -144.997472  L 111.15083 -147.011643  L 111.153548 -149.025815  L 111.132616 -151.039987  L 111.091341 -153.054158  L 111.063117 -155.06833  L 111.079507 -157.082501  L 111.121907 -159.096673  L 111.152584 -161.110845  L 111.162527 -163.125016  L 111.160794 -165.139188  L 111.15206 -167.15336  L 111.133255 -169.167531  L 111.101469 -171.181703  L 111.06059 -173.195874  L 111.016658 -175.210046  L 110.970242 -177.224218  L 110.912236 -179.238389  L 110.829877 -181.252561  L 110.71758 -183.266733  L 110.578711 -185.280904  L 110.430812 -187.295076  L 110.296027 -189.309247  L 110.172418 -191.323419  L 110.032277 -193.337591  L 109.826729 -195.351762  L 109.50443 -197.365934  L 109.064104 -199.380106  L 108.532362 -201.394277  L 107.902776 -203.408449  L 107.19484 -205.42262  L 106.521201 -207.436792  L 105.968254 -209.450964  L 105.487547 -211.465135  L 104.979724 -213.479307  L 104.308085 -215.493478  L 103.191658 -217.50765  L 101.509258 -219.521822  L 99.893711 -221.535993  L 99.249383 -223.550165  L 99.681548 -225.564337  L 100.533523 -227.578508  L 101.047307 -229.59268  L 101.257089 -231.606851  L 101.862382 -233.621023  L 102.891859 -235.635195  L 103.800439 -237.649366  L 104.428185 -239.663538  L 104.985433 -241.67771  L 105.653009 -243.691881  L 106.416102 -245.706053  L 107.153776 -247.720224  L 107.827189 -249.734396  L 108.479068 -251.748568  L 109.100794 -253.762739  L 109.633094 -255.776911  L 110.056139 -257.791082  L 110.382075 -259.805254  L 110.620724 -261.819426  L 110.786522 -263.833597  L 110.898721 -265.847769  L 110.97651 -267.861941  L 111.036823 -269.876112  L 111.087124 -271.890284  L 111.124682 -273.904455  L 111.145863 -275.918627  L 111.152762 -277.932799  L 111.152974 -279.94697  L 111.153023 -281.961142  L 111.15433 -283.975314  L 111.15703 -285.989485  L 111.161156 -288.003657  L 111.165017 -290.017828  L 111.167143 -292.032  L 111.168857 -292.032  L 111.168857 -292.032  L 111.170983 -290.017828  L 111.174844 -288.003657  L 111.17897 -285.989485  L 111.18167 -283.975314  L 111.182977 -281.961142  L 111.183026 -279.94697  L 111.183238 -277.932799  L 111.190137 -275.918627  L 111.211318 -273.904455  L 111.248876 -271.890284  L 111.299177 -269.876112  L 111.35949 -267.861941  L 111.437279 -265.847769  L 111.549478 -263.833597  L 111.715276 -261.819426  L 111.953925 -259.805254  L 112.279861 -257.791082  L 112.702906 -255.776911  L 113.235206 -253.762739  L 113.856932 -251.748568  L 114.508811 -249.734396  L 115.182224 -247.720224  L 115.919898 -245.706053  L 116.682991 -243.691881  L 117.350567 -241.67771  L 117.907815 -239.663538  L 118.535561 -237.649366  L 119.444141 -235.635195  L 120.473618 -233.621023  L 121.078911 -231.606851  L 121.288693 -229.59268  L 121.802477 -227.578508  L 122.654452 -225.564337  L 123.086617 -223.550165  L 122.442289 -221.535993  L 120.826742 -219.521822  L 119.144342 -217.50765  L 118.027915 -215.493478  L 117.356276 -213.479307  L 116.848453 -211.465135  L 116.367746 -209.450964  L 115.814799 -207.436792  L 115.14116 -205.42262  L 114.433224 -203.408449  L 113.803638 -201.394277  L 113.271896 -199.380106  L 112.83157 -197.365934  L 112.509271 -195.351762  L 112.303723 -193.337591  L 112.163582 -191.323419  L 112.039973 -189.309247  L 111.905188 -187.295076  L 111.757289 -185.280904  L 111.61842 -183.266733  L 111.506123 -181.252561  L 111.423764 -179.238389  L 111.365758 -177.224218  L 111.319342 -175.210046  L 111.27541 -173.195874  L 111.234531 -171.181703  L 111.202745 -169.167531  L 111.18394 -167.15336  L 111.175206 -165.139188  L 111.173473 -163.125016  L 111.183416 -161.110845  L 111.214093 -159.096673  L 111.256493 -157.082501  L 111.272883 -155.06833  L 111.244659 -153.054158  L 111.203384 -151.039987  L 111.182452 -149.025815  L 111.18517 -147.011643  L 111.199937 -144.997472  L 111.211669 -142.9833  L 111.210796 -140.969129  L 111.199797 -138.954957  L 111.186096 -136.940785  L 111.175502 -134.926614  L 111.170422 -132.912442  L 111.170785 -130.89827  L 111.178872 -128.884099  L 111.197976 -126.869927  L 111.219025 -124.855756  L 111.221589 -122.841584  L 111.204113 -120.827412  L 111.191064 -118.813241  L 111.204307 -116.799069  L 111.245125 -114.784897  L 111.29095 -112.770726  L 111.310911 -110.756554  L 111.299804 -108.742383  L 111.283226 -106.728211  L 111.27803 -104.714039  L 111.271162 -102.699868  L 111.25129 -100.685696  L 111.225253 -98.671525  L 111.20051 -96.657353  L 111.18175 -94.643181  L 111.171933 -92.62901  z "
             id="maee3d23f7a"
             style="stroke:#3d3d3d;stroke-width:1.5;" />
        </defs>
        <g
           clip-path="url(#p1ff4332ef8)"
           id="g25">
          <use
             style="fill:#e1812c;stroke:#3d3d3d;stroke-width:1.5;"
             x="0"
             xlink:href="#maee3d23f7a"
             y="345.6"
             id="use23" />
        </g>
      </g>
      <g
         id="PolyCollection_3">
        <defs
           id="defs29">
          <path
             d="M 146.884285 -95.290839  L 146.875715 -95.290839  L 146.865175 -97.195093  L 146.844392 -99.099347  L 146.815377 -101.0036  L 146.781803 -102.907854  L 146.750575 -104.812108  L 146.736847 -106.716362  L 146.741112 -108.620616  L 146.739297 -110.524869  L 146.725483 -112.429123  L 146.727822 -114.333377  L 146.764223 -116.237631  L 146.815528 -118.141885  L 146.850989 -120.046138  L 146.857813 -121.950392  L 146.843813 -123.854646  L 146.830043 -125.7589  L 146.834598 -127.663154  L 146.852844 -129.567407  L 146.866997 -131.471661  L 146.869839 -133.375915  L 146.866528 -135.280169  L 146.862478 -137.184423  L 146.856454 -139.088676  L 146.845055 -140.99293  L 146.831282 -142.897184  L 146.825089 -144.801438  L 146.833214 -146.705691  L 146.849872 -148.609945  L 146.861936 -150.514199  L 146.860141 -152.418453  L 146.841892 -154.322707  L 146.815852 -156.22696  L 146.805145 -158.131214  L 146.821783 -160.035468  L 146.846354 -161.939722  L 146.855121 -163.843976  L 146.84555 -165.748229  L 146.826984 -167.652483  L 146.807339 -169.556737  L 146.791177 -171.460991  L 146.777271 -173.365245  L 146.757668 -175.269498  L 146.726499 -177.173752  L 146.686956 -179.078006  L 146.643204 -180.98226  L 146.590865 -182.886514  L 146.521113 -184.790767  L 146.430189 -186.695021  L 146.323216 -188.599275  L 146.197465 -190.503529  L 146.034341 -192.407783  L 145.836438 -194.312036  L 145.63032 -196.21629  L 145.403656 -198.120544  L 145.120146 -200.024798  L 144.787101 -201.929051  L 144.40943 -203.833305  L 143.951218 -205.737559  L 143.393571 -207.641813  L 142.749072 -209.546067  L 142.03957 -211.45032  L 141.296104 -213.354574  L 140.551559 -215.258828  L 139.771585 -217.163082  L 138.75733 -219.067336  L 137.276447 -220.971589  L 135.58672 -222.875843  L 134.56571 -224.780097  L 134.713369 -226.684351  L 135.591652 -228.588605  L 136.433339 -230.492858  L 136.741685 -232.397112  L 136.797349 -234.301366  L 137.286842 -236.20562  L 138.218168 -238.109874  L 139.060665 -240.014127  L 139.626306 -241.918381  L 140.163694 -243.822635  L 140.914252 -245.726889  L 141.891467 -247.631143  L 142.950928 -249.535396  L 143.923932 -251.43965  L 144.723063 -253.343904  L 145.34743 -255.248158  L 145.814313 -257.152411  L 146.14436 -259.056665  L 146.37375 -260.960919  L 146.534988 -262.865173  L 146.645146 -264.769427  L 146.717433 -266.67368  L 146.766809 -268.577934  L 146.802451 -270.482188  L 146.825776 -272.386442  L 146.838956 -274.290696  L 146.847833 -276.194949  L 146.857037 -278.099203  L 146.86687 -280.003457  L 146.874543 -281.907711  L 146.878447 -283.811965  L 146.881553 -283.811965  L 146.881553 -283.811965  L 146.885457 -281.907711  L 146.89313 -280.003457  L 146.902963 -278.099203  L 146.912167 -276.194949  L 146.921044 -274.290696  L 146.934224 -272.386442  L 146.957549 -270.482188  L 146.993191 -268.577934  L 147.042567 -266.67368  L 147.114854 -264.769427  L 147.225012 -262.865173  L 147.38625 -260.960919  L 147.61564 -259.056665  L 147.945687 -257.152411  L 148.41257 -255.248158  L 149.036937 -253.343904  L 149.836068 -251.43965  L 150.809072 -249.535396  L 151.868533 -247.631143  L 152.845748 -245.726889  L 153.596306 -243.822635  L 154.133694 -241.918381  L 154.699335 -240.014127  L 155.541832 -238.109874  L 156.473158 -236.20562  L 156.962651 -234.301366  L 157.018315 -232.397112  L 157.326661 -230.492858  L 158.168348 -228.588605  L 159.046631 -226.684351  L 159.19429 -224.780097  L 158.17328 -222.875843  L 156.483553 -220.971589  L 155.00267 -219.067336  L 153.988415 -217.163082  L 153.208441 -215.258828  L 152.463896 -213.354574  L 151.72043 -211.45032  L 151.010928 -209.546067  L 150.366429 -207.641813  L 149.808782 -205.737559  L 149.35057 -203.833305  L 148.972899 -201.929051  L 148.639854 -200.024798  L 148.356344 -198.120544  L 148.12968 -196.21629  L 147.923562 -194.312036  L 147.725659 -192.407783  L 147.562535 -190.503529  L 147.436784 -188.599275  L 147.329811 -186.695021  L 147.238887 -184.790767  L 147.169135 -182.886514  L 147.116796 -180.98226  L 147.073044 -179.078006  L 147.033501 -177.173752  L 147.002332 -175.269498  L 146.982729 -173.365245  L 146.968823 -171.460991  L 146.952661 -169.556737  L 146.933016 -167.652483  L 146.91445 -165.748229  L 146.904879 -163.843976  L 146.913646 -161.939722  L 146.938217 -160.035468  L 146.954855 -158.131214  L 146.944148 -156.22696  L 146.918108 -154.322707  L 146.899859 -152.418453  L 146.898064 -150.514199  L 146.910128 -148.609945  L 146.926786 -146.705691  L 146.934911 -144.801438  L 146.928718 -142.897184  L 146.914945 -140.99293  L 146.903546 -139.088676  L 146.897522 -137.184423  L 146.893472 -135.280169  L 146.890161 -133.375915  L 146.893003 -131.471661  L 146.907156 -129.567407  L 146.925402 -127.663154  L 146.929957 -125.7589  L 146.916187 -123.854646  L 146.902187 -121.950392  L 146.909011 -120.046138  L 146.944472 -118.141885  L 146.995777 -116.237631  L 147.032178 -114.333377  L 147.034517 -112.429123  L 147.020703 -110.524869  L 147.018888 -108.620616  L 147.023153 -106.716362  L 147.009425 -104.812108  L 146.978197 -102.907854  L 146.944623 -101.0036  L 146.915608 -99.099347  L 146.894825 -97.195093  L 146.884285 -95.290839  z "
             id="md5cd5fec48"
             style="stroke:#3d3d3d;stroke-width:1.5;" />
        </defs>
        <g
           clip-path="url(#p1ff4332ef8)"
           id="g33">
          <use
             style="fill:#3a923a;stroke:#3d3d3d;stroke-width:1.5;"
             x="0"
             xlink:href="#md5cd5fec48"
             y="345.6"
             id="use31" />
        </g>
      </g>
      <g
         id="PolyCollection_4">
        <defs
           id="defs37">
          <path
             d="M 182.605283 -115.715412  L 182.578717 -115.715412  L 182.547812 -117.255054  L 182.482763 -118.794697  L 182.382672 -120.33434  L 182.268936 -121.873983  L 182.18329 -123.413625  L 182.171019 -124.953268  L 182.245729 -126.492911  L 182.368744 -128.032554  L 182.480243 -129.572196  L 182.548022 -131.111839  L 182.576168 -132.651482  L 182.580819 -134.191125  L 182.573157 -135.730767  L 182.558902 -137.27041  L 182.540797 -138.810053  L 182.518329 -140.349695  L 182.493747 -141.889338  L 182.481392 -143.428981  L 182.494636 -144.968624  L 182.522742 -146.508266  L 182.543418 -148.047909  L 182.551365 -149.587552  L 182.55393 -151.127195  L 182.551506 -152.666837  L 182.539213 -154.20648  L 182.520537 -155.746123  L 182.508194 -157.285766  L 182.510074 -158.825408  L 182.516569 -160.365051  L 182.506686 -161.904694  L 182.470515 -163.444337  L 182.420858 -164.983979  L 182.377249 -166.523622  L 182.345468 -168.063265  L 182.315812 -169.602907  L 182.270773 -171.14255  L 182.196599 -172.682193  L 182.095425 -174.221836  L 181.979623 -175.761478  L 181.852114 -177.301121  L 181.704502 -178.840764  L 181.542618 -180.380407  L 181.387068 -181.920049  L 181.228021 -183.459692  L 181.022018 -184.999335  L 180.749236 -186.538978  L 180.430391 -188.07862  L 180.075591 -189.618263  L 179.643491 -191.157906  L 179.082507 -192.697549  L 178.414859 -194.237191  L 177.748006 -195.776834  L 177.183113 -197.316477  L 176.713258 -198.856119  L 176.221915 -200.395762  L 175.590772 -201.935405  L 174.788206 -203.475048  L 173.785203 -205.01469  L 172.457088 -206.554333  L 170.890285 -208.093976  L 169.676437 -209.633619  L 169.282087 -211.173261  L 169.449394 -212.712904  L 169.811888 -214.252547  L 170.25264 -215.79219  L 170.48605 -217.331832  L 170.417089 -218.871475  L 170.602669 -220.411118  L 171.501674 -221.950761  L 172.832135 -223.490403  L 174.118993 -225.030046  L 175.266395 -226.569689  L 176.384923 -228.109332  L 177.512474 -229.648974  L 178.603222 -231.188617  L 179.587885 -232.72826  L 180.407491 -234.267902  L 181.038527 -235.807545  L 181.50151 -237.347188  L 181.839131 -238.886831  L 182.07948 -240.426473  L 182.23329 -241.966116  L 182.324058 -243.505759  L 182.388681 -245.045402  L 182.446038 -246.585044  L 182.49155 -248.124687  L 182.521096 -249.66433  L 182.540783 -251.203973  L 182.557178 -252.743615  L 182.571491 -254.283258  L 182.582129 -255.822901  L 182.587996 -257.362544  L 182.589573 -258.902186  L 182.5883 -260.441829  L 182.586217 -261.981472  L 182.585582 -263.521114  L 182.587139 -265.060757  L 182.589497 -266.6004  L 182.591124 -268.140043  L 182.592876 -268.140043  L 182.592876 -268.140043  L 182.594503 -266.6004  L 182.596861 -265.060757  L 182.598418 -263.521114  L 182.597783 -261.981472  L 182.5957 -260.441829  L 182.594427 -258.902186  L 182.596004 -257.362544  L 182.601871 -255.822901  L 182.612509 -254.283258  L 182.626822 -252.743615  L 182.643217 -251.203973  L 182.662904 -249.66433  L 182.69245 -248.124687  L 182.737962 -246.585044  L 182.795319 -245.045402  L 182.859942 -243.505759  L 182.95071 -241.966116  L 183.10452 -240.426473  L 183.344869 -238.886831  L 183.68249 -237.347188  L 184.145473 -235.807545  L 184.776509 -234.267902  L 185.596115 -232.72826  L 186.580778 -231.188617  L 187.671526 -229.648974  L 188.799077 -228.109332  L 189.917605 -226.569689  L 191.065007 -225.030046  L 192.351865 -223.490403  L 193.682326 -221.950761  L 194.581331 -220.411118  L 194.766911 -218.871475  L 194.69795 -217.331832  L 194.93136 -215.79219  L 195.372112 -214.252547  L 195.734606 -212.712904  L 195.901913 -211.173261  L 195.507563 -209.633619  L 194.293715 -208.093976  L 192.726912 -206.554333  L 191.398797 -205.01469  L 190.395794 -203.475048  L 189.593228 -201.935405  L 188.962085 -200.395762  L 188.470742 -198.856119  L 188.000887 -197.316477  L 187.435994 -195.776834  L 186.769141 -194.237191  L 186.101493 -192.697549  L 185.540509 -191.157906  L 185.108409 -189.618263  L 184.753609 -188.07862  L 184.434764 -186.538978  L 184.161982 -184.999335  L 183.955979 -183.459692  L 183.796932 -181.920049  L 183.641382 -180.380407  L 183.479498 -178.840764  L 183.331886 -177.301121  L 183.204377 -175.761478  L 183.088575 -174.221836  L 182.987401 -172.682193  L 182.913227 -171.14255  L 182.868188 -169.602907  L 182.838532 -168.063265  L 182.806751 -166.523622  L 182.763142 -164.983979  L 182.713485 -163.444337  L 182.677314 -161.904694  L 182.667431 -160.365051  L 182.673926 -158.825408  L 182.675806 -157.285766  L 182.663463 -155.746123  L 182.644787 -154.20648  L 182.632494 -152.666837  L 182.63007 -151.127195  L 182.632635 -149.587552  L 182.640582 -148.047909  L 182.661258 -146.508266  L 182.689364 -144.968624  L 182.702608 -143.428981  L 182.690253 -141.889338  L 182.665671 -140.349695  L 182.643203 -138.810053  L 182.625098 -137.27041  L 182.610843 -135.730767  L 182.603181 -134.191125  L 182.607832 -132.651482  L 182.635978 -131.111839  L 182.703757 -129.572196  L 182.815256 -128.032554  L 182.938271 -126.492911  L 183.012981 -124.953268  L 183.00071 -123.413625  L 182.915064 -121.873983  L 182.801328 -120.33434  L 182.701237 -118.794697  L 182.636188 -117.255054  L 182.605283 -115.715412  z "
             id="m1efd7ff22f"
             style="stroke:#3d3d3d;stroke-width:1.5;" />
        </defs>
        <g
           clip-path="url(#p1ff4332ef8)"
           id="g41">
          <use
             style="fill:#c03d3e;stroke:#3d3d3d;stroke-width:1.5;"
             x="0"
             xlink:href="#m1efd7ff22f"
             y="345.6"
             id="use39" />
        </g>
      </g>
      <g
         id="PolyCollection_5">
        <defs
           id="defs45">
          <path
             d="M 218.317341 -116.426817  L 218.290659 -116.426817  L 218.260716 -117.922681  L 218.200514 -119.418545  L 218.11431 -120.914409  L 218.02318 -122.410274  L 217.952458 -123.906138  L 217.928447 -125.402002  L 217.973187 -126.897866  L 218.075607 -128.39373  L 218.185079 -129.889594  L 218.256374 -131.385458  L 218.282687 -132.881322  L 218.280254 -134.377186  L 218.264825 -135.87305  L 218.245973 -137.368914  L 218.229046 -138.864778  L 218.215898 -140.360642  L 218.205288 -141.856507  L 218.19836 -143.352371  L 218.20324 -144.848235  L 218.223958 -146.344099  L 218.249757 -147.839963  L 218.266427 -149.335827  L 218.269472 -150.831691  L 218.261012 -152.327555  L 218.24432 -153.823419  L 218.225826 -155.319283  L 218.215293 -156.815147  L 218.217265 -158.311011  L 218.222838 -159.806875  L 218.213692 -161.302739  L 218.177496 -162.798604  L 218.121461 -164.294468  L 218.066531 -165.790332  L 218.024062 -167.286196  L 217.986731 -168.78206  L 217.94514 -170.277924  L 217.897189 -171.773788  L 217.841292 -173.269652  L 217.779213 -174.765516  L 217.717246 -176.26138  L 217.645855 -177.757244  L 217.534009 -179.253108  L 217.366882 -180.748972  L 217.165506 -182.244837  L 216.939342 -183.740701  L 216.663773 -185.236565  L 216.342169 -186.732429  L 216.029938 -188.228293  L 215.755133 -189.724157  L 215.466722 -191.220021  L 215.088799 -192.715885  L 214.588568 -194.211749  L 213.985541 -195.707613  L 213.321453 -197.203477  L 212.630628 -198.699341  L 211.932811 -200.195205  L 211.233292 -201.69107  L 210.517029 -203.186934  L 209.731965 -204.682798  L 208.747466 -206.178662  L 207.441504 -207.674526  L 206.040046 -209.17039  L 205.114845 -210.666254  L 204.872277 -212.162118  L 204.961348 -213.657982  L 205.198894 -215.153846  L 205.601514 -216.64971  L 205.894091 -218.145574  L 205.956871 -219.641438  L 206.2882 -221.137302  L 207.328059 -222.633167  L 208.830508 -224.129031  L 210.298798 -225.624895  L 211.571019 -227.120759  L 212.737046 -228.616623  L 213.828046 -230.112487  L 214.777774 -231.608351  L 215.552085 -233.104215  L 216.192631 -234.600079  L 216.746114 -236.095943  L 217.210695 -237.591807  L 217.558494 -239.087671  L 217.783099 -240.583535  L 217.917686 -242.0794  L 218.010007 -243.575264  L 218.086588 -245.071128  L 218.148333 -246.566992  L 218.190601 -248.062856  L 218.216743 -249.55872  L 218.236608 -251.054584  L 218.257154 -252.550448  L 218.276937 -254.046312  L 218.29065 -255.542176  L 218.296366 -257.03804  L 218.297125 -258.533904  L 218.297387 -260.029768  L 218.299153 -261.525633  L 218.301508 -263.021497  L 218.303114 -264.517361  L 218.304886 -264.517361  L 218.304886 -264.517361  L 218.306492 -263.021497  L 218.308847 -261.525633  L 218.310613 -260.029768  L 218.310875 -258.533904  L 218.311634 -257.03804  L 218.31735 -255.542176  L 218.331063 -254.046312  L 218.350846 -252.550448  L 218.371392 -251.054584  L 218.391257 -249.55872  L 218.417399 -248.062856  L 218.459667 -246.566992  L 218.521412 -245.071128  L 218.597993 -243.575264  L 218.690314 -242.0794  L 218.824901 -240.583535  L 219.049506 -239.087671  L 219.397305 -237.591807  L 219.861886 -236.095943  L 220.415369 -234.600079  L 221.055915 -233.104215  L 221.830226 -231.608351  L 222.779954 -230.112487  L 223.870954 -228.616623  L 225.036981 -227.120759  L 226.309202 -225.624895  L 227.777492 -224.129031  L 229.279941 -222.633167  L 230.3198 -221.137302  L 230.651129 -219.641438  L 230.713909 -218.145574  L 231.006486 -216.64971  L 231.409106 -215.153846  L 231.646652 -213.657982  L 231.735723 -212.162118  L 231.493155 -210.666254  L 230.567954 -209.17039  L 229.166496 -207.674526  L 227.860534 -206.178662  L 226.876035 -204.682798  L 226.090971 -203.186934  L 225.374708 -201.69107  L 224.675189 -200.195205  L 223.977372 -198.699341  L 223.286547 -197.203477  L 222.622459 -195.707613  L 222.019432 -194.211749  L 221.519201 -192.715885  L 221.141278 -191.220021  L 220.852867 -189.724157  L 220.578062 -188.228293  L 220.265831 -186.732429  L 219.944227 -185.236565  L 219.668658 -183.740701  L 219.442494 -182.244837  L 219.241118 -180.748972  L 219.073991 -179.253108  L 218.962145 -177.757244  L 218.890754 -176.26138  L 218.828787 -174.765516  L 218.766708 -173.269652  L 218.710811 -171.773788  L 218.66286 -170.277924  L 218.621269 -168.78206  L 218.583938 -167.286196  L 218.541469 -165.790332  L 218.486539 -164.294468  L 218.430504 -162.798604  L 218.394308 -161.302739  L 218.385162 -159.806875  L 218.390735 -158.311011  L 218.392707 -156.815147  L 218.382174 -155.319283  L 218.36368 -153.823419  L 218.346988 -152.327555  L 218.338528 -150.831691  L 218.341573 -149.335827  L 218.358243 -147.839963  L 218.384042 -146.344099  L 218.40476 -144.848235  L 218.40964 -143.352371  L 218.402712 -141.856507  L 218.392102 -140.360642  L 218.378954 -138.864778  L 218.362027 -137.368914  L 218.343175 -135.87305  L 218.327746 -134.377186  L 218.325313 -132.881322  L 218.351626 -131.385458  L 218.422921 -129.889594  L 218.532393 -128.39373  L 218.634813 -126.897866  L 218.679553 -125.402002  L 218.655542 -123.906138  L 218.58482 -122.410274  L 218.49369 -120.914409  L 218.407486 -119.418545  L 218.347284 -117.922681  L 218.317341 -116.426817  z "
             id="md8580af53a"
             style="stroke:#3d3d3d;stroke-width:1.5;" />
        </defs>
        <g
           clip-path="url(#p1ff4332ef8)"
           id="g49">
          <use
             style="fill:#9372b2;stroke:#3d3d3d;stroke-width:1.5;"
             x="0"
             xlink:href="#md8580af53a"
             y="345.6"
             id="use47" />
        </g>
      </g>
      <g
         id="PolyCollection_6">
        <defs
           id="defs53">
          <path
             d="M 254.026312 -117.000519  L 254.005688 -117.000519  L 253.982814 -118.45441  L 253.935897 -119.9083  L 253.864416 -121.362191  L 253.780119 -122.816081  L 253.705206 -124.269971  L 253.670908 -125.723862  L 253.702428 -127.177752  L 253.790343 -128.631643  L 253.889862 -130.085533  L 253.959664 -131.539424  L 253.990212 -132.993314  L 253.993429 -134.447204  L 253.981947 -135.901095  L 253.962652 -137.354985  L 253.940199 -138.808876  L 253.919624 -140.262766  L 253.904365 -141.716657  L 253.895873 -143.170547  L 253.899353 -144.624438  L 253.920633 -146.078328  L 253.952141 -147.532218  L 253.976401 -148.986109  L 253.985308 -150.439999  L 253.984874 -151.89389  L 253.984057 -153.34778  L 253.985452 -154.801671  L 253.985385 -156.255561  L 253.980153 -157.709451  L 253.969279 -159.163342  L 253.952337 -160.617232  L 253.926856 -162.071123  L 253.890987 -163.525013  L 253.846931 -164.978904  L 253.801354 -166.432794  L 253.759879 -167.886685  L 253.720007 -169.340575  L 253.672669 -170.794465  L 253.609995 -172.248356  L 253.531185 -173.702246  L 253.442586 -175.156137  L 253.347307 -176.610027  L 253.236622 -178.063918  L 253.10137 -179.517808  L 252.94641 -180.971698  L 252.78508 -182.425589  L 252.627773 -183.879479  L 252.475975 -185.33337  L 252.314019 -186.78726  L 252.108788 -188.241151  L 251.824835 -189.695041  L 251.436661 -191.148931  L 250.930386 -192.602822  L 250.309764 -194.056712  L 249.616258 -195.510603  L 248.936994 -196.964493  L 248.357495 -198.418384  L 247.889493 -199.872274  L 247.457596 -201.326165  L 246.944952 -202.780055  L 246.245338 -204.233945  L 245.282058 -205.687836  L 243.978252 -207.141726  L 242.377467 -208.595617  L 240.926466 -210.049507  L 240.208376 -211.503398  L 240.192097 -212.957288  L 240.412022 -214.411178  L 240.766355 -215.865069  L 241.268744 -217.318959  L 241.58114 -218.77285  L 241.634699 -220.22674  L 242.008859 -221.680631  L 243.128234 -223.134521  L 244.708042 -224.588412  L 246.260579 -226.042302  L 247.597987 -227.496192  L 248.733272 -228.950083  L 249.693121 -230.403973  L 250.505075 -231.857864  L 251.209137 -233.311754  L 251.842847 -234.765645  L 252.420233 -236.219535  L 252.916303 -237.673425  L 253.290264 -239.127316  L 253.533751 -240.581206  L 253.67901 -242.035097  L 253.764503 -243.488987  L 253.815219 -244.942878  L 253.848983 -246.396768  L 253.880078 -247.850658  L 253.914013 -249.304549  L 253.94718 -250.758439  L 253.97396 -252.21233  L 253.991735 -253.66622  L 254.001498 -255.120111  L 254.006715 -256.574001  L 254.010436 -258.027892  L 254.013349 -259.481782  L 254.015079 -260.935672  L 254.016921 -260.935672  L 254.016921 -260.935672  L 254.018651 -259.481782  L 254.021564 -258.027892  L 254.025285 -256.574001  L 254.030502 -255.120111  L 254.040265 -253.66622  L 254.05804 -252.21233  L 254.08482 -250.758439  L 254.117987 -249.304549  L 254.151922 -247.850658  L 254.183017 -246.396768  L 254.216781 -244.942878  L 254.267497 -243.488987  L 254.35299 -242.035097  L 254.498249 -240.581206  L 254.741736 -239.127316  L 255.115697 -237.673425  L 255.611767 -236.219535  L 256.189153 -234.765645  L 256.822863 -233.311754  L 257.526925 -231.857864  L 258.338879 -230.403973  L 259.298728 -228.950083  L 260.434013 -227.496192  L 261.771421 -226.042302  L 263.323958 -224.588412  L 264.903766 -223.134521  L 266.023141 -221.680631  L 266.397301 -220.22674  L 266.45086 -218.77285  L 266.763256 -217.318959  L 267.265645 -215.865069  L 267.619978 -214.411178  L 267.839903 -212.957288  L 267.823624 -211.503398  L 267.105534 -210.049507  L 265.654533 -208.595617  L 264.053748 -207.141726  L 262.749942 -205.687836  L 261.786662 -204.233945  L 261.087048 -202.780055  L 260.574404 -201.326165  L 260.142507 -199.872274  L 259.674505 -198.418384  L 259.095006 -196.964493  L 258.415742 -195.510603  L 257.722236 -194.056712  L 257.101614 -192.602822  L 256.595339 -191.148931  L 256.207165 -189.695041  L 255.923212 -188.241151  L 255.717981 -186.78726  L 255.556025 -185.33337  L 255.404227 -183.879479  L 255.24692 -182.425589  L 255.08559 -180.971698  L 254.93063 -179.517808  L 254.795378 -178.063918  L 254.684693 -176.610027  L 254.589414 -175.156137  L 254.500815 -173.702246  L 254.422005 -172.248356  L 254.359331 -170.794465  L 254.311993 -169.340575  L 254.272121 -167.886685  L 254.230646 -166.432794  L 254.185069 -164.978904  L 254.141013 -163.525013  L 254.105144 -162.071123  L 254.079663 -160.617232  L 254.062721 -159.163342  L 254.051847 -157.709451  L 254.046615 -156.255561  L 254.046548 -154.801671  L 254.047943 -153.34778  L 254.047126 -151.89389  L 254.046692 -150.439999  L 254.055599 -148.986109  L 254.079859 -147.532218  L 254.111367 -146.078328  L 254.132647 -144.624438  L 254.136127 -143.170547  L 254.127635 -141.716657  L 254.112376 -140.262766  L 254.091801 -138.808876  L 254.069348 -137.354985  L 254.050053 -135.901095  L 254.038571 -134.447204  L 254.041788 -132.993314  L 254.072336 -131.539424  L 254.142138 -130.085533  L 254.241657 -128.631643  L 254.329572 -127.177752  L 254.361092 -125.723862  L 254.326794 -124.269971  L 254.251881 -122.816081  L 254.167584 -121.362191  L 254.096103 -119.9083  L 254.049186 -118.45441  L 254.026312 -117.000519  z "
             id="m797395630d"
             style="stroke:#3d3d3d;stroke-width:1.5;" />
        </defs>
        <g
           clip-path="url(#p1ff4332ef8)"
           id="g57">
          <use
             style="fill:#845b53;stroke:#3d3d3d;stroke-width:1.5;"
             x="0"
             xlink:href="#m797395630d"
             y="345.6"
             id="use55" />
        </g>
      </g>
      <g
         id="PolyCollection_7">
        <defs
           id="defs61">
          <path
             d="M 289.733483 -119.157932  L 289.722517 -119.157932  L 289.711819 -120.548324  L 289.693502 -121.938715  L 289.672109 -123.329107  L 289.651953 -124.719498  L 289.631551 -126.10989  L 289.614305 -127.500281  L 289.611853 -128.890672  L 289.619955 -130.281064  L 289.608682 -131.671455  L 289.552862 -133.061847  L 289.465706 -134.452238  L 289.400163 -135.84263  L 289.407329 -137.233021  L 289.483631 -138.623413  L 289.576266 -140.013804  L 289.63793 -141.404195  L 289.653861 -142.794587  L 289.635949 -144.184978  L 289.614791 -145.57537  L 289.617826 -146.965761  L 289.642733 -148.356153  L 289.666104 -149.746544  L 289.673227 -151.136935  L 289.665888 -152.527327  L 289.65076 -153.917718  L 289.633371 -155.30811  L 289.620041 -156.698501  L 289.615683 -158.088893  L 289.618423 -159.479284  L 289.619714 -160.869676  L 289.609298 -162.260067  L 289.5836 -163.650458  L 289.550486 -165.04085  L 289.517064 -166.431241  L 289.47518 -167.821633  L 289.414279 -169.212024  L 289.344383 -170.602416  L 289.284138 -171.992807  L 289.22933 -173.383198  L 289.159363 -174.77359  L 289.067196 -176.163981  L 288.953981 -177.554373  L 288.809712 -178.944764  L 288.630942 -180.335156  L 288.438455 -181.725547  L 288.24555 -183.115939  L 288.030511 -184.50633  L 287.770611 -185.896721  L 287.475964 -187.287113  L 287.159861 -188.677504  L 286.815528 -190.067896  L 286.448441 -191.458287  L 286.069203 -192.848679  L 285.634591 -194.23907  L 285.07525 -195.629462  L 284.405298 -197.019853  L 283.727423 -198.410244  L 283.106165 -199.800636  L 282.50691 -201.191027  L 281.862486 -202.581419  L 281.110511 -203.97181  L 280.127696 -205.362202  L 278.757507 -206.752593  L 277.141435 -208.142984  L 275.890907 -209.533376  L 275.4432 -210.923767  L 275.47975 -212.314159  L 275.599933 -213.70455  L 275.980314 -215.094942  L 276.707043 -216.485333  L 277.316675 -217.875725  L 277.582146 -219.266116  L 277.99777 -220.656507  L 279.083414 -222.046899  L 280.71043 -223.43729  L 282.364428 -224.827682  L 283.727832 -226.218073  L 284.814299 -227.608465  L 285.740902 -228.998856  L 286.550463 -230.389247  L 287.22795 -231.779639  L 287.78045 -233.17003  L 288.240601 -234.560422  L 288.622513 -235.950813  L 288.922359 -237.341205  L 289.146187 -238.731596  L 289.308213 -240.121988  L 289.418892 -241.512379  L 289.492202 -242.90277  L 289.549297 -244.293162  L 289.60309 -245.683553  L 289.649428 -247.073945  L 289.680026 -248.464336  L 289.696071 -249.854728  L 289.705278 -251.245119  L 289.712945 -252.635511  L 289.719705 -254.025902  L 289.724438 -255.416293  L 289.726855 -256.806685  L 289.729145 -256.806685  L 289.729145 -256.806685  L 289.731562 -255.416293  L 289.736295 -254.025902  L 289.743055 -252.635511  L 289.750722 -251.245119  L 289.759929 -249.854728  L 289.775974 -248.464336  L 289.806572 -247.073945  L 289.85291 -245.683553  L 289.906703 -244.293162  L 289.963798 -242.90277  L 290.037108 -241.512379  L 290.147787 -240.121988  L 290.309813 -238.731596  L 290.533641 -237.341205  L 290.833487 -235.950813  L 291.215399 -234.560422  L 291.67555 -233.17003  L 292.22805 -231.779639  L 292.905537 -230.389247  L 293.715098 -228.998856  L 294.641701 -227.608465  L 295.728168 -226.218073  L 297.091572 -224.827682  L 298.74557 -223.43729  L 300.372586 -222.046899  L 301.45823 -220.656507  L 301.873854 -219.266116  L 302.139325 -217.875725  L 302.748957 -216.485333  L 303.475686 -215.094942  L 303.856067 -213.70455  L 303.97625 -212.314159  L 304.0128 -210.923767  L 303.565093 -209.533376  L 302.314565 -208.142984  L 300.698493 -206.752593  L 299.328304 -205.362202  L 298.345489 -203.97181  L 297.593514 -202.581419  L 296.94909 -201.191027  L 296.349835 -199.800636  L 295.728577 -198.410244  L 295.050702 -197.019853  L 294.38075 -195.629462  L 293.821409 -194.23907  L 293.386797 -192.848679  L 293.007559 -191.458287  L 292.640472 -190.067896  L 292.296139 -188.677504  L 291.980036 -187.287113  L 291.685389 -185.896721  L 291.425489 -184.50633  L 291.21045 -183.115939  L 291.017545 -181.725547  L 290.825058 -180.335156  L 290.646288 -178.944764  L 290.502019 -177.554373  L 290.388804 -176.163981  L 290.296637 -174.77359  L 290.22667 -173.383198  L 290.171862 -171.992807  L 290.111617 -170.602416  L 290.041721 -169.212024  L 289.98082 -167.821633  L 289.938936 -166.431241  L 289.905514 -165.04085  L 289.8724 -163.650458  L 289.846702 -162.260067  L 289.836286 -160.869676  L 289.837577 -159.479284  L 289.840317 -158.088893  L 289.835959 -156.698501  L 289.822629 -155.30811  L 289.80524 -153.917718  L 289.790112 -152.527327  L 289.782773 -151.136935  L 289.789896 -149.746544  L 289.813267 -148.356153  L 289.838174 -146.965761  L 289.841209 -145.57537  L 289.820051 -144.184978  L 289.802139 -142.794587  L 289.81807 -141.404195  L 289.879734 -140.013804  L 289.972369 -138.623413  L 290.048671 -137.233021  L 290.055837 -135.84263  L 289.990294 -134.452238  L 289.903138 -133.061847  L 289.847318 -131.671455  L 289.836045 -130.281064  L 289.844147 -128.890672  L 289.841695 -127.500281  L 289.824449 -126.10989  L 289.804047 -124.719498  L 289.783891 -123.329107  L 289.762498 -121.938715  L 289.744181 -120.548324  L 289.733483 -119.157932  z "
             id="md2a694dc59"
             style="stroke:#3d3d3d;stroke-width:1.5;" />
        </defs>
        <g
           clip-path="url(#p1ff4332ef8)"
           id="g65">
          <use
             style="fill:#d684bd;stroke:#3d3d3d;stroke-width:1.5;"
             x="0"
             xlink:href="#md2a694dc59"
             y="345.6"
             id="use63" />
        </g>
      </g>
      <g
         id="PolyCollection_8">
        <defs
           id="defs69">
          <path
             d="M 325.446744 -118.961592  L 325.433256 -118.961592  L 325.420527 -120.339429  L 325.399367 -121.717267  L 325.377101 -123.095104  L 325.36291 -124.472941  L 325.356028 -125.850779  L 325.350733 -127.228616  L 325.348352 -128.606453  L 325.346933 -129.984291  L 325.32607 -131.362128  L 325.261138 -132.739965  L 325.154724 -134.117803  L 325.051535 -135.49564  L 325.013848 -136.873477  L 325.065692 -138.251315  L 325.168948 -139.629152  L 325.265137 -141.006989  L 325.320991 -142.384827  L 325.334751 -143.762664  L 325.328304 -145.140501  L 325.331474 -146.518339  L 325.3545 -147.896176  L 325.3817 -149.274013  L 325.396067 -150.651851  L 325.395715 -152.029688  L 325.386929 -153.407525  L 325.374358 -154.785363  L 325.359587 -156.1632  L 325.345522 -157.541037  L 325.338315 -158.918875  L 325.338608 -160.296712  L 325.333069 -161.674549  L 325.305313 -163.052387  L 325.257084 -164.430224  L 325.208188 -165.808061  L 325.170125 -167.185899  L 325.130059 -168.563736  L 325.069141 -169.941573  L 324.988621 -171.319411  L 324.907963 -172.697248  L 324.839416 -174.075085  L 324.773904 -175.452923  L 324.693189 -176.83076  L 324.587024 -178.208597  L 324.45937 -179.586435  L 324.328296 -180.964272  L 324.210209 -182.342109  L 324.087862 -183.719947  L 323.911899 -185.097784  L 323.650196 -186.475621  L 323.310415 -187.853459  L 322.910909 -189.231296  L 322.463544 -190.609133  L 321.977515 -191.986971  L 321.458775 -193.364808  L 320.923479 -194.742645  L 320.406092 -196.120483  L 319.921561 -197.49832  L 319.428008 -198.876157  L 318.856192 -200.253995  L 318.173418 -201.631832  L 317.399428 -203.009669  L 316.543717 -204.387507  L 315.523963 -205.765344  L 314.243795 -207.143181  L 312.879368 -208.521019  L 311.8982 -209.898856  L 311.500525 -211.276693  L 311.367244 -212.654531  L 311.316138 -214.032368  L 311.617159 -215.410205  L 312.299032 -216.788043  L 312.890221 -218.16588  L 313.183788 -219.543717  L 313.631358 -220.921555  L 314.694855 -222.299392  L 316.257313 -223.677229  L 317.889787 -225.055067  L 319.333302 -226.432904  L 320.552704 -227.810741  L 321.573783 -229.188579  L 322.412036 -230.566416  L 323.086756 -231.944253  L 323.63076 -233.322091  L 324.071054 -234.699928  L 324.416832 -236.077765  L 324.677913 -237.455603  L 324.876027 -238.83344  L 325.029645 -240.211277  L 325.145822 -241.589114  L 325.229073 -242.966952  L 325.285708 -244.344789  L 325.321694 -245.722626  L 325.344619 -247.100464  L 325.364291 -248.478301  L 325.386198 -249.856138  L 325.407965 -251.233976  L 325.424568 -252.611813  L 325.434118 -253.98965  L 325.438263 -255.367488  L 325.441737 -255.367488  L 325.441737 -255.367488  L 325.445882 -253.98965  L 325.455432 -252.611813  L 325.472035 -251.233976  L 325.493802 -249.856138  L 325.515709 -248.478301  L 325.535381 -247.100464  L 325.558306 -245.722626  L 325.594292 -244.344789  L 325.650927 -242.966952  L 325.734178 -241.589114  L 325.850355 -240.211277  L 326.003973 -238.83344  L 326.202087 -237.455603  L 326.463168 -236.077765  L 326.808946 -234.699928  L 327.24924 -233.322091  L 327.793244 -231.944253  L 328.467964 -230.566416  L 329.306217 -229.188579  L 330.327296 -227.810741  L 331.546698 -226.432904  L 332.990213 -225.055067  L 334.622687 -223.677229  L 336.185145 -222.299392  L 337.248642 -220.921555  L 337.696212 -219.543717  L 337.989779 -218.16588  L 338.580968 -216.788043  L 339.262841 -215.410205  L 339.563862 -214.032368  L 339.512756 -212.654531  L 339.379475 -211.276693  L 338.9818 -209.898856  L 338.000632 -208.521019  L 336.636205 -207.143181  L 335.356037 -205.765344  L 334.336283 -204.387507  L 333.480572 -203.009669  L 332.706582 -201.631832  L 332.023808 -200.253995  L 331.451992 -198.876157  L 330.958439 -197.49832  L 330.473908 -196.120483  L 329.956521 -194.742645  L 329.421225 -193.364808  L 328.902485 -191.986971  L 328.416456 -190.609133  L 327.969091 -189.231296  L 327.569585 -187.853459  L 327.229804 -186.475621  L 326.968101 -185.097784  L 326.792138 -183.719947  L 326.669791 -182.342109  L 326.551704 -180.964272  L 326.42063 -179.586435  L 326.292976 -178.208597  L 326.186811 -176.83076  L 326.106096 -175.452923  L 326.040584 -174.075085  L 325.972037 -172.697248  L 325.891379 -171.319411  L 325.810859 -169.941573  L 325.749941 -168.563736  L 325.709875 -167.185899  L 325.671812 -165.808061  L 325.622916 -164.430224  L 325.574687 -163.052387  L 325.546931 -161.674549  L 325.541392 -160.296712  L 325.541685 -158.918875  L 325.534478 -157.541037  L 325.520413 -156.1632  L 325.505642 -154.785363  L 325.493071 -153.407525  L 325.484285 -152.029688  L 325.483933 -150.651851  L 325.4983 -149.274013  L 325.5255 -147.896176  L 325.548526 -146.518339  L 325.551696 -145.140501  L 325.545249 -143.762664  L 325.559009 -142.384827  L 325.614863 -141.006989  L 325.711052 -139.629152  L 325.814308 -138.251315  L 325.866152 -136.873477  L 325.828465 -135.49564  L 325.725276 -134.117803  L 325.618862 -132.739965  L 325.55393 -131.362128  L 325.533067 -129.984291  L 325.531648 -128.606453  L 325.529267 -127.228616  L 325.523972 -125.850779  L 325.51709 -124.472941  L 325.502899 -123.095104  L 325.480633 -121.717267  L 325.459473 -120.339429  L 325.446744 -118.961592  z "
             id="me242d040b3"
             style="stroke:#3d3d3d;stroke-width:1.5;" />
        </defs>
        <g
           clip-path="url(#p1ff4332ef8)"
           id="g73">
          <use
             style="fill:#7f7f7f;stroke:#3d3d3d;stroke-width:1.5;"
             x="0"
             xlink:href="#me242d040b3"
             y="345.6"
             id="use71" />
        </g>
      </g>
      <g
         id="PolyCollection_9">
        <defs
           id="defs77">
          <path
             d="M 361.160628 -119.013414  L 361.143372 -119.013414  L 361.124927 -120.43984  L 361.092521 -121.866266  L 361.057604 -123.292692  L 361.035395 -124.719118  L 361.025512 -126.145544  L 361.022056 -127.57197  L 361.02951 -128.998396  L 361.042323 -130.424822  L 361.030309 -131.851248  L 360.96716 -133.277674  L 360.870127 -134.7041  L 360.806406 -136.130526  L 360.835446 -137.556952  L 360.937937 -138.983378  L 361.038387 -140.409804  L 361.087177 -141.83623  L 361.085938 -143.262656  L 361.06335 -144.689082  L 361.05154 -146.115508  L 361.063109 -147.541934  L 361.085343 -148.96836  L 361.103253 -150.394786  L 361.113965 -151.821212  L 361.119063 -153.247637  L 361.119374 -154.674063  L 361.115295 -156.100489  L 361.105216 -157.526915  L 361.086212 -158.953341  L 361.057453 -160.379767  L 361.022374 -161.806193  L 360.988471 -163.232619  L 360.962463 -164.659045  L 360.942608 -166.085471  L 360.918154 -167.511897  L 360.87862 -168.938323  L 360.822727 -170.364749  L 360.756179 -171.791175  L 360.67631 -173.217601  L 360.570259 -174.644027  L 360.441597 -176.070453  L 360.311207 -177.496879  L 360.179153 -178.923305  L 360.028967 -180.349731  L 359.866813 -181.776157  L 359.702954 -183.202583  L 359.520009 -184.629009  L 359.314555 -186.055435  L 359.119529 -187.481861  L 358.929208 -188.908287  L 358.661303 -190.334713  L 358.23663 -191.761139  L 357.651278 -193.187565  L 356.967444 -194.613991  L 356.27391 -196.040417  L 355.632994 -197.466843  L 355.036479 -198.893269  L 354.423609 -200.319695  L 353.743446 -201.746121  L 352.990514 -203.172547  L 352.139212 -204.598973  L 351.047634 -206.025399  L 349.619605 -207.451825  L 348.179888 -208.878251  L 347.303894 -210.304677  L 347.044734 -211.731103  L 346.987446 -213.157529  L 347.134751 -214.583955  L 347.707991 -216.010381  L 348.318079 -217.436807  L 348.490907 -218.863233  L 348.621924 -220.289659  L 349.491397 -221.716085  L 351.181974 -223.142511  L 353.106849 -224.568937  L 354.781391 -225.995363  L 356.094605 -227.421789  L 357.097931 -228.848215  L 357.875775 -230.274641  L 358.526937 -231.701067  L 359.119183 -233.127493  L 359.655541 -234.553919  L 360.099212 -235.980345  L 360.418565 -237.406771  L 360.612543 -238.833197  L 360.714919 -240.259623  L 360.780655 -241.686049  L 360.854114 -243.112475  L 360.941926 -244.538901  L 361.021942 -245.965327  L 361.075638 -247.391753  L 361.104628 -248.818179  L 361.120593 -250.244605  L 361.130809 -251.671031  L 361.136973 -253.097457  L 361.14036 -254.523883  L 361.143096 -255.950309  L 361.146282 -257.376735  L 361.149238 -258.803161  L 361.151048 -260.229587  L 361.152952 -260.229587  L 361.152952 -260.229587  L 361.154762 -258.803161  L 361.157718 -257.376735  L 361.160904 -255.950309  L 361.16364 -254.523883  L 361.167027 -253.097457  L 361.173191 -251.671031  L 361.183407 -250.244605  L 361.199372 -248.818179  L 361.228362 -247.391753  L 361.282058 -245.965327  L 361.362074 -244.538901  L 361.449886 -243.112475  L 361.523345 -241.686049  L 361.589081 -240.259623  L 361.691457 -238.833197  L 361.885435 -237.406771  L 362.204788 -235.980345  L 362.648459 -234.553919  L 363.184817 -233.127493  L 363.777063 -231.701067  L 364.428225 -230.274641  L 365.206069 -228.848215  L 366.209395 -227.421789  L 367.522609 -225.995363  L 369.197151 -224.568937  L 371.122026 -223.142511  L 372.812603 -221.716085  L 373.682076 -220.289659  L 373.813093 -218.863233  L 373.985921 -217.436807  L 374.596009 -216.010381  L 375.169249 -214.583955  L 375.316554 -213.157529  L 375.259266 -211.731103  L 375.000106 -210.304677  L 374.124112 -208.878251  L 372.684395 -207.451825  L 371.256366 -206.025399  L 370.164788 -204.598973  L 369.313486 -203.172547  L 368.560554 -201.746121  L 367.880391 -200.319695  L 367.267521 -198.893269  L 366.671006 -197.466843  L 366.03009 -196.040417  L 365.336556 -194.613991  L 364.652722 -193.187565  L 364.06737 -191.761139  L 363.642697 -190.334713  L 363.374792 -188.908287  L 363.184471 -187.481861  L 362.989445 -186.055435  L 362.783991 -184.629009  L 362.601046 -183.202583  L 362.437187 -181.776157  L 362.275033 -180.349731  L 362.124847 -178.923305  L 361.992793 -177.496879  L 361.862403 -176.070453  L 361.733741 -174.644027  L 361.62769 -173.217601  L 361.547821 -171.791175  L 361.481273 -170.364749  L 361.42538 -168.938323  L 361.385846 -167.511897  L 361.361392 -166.085471  L 361.341537 -164.659045  L 361.315529 -163.232619  L 361.281626 -161.806193  L 361.246547 -160.379767  L 361.217788 -158.953341  L 361.198784 -157.526915  L 361.188705 -156.100489  L 361.184626 -154.674063  L 361.184937 -153.247637  L 361.190035 -151.821212  L 361.200747 -150.394786  L 361.218657 -148.96836  L 361.240891 -147.541934  L 361.25246 -146.115508  L 361.24065 -144.689082  L 361.218062 -143.262656  L 361.216823 -141.83623  L 361.265613 -140.409804  L 361.366063 -138.983378  L 361.468554 -137.556952  L 361.497594 -136.130526  L 361.433873 -134.7041  L 361.33684 -133.277674  L 361.273691 -131.851248  L 361.261677 -130.424822  L 361.27449 -128.998396  L 361.281944 -127.57197  L 361.278488 -126.145544  L 361.268605 -124.719118  L 361.246396 -123.292692  L 361.211479 -121.866266  L 361.179073 -120.43984  L 361.160628 -119.013414  z "
             id="m4903ce2d6c"
             style="stroke:#3d3d3d;stroke-width:1.5;" />
        </defs>
        <g
           clip-path="url(#p1ff4332ef8)"
           id="g81">
          <use
             style="fill:#a9aa35;stroke:#3d3d3d;stroke-width:1.5;"
             x="0"
             xlink:href="#m4903ce2d6c"
             y="345.6"
             id="use79" />
        </g>
      </g>
      <g
         id="PolyCollection_10">
        <defs
           id="defs85">
          <path
             d="M 396.872109 -119.002603  L 396.855891 -119.002603  L 396.840676 -120.429254  L 396.815268 -121.855905  L 396.786488 -123.282556  L 396.761311 -124.709207  L 396.739277 -126.135858  L 396.723579 -127.562509  L 396.722269 -128.98916  L 396.720737 -130.415811  L 396.678224 -131.842462  L 396.574521 -133.269113  L 396.452391 -134.695764  L 396.398673 -136.122415  L 396.46355 -137.549066  L 396.602738 -138.975717  L 396.725389 -140.402368  L 396.780441 -141.829019  L 396.77552 -143.25567  L 396.748513 -144.682321  L 396.739548 -146.108972  L 396.763367 -147.535623  L 396.801478 -148.962274  L 396.829193 -150.388925  L 396.839287 -151.815576  L 396.836767 -153.242227  L 396.826337 -154.668878  L 396.811009 -156.095529  L 396.795404 -157.522179  L 396.782724 -158.94883  L 396.769021 -160.375481  L 396.745005 -161.802132  L 396.704608 -163.228783  L 396.651593 -164.655434  L 396.596576 -166.082085  L 396.545404 -167.508736  L 396.493639 -168.935387  L 396.43573 -170.362038  L 396.371866 -171.788689  L 396.300506 -173.21534  L 396.216118 -174.641991  L 396.121959 -176.068642  L 396.030544 -177.495293  L 395.943602 -178.921944  L 395.84782 -180.348595  L 395.727175 -181.775246  L 395.559063 -183.201897  L 395.322276 -184.628548  L 395.033451 -186.055199  L 394.737432 -187.48185  L 394.43599 -188.908501  L 394.072066 -190.335152  L 393.617925 -191.761803  L 393.124968 -193.188454  L 392.647989 -194.615105  L 392.177368 -196.041756  L 391.662102 -197.468407  L 391.045786 -198.895058  L 390.300249 -200.321709  L 389.463131 -201.74836  L 388.598001 -203.175011  L 387.680781 -204.601662  L 386.574989 -206.028313  L 385.246354 -207.454964  L 384.019801 -208.881615  L 383.325471 -210.308266  L 383.100777 -211.734917  L 382.951508 -213.161568  L 382.895763 -214.588219  L 383.211816 -216.01487  L 383.741487 -217.441521  L 384.153652 -218.868171  L 384.635131 -220.294822  L 385.654649 -221.721473  L 387.247337 -223.148124  L 388.991532 -224.574775  L 390.524945 -226.001426  L 391.760401 -227.428077  L 392.73614 -228.854728  L 393.509652 -230.281379  L 394.161565 -231.70803  L 394.763125 -233.134681  L 395.319711 -234.561332  L 395.782344 -235.987983  L 396.112973 -237.414634  L 396.322212 -238.841285  L 396.452333 -240.267936  L 396.543984 -241.694587  L 396.619962 -243.121238  L 396.687136 -244.547889  L 396.744412 -245.97454  L 396.788659 -247.401191  L 396.818763 -248.827842  L 396.837066 -250.254493  L 396.847241 -251.681144  L 396.852249 -253.107795  L 396.854535 -254.534446  L 396.856413 -255.961097  L 396.858946 -257.387748  L 396.861475 -258.814399  L 396.863091 -260.24105  L 396.864909 -260.24105  L 396.864909 -260.24105  L 396.866525 -258.814399  L 396.869054 -257.387748  L 396.871587 -255.961097  L 396.873465 -254.534446  L 396.875751 -253.107795  L 396.880759 -251.681144  L 396.890934 -250.254493  L 396.909237 -248.827842  L 396.939341 -247.401191  L 396.983588 -245.97454  L 397.040864 -244.547889  L 397.108038 -243.121238  L 397.184016 -241.694587  L 397.275667 -240.267936  L 397.405788 -238.841285  L 397.615027 -237.414634  L 397.945656 -235.987983  L 398.408289 -234.561332  L 398.964875 -233.134681  L 399.566435 -231.70803  L 400.218348 -230.281379  L 400.99186 -228.854728  L 401.967599 -227.428077  L 403.203055 -226.001426  L 404.736468 -224.574775  L 406.480663 -223.148124  L 408.073351 -221.721473  L 409.092869 -220.294822  L 409.574348 -218.868171  L 409.986513 -217.441521  L 410.516184 -216.01487  L 410.832237 -214.588219  L 410.776492 -213.161568  L 410.627223 -211.734917  L 410.402529 -210.308266  L 409.708199 -208.881615  L 408.481646 -207.454964  L 407.153011 -206.028313  L 406.047219 -204.601662  L 405.129999 -203.175011  L 404.264869 -201.74836  L 403.427751 -200.321709  L 402.682214 -198.895058  L 402.065898 -197.468407  L 401.550632 -196.041756  L 401.080011 -194.615105  L 400.603032 -193.188454  L 400.110075 -191.761803  L 399.655934 -190.335152  L 399.29201 -188.908501  L 398.990568 -187.48185  L 398.694549 -186.055199  L 398.405724 -184.628548  L 398.168937 -183.201897  L 398.000825 -181.775246  L 397.88018 -180.348595  L 397.784398 -178.921944  L 397.697456 -177.495293  L 397.606041 -176.068642  L 397.511882 -174.641991  L 397.427494 -173.21534  L 397.356134 -171.788689  L 397.29227 -170.362038  L 397.234361 -168.935387  L 397.182596 -167.508736  L 397.131424 -166.082085  L 397.076407 -164.655434  L 397.023392 -163.228783  L 396.982995 -161.802132  L 396.958979 -160.375481  L 396.945276 -158.94883  L 396.932596 -157.522179  L 396.916991 -156.095529  L 396.901663 -154.668878  L 396.891233 -153.242227  L 396.888713 -151.815576  L 396.898807 -150.388925  L 396.926522 -148.962274  L 396.964633 -147.535623  L 396.988452 -146.108972  L 396.979487 -144.682321  L 396.95248 -143.25567  L 396.947559 -141.829019  L 397.002611 -140.402368  L 397.125262 -138.975717  L 397.26445 -137.549066  L 397.329327 -136.122415  L 397.275609 -134.695764  L 397.153479 -133.269113  L 397.049776 -131.842462  L 397.007263 -130.415811  L 397.005731 -128.98916  L 397.004421 -127.562509  L 396.988723 -126.135858  L 396.966689 -124.709207  L 396.941512 -123.282556  L 396.912732 -121.855905  L 396.887324 -120.429254  L 396.872109 -119.002603  z "
             id="mfc05309acc"
             style="stroke:#3d3d3d;stroke-width:1.5;" />
        </defs>
        <g
           clip-path="url(#p1ff4332ef8)"
           id="g89">
          <use
             style="fill:#2eabb8;stroke:#3d3d3d;stroke-width:1.5;"
             x="0"
             xlink:href="#mfc05309acc"
             y="345.6"
             id="use87" />
        </g>
      </g>
      <g
         id="matplotlib.axis_1">
        <g
           id="xtick_1">
          <g
             id="line2d_1">
            <defs
               id="defs93">
              <path
                 d="M 0 0  L 0 3.5  "
                 id="mf886a9bcbf"
                 style="stroke:#000000;stroke-width:0.8;" />
            </defs>
            <g
               id="g97">
              <use
                 style="stroke:#000000;stroke-width:0.8;"
                 x="75.456"
                 xlink:href="#mf886a9bcbf"
                 y="307.584"
                 id="use95" />
            </g>
          </g>
          <g
             id="text_1">
            <!-- 0 -->
            <defs
               id="defs101">
              <path
                 d="M 31.78125 66.40625  Q 24.171875 66.40625 20.328125 58.90625  Q 16.5 51.421875 16.5 36.375  Q 16.5 21.390625 20.328125 13.890625  Q 24.171875 6.390625 31.78125 6.390625  Q 39.453125 6.390625 43.28125 13.890625  Q 47.125 21.390625 47.125 36.375  Q 47.125 51.421875 43.28125 58.90625  Q 39.453125 66.40625 31.78125 66.40625  z M 31.78125 74.21875  Q 44.046875 74.21875 50.515625 64.515625  Q 56.984375 54.828125 56.984375 36.375  Q 56.984375 17.96875 50.515625 8.265625  Q 44.046875 -1.421875 31.78125 -1.421875  Q 19.53125 -1.421875 13.0625 8.265625  Q 6.59375 17.96875 6.59375 36.375  Q 6.59375 54.828125 13.0625 64.515625  Q 19.53125 74.21875 31.78125 74.21875  z "
                 id="DejaVuSans-48" />
            </defs>
            <g
               transform="translate(72.27475 322.182437)scale(0.1 -0.1)"
               id="g105">
              <use
                 xlink:href="#DejaVuSans-48"
                 id="use103" />
            </g>
          </g>
        </g>
        <g
           id="xtick_2">
          <g
             id="line2d_2">
            <g
               id="g111">
              <use
                 style="stroke:#000000;stroke-width:0.8;"
                 x="111.168"
                 xlink:href="#mf886a9bcbf"
                 y="307.584"
                 id="use109" />
            </g>
          </g>
          <g
             id="text_2">
            <!-- 1 -->
            <defs
               id="defs115">
              <path
                 d="M 12.40625 8.296875  L 28.515625 8.296875  L 28.515625 63.921875  L 10.984375 60.40625  L 10.984375 69.390625  L 28.421875 72.90625  L 38.28125 72.90625  L 38.28125 8.296875  L 54.390625 8.296875  L 54.390625 0  L 12.40625 0  z "
                 id="DejaVuSans-49" />
            </defs>
            <g
               transform="translate(107.98675 322.182437)scale(0.1 -0.1)"
               id="g119">
              <use
                 xlink:href="#DejaVuSans-49"
                 id="use117" />
            </g>
          </g>
        </g>
        <g
           id="xtick_3">
          <g
             id="line2d_3">
            <g
               id="g125">
              <use
                 style="stroke:#000000;stroke-width:0.8;"
                 x="146.88"
                 xlink:href="#mf886a9bcbf"
                 y="307.584"
                 id="use123" />
            </g>
          </g>
          <g
             id="text_3">
            <!-- 2 -->
            <defs
               id="defs129">
              <path
                 d="M 19.1875 8.296875  L 53.609375 8.296875  L 53.609375 0  L 7.328125 0  L 7.328125 8.296875  Q 12.9375 14.109375 22.625 23.890625  Q 32.328125 33.6875 34.8125 36.53125  Q 39.546875 41.84375 41.421875 45.53125  Q 43.3125 49.21875 43.3125 52.78125  Q 43.3125 58.59375 39.234375 62.25  Q 35.15625 65.921875 28.609375 65.921875  Q 23.96875 65.921875 18.8125 64.3125  Q 13.671875 62.703125 7.8125 59.421875  L 7.8125 69.390625  Q 13.765625 71.78125 18.9375 73  Q 24.125 74.21875 28.421875 74.21875  Q 39.75 74.21875 46.484375 68.546875  Q 53.21875 62.890625 53.21875 53.421875  Q 53.21875 48.921875 51.53125 44.890625  Q 49.859375 40.875 45.40625 35.40625  Q 44.1875 33.984375 37.640625 27.21875  Q 31.109375 20.453125 19.1875 8.296875  z "
                 id="DejaVuSans-50" />
            </defs>
            <g
               transform="translate(143.69875 322.182437)scale(0.1 -0.1)"
               id="g133">
              <use
                 xlink:href="#DejaVuSans-50"
                 id="use131" />
            </g>
          </g>
        </g>
        <g
           id="xtick_4">
          <g
             id="line2d_4">
            <g
               id="g139">
              <use
                 style="stroke:#000000;stroke-width:0.8;"
                 x="182.592"
                 xlink:href="#mf886a9bcbf"
                 y="307.584"
                 id="use137" />
            </g>
          </g>
          <g
             id="text_4">
            <!-- 3 -->
            <defs
               id="defs143">
              <path
                 d="M 40.578125 39.3125  Q 47.65625 37.796875 51.625 33  Q 55.609375 28.21875 55.609375 21.1875  Q 55.609375 10.40625 48.1875 4.484375  Q 40.765625 -1.421875 27.09375 -1.421875  Q 22.515625 -1.421875 17.65625 -0.515625  Q 12.796875 0.390625 7.625 2.203125  L 7.625 11.71875  Q 11.71875 9.328125 16.59375 8.109375  Q 21.484375 6.890625 26.8125 6.890625  Q 36.078125 6.890625 40.9375 10.546875  Q 45.796875 14.203125 45.796875 21.1875  Q 45.796875 27.640625 41.28125 31.265625  Q 36.765625 34.90625 28.71875 34.90625  L 20.21875 34.90625  L 20.21875 43.015625  L 29.109375 43.015625  Q 36.375 43.015625 40.234375 45.921875  Q 44.09375 48.828125 44.09375 54.296875  Q 44.09375 59.90625 40.109375 62.90625  Q 36.140625 65.921875 28.71875 65.921875  Q 24.65625 65.921875 20.015625 65.03125  Q 15.375 64.15625 9.8125 62.3125  L 9.8125 71.09375  Q 15.4375 72.65625 20.34375 73.4375  Q 25.25 74.21875 29.59375 74.21875  Q 40.828125 74.21875 47.359375 69.109375  Q 53.90625 64.015625 53.90625 55.328125  Q 53.90625 49.265625 50.4375 45.09375  Q 46.96875 40.921875 40.578125 39.3125  z "
                 id="DejaVuSans-51" />
            </defs>
            <g
               transform="translate(179.41075 322.182437)scale(0.1 -0.1)"
               id="g147">
              <use
                 xlink:href="#DejaVuSans-51"
                 id="use145" />
            </g>
          </g>
        </g>
        <g
           id="xtick_5">
          <g
             id="line2d_5">
            <g
               id="g153">
              <use
                 style="stroke:#000000;stroke-width:0.8;"
                 x="218.304"
                 xlink:href="#mf886a9bcbf"
                 y="307.584"
                 id="use151" />
            </g>
          </g>
          <g
             id="text_5">
            <!-- 4 -->
            <defs
               id="defs157">
              <path
                 d="M 37.796875 64.3125  L 12.890625 25.390625  L 37.796875 25.390625  z M 35.203125 72.90625  L 47.609375 72.90625  L 47.609375 25.390625  L 58.015625 25.390625  L 58.015625 17.1875  L 47.609375 17.1875  L 47.609375 0  L 37.796875 0  L 37.796875 17.1875  L 4.890625 17.1875  L 4.890625 26.703125  z "
                 id="DejaVuSans-52" />
            </defs>
            <g
               transform="translate(215.12275 322.182437)scale(0.1 -0.1)"
               id="g161">
              <use
                 xlink:href="#DejaVuSans-52"
                 id="use159" />
            </g>
          </g>
        </g>
        <g
           id="xtick_6">
          <g
             id="line2d_6">
            <g
               id="g167">
              <use
                 style="stroke:#000000;stroke-width:0.8;"
                 x="254.016"
                 xlink:href="#mf886a9bcbf"
                 y="307.584"
                 id="use165" />
            </g>
          </g>
          <g
             id="text_6">
            <!-- 5 -->
            <defs
               id="defs171">
              <path
                 d="M 10.796875 72.90625  L 49.515625 72.90625  L 49.515625 64.59375  L 19.828125 64.59375  L 19.828125 46.734375  Q 21.96875 47.46875 24.109375 47.828125  Q 26.265625 48.1875 28.421875 48.1875  Q 40.625 48.1875 47.75 41.5  Q 54.890625 34.8125 54.890625 23.390625  Q 54.890625 11.625 47.5625 5.09375  Q 40.234375 -1.421875 26.90625 -1.421875  Q 22.3125 -1.421875 17.546875 -0.640625  Q 12.796875 0.140625 7.71875 1.703125  L 7.71875 11.625  Q 12.109375 9.234375 16.796875 8.0625  Q 21.484375 6.890625 26.703125 6.890625  Q 35.15625 6.890625 40.078125 11.328125  Q 45.015625 15.765625 45.015625 23.390625  Q 45.015625 31 40.078125 35.4375  Q 35.15625 39.890625 26.703125 39.890625  Q 22.75 39.890625 18.8125 39.015625  Q 14.890625 38.140625 10.796875 36.28125  z "
                 id="DejaVuSans-53" />
            </defs>
            <g
               transform="translate(250.83475 322.182437)scale(0.1 -0.1)"
               id="g175">
              <use
                 xlink:href="#DejaVuSans-53"
                 id="use173" />
            </g>
          </g>
        </g>
        <g
           id="xtick_7">
          <g
             id="line2d_7">
            <g
               id="g181">
              <use
                 style="stroke:#000000;stroke-width:0.8;"
                 x="289.728"
                 xlink:href="#mf886a9bcbf"
                 y="307.584"
                 id="use179" />
            </g>
          </g>
          <g
             id="text_7">
            <!-- 6 -->
            <defs
               id="defs185">
              <path
                 d="M 33.015625 40.375  Q 26.375 40.375 22.484375 35.828125  Q 18.609375 31.296875 18.609375 23.390625  Q 18.609375 15.53125 22.484375 10.953125  Q 26.375 6.390625 33.015625 6.390625  Q 39.65625 6.390625 43.53125 10.953125  Q 47.40625 15.53125 47.40625 23.390625  Q 47.40625 31.296875 43.53125 35.828125  Q 39.65625 40.375 33.015625 40.375  z M 52.59375 71.296875  L 52.59375 62.3125  Q 48.875 64.0625 45.09375 64.984375  Q 41.3125 65.921875 37.59375 65.921875  Q 27.828125 65.921875 22.671875 59.328125  Q 17.53125 52.734375 16.796875 39.40625  Q 19.671875 43.65625 24.015625 45.921875  Q 28.375 48.1875 33.59375 48.1875  Q 44.578125 48.1875 50.953125 41.515625  Q 57.328125 34.859375 57.328125 23.390625  Q 57.328125 12.15625 50.6875 5.359375  Q 44.046875 -1.421875 33.015625 -1.421875  Q 20.359375 -1.421875 13.671875 8.265625  Q 6.984375 17.96875 6.984375 36.375  Q 6.984375 53.65625 15.1875 63.9375  Q 23.390625 74.21875 37.203125 74.21875  Q 40.921875 74.21875 44.703125 73.484375  Q 48.484375 72.75 52.59375 71.296875  z "
                 id="DejaVuSans-54" />
            </defs>
            <g
               transform="translate(286.54675 322.182437)scale(0.1 -0.1)"
               id="g189">
              <use
                 xlink:href="#DejaVuSans-54"
                 id="use187" />
            </g>
          </g>
        </g>
        <g
           id="xtick_8">
          <g
             id="line2d_8">
            <g
               id="g195">
              <use
                 style="stroke:#000000;stroke-width:0.8;"
                 x="325.44"
                 xlink:href="#mf886a9bcbf"
                 y="307.584"
                 id="use193" />
            </g>
          </g>
          <g
             id="text_8">
            <!-- 7 -->
            <defs
               id="defs199">
              <path
                 d="M 8.203125 72.90625  L 55.078125 72.90625  L 55.078125 68.703125  L 28.609375 0  L 18.3125 0  L 43.21875 64.59375  L 8.203125 64.59375  z "
                 id="DejaVuSans-55" />
            </defs>
            <g
               transform="translate(322.25875 322.182437)scale(0.1 -0.1)"
               id="g203">
              <use
                 xlink:href="#DejaVuSans-55"
                 id="use201" />
            </g>
          </g>
        </g>
        <g
           id="xtick_9">
          <g
             id="line2d_9">
            <g
               id="g209">
              <use
                 style="stroke:#000000;stroke-width:0.8;"
                 x="361.152"
                 xlink:href="#mf886a9bcbf"
                 y="307.584"
                 id="use207" />
            </g>
          </g>
          <g
             id="text_9">
            <!-- 8 -->
            <defs
               id="defs213">
              <path
                 d="M 31.78125 34.625  Q 24.75 34.625 20.71875 30.859375  Q 16.703125 27.09375 16.703125 20.515625  Q 16.703125 13.921875 20.71875 10.15625  Q 24.75 6.390625 31.78125 6.390625  Q 38.8125 6.390625 42.859375 10.171875  Q 46.921875 13.96875 46.921875 20.515625  Q 46.921875 27.09375 42.890625 30.859375  Q 38.875 34.625 31.78125 34.625  z M 21.921875 38.8125  Q 15.578125 40.375 12.03125 44.71875  Q 8.5 49.078125 8.5 55.328125  Q 8.5 64.0625 14.71875 69.140625  Q 20.953125 74.21875 31.78125 74.21875  Q 42.671875 74.21875 48.875 69.140625  Q 55.078125 64.0625 55.078125 55.328125  Q 55.078125 49.078125 51.53125 44.71875  Q 48 40.375 41.703125 38.8125  Q 48.828125 37.15625 52.796875 32.3125  Q 56.78125 27.484375 56.78125 20.515625  Q 56.78125 9.90625 50.3125 4.234375  Q 43.84375 -1.421875 31.78125 -1.421875  Q 19.734375 -1.421875 13.25 4.234375  Q 6.78125 9.90625 6.78125 20.515625  Q 6.78125 27.484375 10.78125 32.3125  Q 14.796875 37.15625 21.921875 38.8125  z M 18.3125 54.390625  Q 18.3125 48.734375 21.84375 45.5625  Q 25.390625 42.390625 31.78125 42.390625  Q 38.140625 42.390625 41.71875 45.5625  Q 45.3125 48.734375 45.3125 54.390625  Q 45.3125 60.0625 41.71875 63.234375  Q 38.140625 66.40625 31.78125 66.40625  Q 25.390625 66.40625 21.84375 63.234375  Q 18.3125 60.0625 18.3125 54.390625  z "
                 id="DejaVuSans-56" />
            </defs>
            <g
               transform="translate(357.97075 322.182437)scale(0.1 -0.1)"
               id="g217">
              <use
                 xlink:href="#DejaVuSans-56"
                 id="use215" />
            </g>
          </g>
        </g>
        <g
           id="xtick_10">
          <g
             id="line2d_10">
            <g
               id="g223">
              <use
                 style="stroke:#000000;stroke-width:0.8;"
                 x="396.864"
                 xlink:href="#mf886a9bcbf"
                 y="307.584"
                 id="use221" />
            </g>
          </g>
          <g
             id="text_10">
            <!-- 9 -->
            <defs
               id="defs227">
              <path
                 d="M 10.984375 1.515625  L 10.984375 10.5  Q 14.703125 8.734375 18.5 7.8125  Q 22.3125 6.890625 25.984375 6.890625  Q 35.75 6.890625 40.890625 13.453125  Q 46.046875 20.015625 46.78125 33.40625  Q 43.953125 29.203125 39.59375 26.953125  Q 35.25 24.703125 29.984375 24.703125  Q 19.046875 24.703125 12.671875 31.3125  Q 6.296875 37.9375 6.296875 49.421875  Q 6.296875 60.640625 12.9375 67.421875  Q 19.578125 74.21875 30.609375 74.21875  Q 43.265625 74.21875 49.921875 64.515625  Q 56.59375 54.828125 56.59375 36.375  Q 56.59375 19.140625 48.40625 8.859375  Q 40.234375 -1.421875 26.421875 -1.421875  Q 22.703125 -1.421875 18.890625 -0.6875  Q 15.09375 0.046875 10.984375 1.515625  z M 30.609375 32.421875  Q 37.25 32.421875 41.125 36.953125  Q 45.015625 41.5 45.015625 49.421875  Q 45.015625 57.28125 41.125 61.84375  Q 37.25 66.40625 30.609375 66.40625  Q 23.96875 66.40625 20.09375 61.84375  Q 16.21875 57.28125 16.21875 49.421875  Q 16.21875 41.5 20.09375 36.953125  Q 23.96875 32.421875 30.609375 32.421875  z "
                 id="DejaVuSans-57" />
            </defs>
            <g
               transform="translate(393.68275 322.182437)scale(0.1 -0.1)"
               id="g231">
              <use
                 xlink:href="#DejaVuSans-57"
                 id="use229" />
            </g>
          </g>
        </g>
      </g>
      <g
         id="matplotlib.axis_2">
        <g
           id="ytick_1">
          <g
             id="line2d_11">
            <defs
               id="defs237">
              <path
                 d="M 0 0  L -3.5 0  "
                 id="m643885d95c"
                 style="stroke:#000000;stroke-width:0.8;" />
            </defs>
            <g
               id="g241">
              <use
                 style="stroke:#000000;stroke-width:0.8;"
                 x="57.6"
                 xlink:href="#m643885d95c"
                 y="262.45715"
                 id="use239" />
            </g>
          </g>
          <g
             id="text_11">
            <!-- −0.4 -->
            <defs
               id="defs246">
              <path
                 d="M 10.59375 35.5  L 73.1875 35.5  L 73.1875 27.203125  L 10.59375 27.203125  z "
                 id="DejaVuSans-8722" />
              <path
                 d="M 10.6875 12.40625  L 21 12.40625  L 21 0  L 10.6875 0  z "
                 id="DejaVuSans-46" />
            </defs>
            <g
               transform="translate(26.317187 266.256369)scale(0.1 -0.1)"
               id="g256">
              <use
                 xlink:href="#DejaVuSans-8722"
                 id="use248" />
              <use
                 x="83.789062"
                 xlink:href="#DejaVuSans-48"
                 id="use250" />
              <use
                 x="147.412109"
                 xlink:href="#DejaVuSans-46"
                 id="use252" />
              <use
                 x="179.199219"
                 xlink:href="#DejaVuSans-52"
                 id="use254" />
            </g>
          </g>
        </g>
        <g
           id="ytick_2">
          <g
             id="line2d_12">
            <g
               id="g262">
              <use
                 style="stroke:#000000;stroke-width:0.8;"
                 x="57.6"
                 xlink:href="#m643885d95c"
                 y="212.299225"
                 id="use260" />
            </g>
          </g>
          <g
             id="text_12">
            <!-- −0.2 -->
            <g
               transform="translate(26.317187 216.098443)scale(0.1 -0.1)"
               id="g273">
              <use
                 xlink:href="#DejaVuSans-8722"
                 id="use265" />
              <use
                 x="83.789062"
                 xlink:href="#DejaVuSans-48"
                 id="use267" />
              <use
                 x="147.412109"
                 xlink:href="#DejaVuSans-46"
                 id="use269" />
              <use
                 x="179.199219"
                 xlink:href="#DejaVuSans-50"
                 id="use271" />
            </g>
          </g>
        </g>
        <g
           id="ytick_3">
          <g
             id="line2d_13">
            <g
               id="g279">
              <use
                 style="stroke:#000000;stroke-width:0.8;"
                 x="57.6"
                 xlink:href="#m643885d95c"
                 y="162.141299"
                 id="use277" />
            </g>
          </g>
          <g
             id="text_13">
            <!-- 0.0 -->
            <g
               transform="translate(34.696875 165.940518)scale(0.1 -0.1)"
               id="g288">
              <use
                 xlink:href="#DejaVuSans-48"
                 id="use282" />
              <use
                 x="63.623047"
                 xlink:href="#DejaVuSans-46"
                 id="use284" />
              <use
                 x="95.410156"
                 xlink:href="#DejaVuSans-48"
                 id="use286" />
            </g>
          </g>
        </g>
        <g
           id="ytick_4">
          <g
             id="line2d_14">
            <g
               id="g294">
              <use
                 style="stroke:#000000;stroke-width:0.8;"
                 x="57.6"
                 xlink:href="#m643885d95c"
                 y="111.983373"
                 id="use292" />
            </g>
          </g>
          <g
             id="text_14">
            <!-- 0.2 -->
            <g
               transform="translate(34.696875 115.782592)scale(0.1 -0.1)"
               id="g303">
              <use
                 xlink:href="#DejaVuSans-48"
                 id="use297" />
              <use
                 x="63.623047"
                 xlink:href="#DejaVuSans-46"
                 id="use299" />
              <use
                 x="95.410156"
                 xlink:href="#DejaVuSans-50"
                 id="use301" />
            </g>
          </g>
        </g>
        <g
           id="ytick_5">
          <g
             id="line2d_15">
            <g
               id="g309">
              <use
                 style="stroke:#000000;stroke-width:0.8;"
                 x="57.6"
                 xlink:href="#m643885d95c"
                 y="61.825448"
                 id="use307" />
            </g>
          </g>
          <g
             id="text_15">
            <!-- 0.4 -->
            <g
               transform="translate(34.696875 65.624666)scale(0.1 -0.1)"
               id="g318">
              <use
                 xlink:href="#DejaVuSans-48"
                 id="use312" />
              <use
                 x="63.623047"
                 xlink:href="#DejaVuSans-46"
                 id="use314" />
              <use
                 x="95.410156"
                 xlink:href="#DejaVuSans-52"
                 id="use316" />
            </g>
          </g>
        </g>
      </g>
      <g
         id="line2d_16">
        <path
           clip-path="url(#p1ff4332ef8)"
           d="M 75.456 200.746661  L 75.456 124.093112  "
           style="fill:none;stroke:#3d3d3d;stroke-linecap:square;stroke-width:1.5;"
           id="path323" />
      </g>
      <g
         id="line2d_17">
        <path
           clip-path="url(#p1ff4332ef8)"
           d="M 75.456 172.022736  L 75.456 152.849046  "
           style="fill:none;stroke:#3d3d3d;stroke-linecap:square;stroke-width:4.5;"
           id="path326" />
      </g>
      <g
         id="line2d_18">
        <path
           clip-path="url(#p1ff4332ef8)"
           d="M 111.168 158.573016  L 111.168 80.514771  "
           style="fill:none;stroke:#3d3d3d;stroke-linecap:square;stroke-width:1.5;"
           id="path329" />
      </g>
      <g
         id="line2d_19">
        <path
           clip-path="url(#p1ff4332ef8)"
           d="M 111.168 129.303483  L 111.168 109.751041  "
           style="fill:none;stroke:#3d3d3d;stroke-linecap:square;stroke-width:4.5;"
           id="path332" />
      </g>
      <g
         id="line2d_20">
        <path
           clip-path="url(#p1ff4332ef8)"
           d="M 146.88 154.411497  L 146.88 81.27671  "
           style="fill:none;stroke:#3d3d3d;stroke-linecap:square;stroke-width:1.5;"
           id="path335" />
      </g>
      <g
         id="line2d_21">
        <path
           clip-path="url(#p1ff4332ef8)"
           d="M 146.88 126.721743  L 146.88 108.249697  "
           style="fill:none;stroke:#3d3d3d;stroke-linecap:square;stroke-width:4.5;"
           id="path338" />
      </g>
      <g
         id="line2d_22">
        <path
           clip-path="url(#p1ff4332ef8)"
           d="M 182.592 166.221946  L 182.592 100.380364  "
           style="fill:none;stroke:#3d3d3d;stroke-linecap:square;stroke-width:1.5;"
           id="path341" />
      </g>
      <g
         id="line2d_23">
        <path
           clip-path="url(#p1ff4332ef8)"
           d="M 182.592 141.545244  L 182.592 125.068274  "
           style="fill:none;stroke:#3d3d3d;stroke-linecap:square;stroke-width:4.5;"
           id="path344" />
      </g>
      <g
         id="line2d_24">
        <path
           clip-path="url(#p1ff4332ef8)"
           d="M 218.304 165.925289  L 218.304 100.359809  "
           style="fill:none;stroke:#3d3d3d;stroke-linecap:square;stroke-width:1.5;"
           id="path347" />
      </g>
      <g
         id="line2d_25">
        <path
           clip-path="url(#p1ff4332ef8)"
           d="M 218.304 141.273759  L 218.304 124.760847  "
           style="fill:none;stroke:#3d3d3d;stroke-linecap:square;stroke-width:4.5;"
           id="path350" />
      </g>
      <g
         id="line2d_26">
        <path
           clip-path="url(#p1ff4332ef8)"
           d="M 254.016 165.265598  L 254.016 100.028727  "
           style="fill:none;stroke:#3d3d3d;stroke-linecap:square;stroke-width:1.5;"
           id="path353" />
      </g>
      <g
         id="line2d_27">
        <path
           clip-path="url(#p1ff4332ef8)"
           d="M 254.016 140.793919  L 254.016 124.477371  "
           style="fill:none;stroke:#3d3d3d;stroke-linecap:square;stroke-width:4.5;"
           id="path356" />
      </g>
      <g
         id="line2d_28">
        <path
           clip-path="url(#p1ff4332ef8)"
           d="M 289.728 166.073326  L 289.728 102.184573  "
           style="fill:none;stroke:#3d3d3d;stroke-linecap:square;stroke-width:1.5;"
           id="path359" />
      </g>
      <g
         id="line2d_29">
        <path
           clip-path="url(#p1ff4332ef8)"
           d="M 289.728 142.183606  L 289.728 126.137106  "
           style="fill:none;stroke:#3d3d3d;stroke-linecap:square;stroke-width:4.5;"
           id="path362" />
      </g>
      <g
         id="line2d_30">
        <path
           clip-path="url(#p1ff4332ef8)"
           d="M 325.44 166.398129  L 325.44 101.373232  "
           style="fill:none;stroke:#3d3d3d;stroke-linecap:square;stroke-width:1.5;"
           id="path365" />
      </g>
      <g
         id="line2d_31">
        <path
           clip-path="url(#p1ff4332ef8)"
           d="M 325.44 142.062313  L 325.44 125.778805  "
           style="fill:none;stroke:#3d3d3d;stroke-linecap:square;stroke-width:4.5;"
           id="path368" />
      </g>
      <g
         id="line2d_32">
        <path
           clip-path="url(#p1ff4332ef8)"
           d="M 361.152 166.127733  L 361.152 101.370521  "
           style="fill:none;stroke:#3d3d3d;stroke-linecap:square;stroke-width:1.5;"
           id="path371" />
      </g>
      <g
         id="line2d_33">
        <path
           clip-path="url(#p1ff4332ef8)"
           d="M 361.152 141.841899  L 361.152 125.648818  "
           style="fill:none;stroke:#3d3d3d;stroke-linecap:square;stroke-width:4.5;"
           id="path374" />
      </g>
      <g
         id="line2d_34">
        <path
           clip-path="url(#p1ff4332ef8)"
           d="M 396.864 166.066637  L 396.864 101.968278  "
           style="fill:none;stroke:#3d3d3d;stroke-linecap:square;stroke-width:1.5;"
           id="path377" />
      </g>
      <g
         id="line2d_35">
        <path
           clip-path="url(#p1ff4332ef8)"
           d="M 396.864 142.010837  L 396.864 125.927217  "
           style="fill:none;stroke:#3d3d3d;stroke-linecap:square;stroke-width:4.5;"
           id="path380" />
      </g>
      <g
         id="patch_3">
        <path
           d="M 57.6 307.584  L 57.6 41.472  "
           style="fill:none;stroke:#000000;stroke-linecap:square;stroke-linejoin:miter;stroke-width:0.8;"
           id="path383" />
      </g>
      <g
         id="patch_4">
        <path
           d="M 414.72 307.584  L 414.72 41.472  "
           style="fill:none;stroke:#000000;stroke-linecap:square;stroke-linejoin:miter;stroke-width:0.8;"
           id="path386" />
      </g>
      <g
         id="patch_5">
        <path
           d="M 57.6 307.584  L 414.72 307.584  "
           style="fill:none;stroke:#000000;stroke-linecap:square;stroke-linejoin:miter;stroke-width:0.8;"
           id="path389" />
      </g>
      <g
         id="patch_6">
        <path
           d="M 57.6 41.472  L 414.72 41.472  "
           style="fill:none;stroke:#000000;stroke-linecap:square;stroke-linejoin:miter;stroke-width:0.8;"
           id="path392" />
      </g>
      <g
         id="PathCollection_1">
        <defs
           id="defs396">
          <path
             d="M 0 1.5  C 0.397805 1.5 0.77937 1.341951 1.06066 1.06066  C 1.341951 0.77937 1.5 0.397805 1.5 0  C 1.5 -0.397805 1.341951 -0.77937 1.06066 -1.06066  C 0.77937 -1.341951 0.397805 -1.5 0 -1.5  C -0.397805 -1.5 -0.77937 -1.341951 -1.06066 -1.06066  C -1.341951 -0.77937 -1.5 -0.397805 -1.5 0  C -1.5 0.397805 -1.341951 0.77937 -1.06066 1.06066  C -0.77937 1.341951 -0.397805 1.5 0 1.5  z "
             id="mdde170ed8a"
             style="stroke:#3d3d3d;" />
        </defs>
        <g
           clip-path="url(#p1ff4332ef8)"
           id="g400">
          <use
             style="fill:#ffffff;stroke:#3d3d3d;"
             x="75.456"
             xlink:href="#mdde170ed8a"
             y="162.142639"
             id="use398" />
        </g>
      </g>
      <g
         id="PathCollection_2">
        <g
           clip-path="url(#p1ff4332ef8)"
           id="g405">
          <use
             style="fill:#ffffff;stroke:#3d3d3d;"
             x="111.168"
             xlink:href="#mdde170ed8a"
             y="119.644717"
             id="use403" />
        </g>
      </g>
      <g
         id="PathCollection_3">
        <g
           clip-path="url(#p1ff4332ef8)"
           id="g410">
          <use
             style="fill:#ffffff;stroke:#3d3d3d;"
             x="146.88"
             xlink:href="#mdde170ed8a"
             y="117.412667"
             id="use408" />
        </g>
      </g>
      <g
         id="PathCollection_4">
        <g
           clip-path="url(#p1ff4332ef8)"
           id="g415">
          <use
             style="fill:#ffffff;stroke:#3d3d3d;"
             x="182.592"
             xlink:href="#mdde170ed8a"
             y="132.762105"
             id="use413" />
        </g>
      </g>
      <g
         id="PathCollection_5">
        <g
           clip-path="url(#p1ff4332ef8)"
           id="g420">
          <use
             style="fill:#ffffff;stroke:#3d3d3d;"
             x="218.304"
             xlink:href="#mdde170ed8a"
             y="132.627154"
             id="use418" />
        </g>
      </g>
      <g
         id="PathCollection_6">
        <g
           clip-path="url(#p1ff4332ef8)"
           id="g425">
          <use
             style="fill:#ffffff;stroke:#3d3d3d;"
             x="254.016"
             xlink:href="#mdde170ed8a"
             y="132.470163"
             id="use423" />
        </g>
      </g>
      <g
         id="PathCollection_7">
        <g
           clip-path="url(#p1ff4332ef8)"
           id="g430">
          <use
             style="fill:#ffffff;stroke:#3d3d3d;"
             x="289.728"
             xlink:href="#mdde170ed8a"
             y="133.986822"
             id="use428" />
        </g>
      </g>
      <g
         id="PathCollection_8">
        <g
           clip-path="url(#p1ff4332ef8)"
           id="g435">
          <use
             style="fill:#ffffff;stroke:#3d3d3d;"
             x="325.44"
             xlink:href="#mdde170ed8a"
             y="133.709417"
             id="use433" />
        </g>
      </g>
      <g
         id="PathCollection_9">
        <g
           clip-path="url(#p1ff4332ef8)"
           id="g440">
          <use
             style="fill:#ffffff;stroke:#3d3d3d;"
             x="361.152"
             xlink:href="#mdde170ed8a"
             y="133.480712"
             id="use438" />
        </g>
      </g>
      <g
         id="PathCollection_10">
        <g
           clip-path="url(#p1ff4332ef8)"
           id="g445">
          <use
             style="fill:#ffffff;stroke:#3d3d3d;"
             x="396.864"
             xlink:href="#mdde170ed8a"
             y="133.58665"
             id="use443" />
        </g>
      </g>
    </g>
  </g>
  <defs
     id="defs453">
    <clipPath
       id="p1ff4332ef8">
      <rect
         height="266.112"
         width="357.12"
         x="57.6"
         y="41.472"
         id="rect450" />
    </clipPath>
  </defs>
  <text
     xml:space="preserve"
     style="font-style:normal;font-weight:normal;font-size:20.48985863px;line-height:1.25;font-family:sans-serif;letter-spacing:0px;word-spacing:0px;fill:#000000;fill-opacity:1;stroke:none;stroke-width:0.51224643;stroke-linecap:butt;stroke-linejoin:round"
     x="172.92461"
     y="339.87747"
     id="text1268"><tspan
       sodipodi:role="line"
       style="font-style:normal;font-variant:normal;font-weight:normal;font-stretch:normal;font-family:times;-inkscape-font-specification:times;stroke-width:0.51224643;stroke-linecap:butt;stroke-linejoin:round"
       x="172.92461"
       y="339.87747"
       id="tspan1270">Iteration Round</tspan></text>
  <text
     id="text1276"
     y="28.385908"
     x="-232.13266"
     style="font-style:normal;font-weight:normal;font-size:20.48985863px;line-height:1.25;font-family:sans-serif;letter-spacing:0px;word-spacing:0px;fill:#000000;fill-opacity:1;stroke:none;stroke-width:0.51224643;stroke-linecap:butt;stroke-linejoin:round"
     xml:space="preserve"
     transform="rotate(-90)"><tspan
       id="tspan1274"
       y="28.385908"
       x="-232.13266"
       style="font-style:normal;font-variant:normal;font-weight:normal;font-stretch:normal;font-family:times;-inkscape-font-specification:times;stroke-width:0.51224643;stroke-linecap:butt;stroke-linejoin:round"
       sodipodi:role="line">Error Distribution</tspan></text>
</svg>
