<?xml version="1.0" encoding="UTF-8" standalone="no"?>
<!-- Created with Inkscape (http://www.inkscape.org/) -->

<svg
   xmlns:dc="http://purl.org/dc/elements/1.1/"
   xmlns:cc="http://creativecommons.org/ns#"
   xmlns:rdf="http://www.w3.org/1999/02/22-rdf-syntax-ns#"
   xmlns:svg="http://www.w3.org/2000/svg"
   xmlns="http://www.w3.org/2000/svg"
   xmlns:sodipodi="http://sodipodi.sourceforge.net/DTD/sodipodi-0.dtd"
   xmlns:inkscape="http://www.inkscape.org/namespaces/inkscape"
   width="8.5in"
   height="11in"
   viewBox="0 0 215.9 279.4"
   version="1.1"
   id="svg8"
   inkscape:version="0.92.2 (unknown)"
   sodipodi:docname="pyspectredqn-inkscape.svg">
  <defs
     id="defs2" />
  <sodipodi:namedview
     id="base"
     pagecolor="#ffffff"
     bordercolor="#666666"
     borderopacity="1.0"
     inkscape:pageopacity="0.0"
     inkscape:pageshadow="2"
     inkscape:zoom="1.4"
     inkscape:cx="254.01585"
     inkscape:cy="861.9746"
     inkscape:document-units="in"
     inkscape:current-layer="layer1"
     showgrid="true"
     units="in"
     showguides="true"
     inkscape:window-width="1585"
     inkscape:window-height="823"
     inkscape:window-x="1819"
     inkscape:window-y="101"
     inkscape:window-maximized="0">
    <sodipodi:guide
       position="242.66071,3.7797619"
       orientation="0,816"
       id="guide93569"
       inkscape:locked="false" />
    <sodipodi:guide
       position="107.95,279.4"
       orientation="1,0"
       id="guide93571"
       inkscape:locked="false"
       inkscape:label=""
       inkscape:color="rgb(0,0,255)" />
    <sodipodi:guide
       position="0,273.05"
       orientation="0,1"
       id="guide93573"
       inkscape:locked="false"
       inkscape:label=""
       inkscape:color="rgb(0,0,255)" />
    <sodipodi:guide
       position="6.35,279.4"
       orientation="1,0"
       id="guide93575"
       inkscape:locked="false"
       inkscape:label=""
       inkscape:color="rgb(0,0,255)" />
    <sodipodi:guide
       position="209.55,279.4"
       orientation="1,0"
       id="guide93579"
       inkscape:locked="false"
       inkscape:label=""
       inkscape:color="rgb(0,0,255)" />
    <sodipodi:guide
       position="0,177.8"
       orientation="0,1"
       id="guide93581"
       inkscape:locked="false"
       inkscape:label=""
       inkscape:color="rgb(0,0,255)" />
  </sodipodi:namedview>
  <metadata
     id="metadata5">
    <rdf:RDF>
      <cc:Work
         rdf:about="">
        <dc:format>image/svg+xml</dc:format>
        <dc:type
           rdf:resource="http://purl.org/dc/dcmitype/StillImage" />
        <dc:title></dc:title>
      </cc:Work>
    </rdf:RDF>
  </metadata>
  <g
     inkscape:label="Layer 1"
     inkscape:groupmode="layer"
     id="layer1"
     transform="translate(0,-17.6)">
    <g
       transform="matrix(0.19494738,0,0,0.19494738,0.88043759,26.65662)"
       id="g90383"
       style="font-style:normal;font-weight:normal;font-size:12px;font-family:Dialog;color-interpolation:linearRGB;fill:#262626;fill-opacity:1;stroke:#262626;stroke-width:0.65969998;stroke-linecap:square;stroke-linejoin:round;stroke-miterlimit:10;stroke-dasharray:none;stroke-dashoffset:0;stroke-opacity:1;color-rendering:optimizeQuality;image-rendering:optimizeQuality;shape-rendering:auto;text-rendering:geometricPrecision">
      <line
         id="line90351"
         y1="378"
         x2="514"
         x1="74"
         style="fill:none"
         y2="378" />
      <line
         id="line90353"
         y1="32"
         x2="514"
         x1="74"
         style="fill:none"
         y2="32" />
      <line
         id="line90355"
         y1="378"
         x2="74"
         x1="74"
         style="fill:none"
         y2="373.60001" />
      <line
         id="line90357"
         y1="378"
         x2="147.3333"
         x1="147.3333"
         style="fill:none"
         y2="373.60001" />
      <line
         id="line90359"
         y1="378"
         x2="220.6667"
         x1="220.6667"
         style="fill:none"
         y2="373.60001" />
      <line
         id="line90361"
         y1="378"
         x2="294"
         x1="294"
         style="fill:none"
         y2="373.60001" />
      <line
         id="line90363"
         y1="378"
         x2="367.33331"
         x1="367.33331"
         style="fill:none"
         y2="373.60001" />
      <line
         id="line90365"
         y1="378"
         x2="440.66669"
         x1="440.66669"
         style="fill:none"
         y2="373.60001" />
      <line
         id="line90367"
         y1="378"
         x2="514"
         x1="514"
         style="fill:none"
         y2="373.60001" />
      <line
         id="line90369"
         y1="32"
         x2="74"
         x1="74"
         style="fill:none"
         y2="36.399899" />
      <line
         id="line90371"
         y1="32"
         x2="147.3333"
         x1="147.3333"
         style="fill:none"
         y2="36.399899" />
      <line
         id="line90373"
         y1="32"
         x2="220.6667"
         x1="220.6667"
         style="fill:none"
         y2="36.399899" />
      <line
         id="line90375"
         y1="32"
         x2="294"
         x1="294"
         style="fill:none"
         y2="36.399899" />
      <line
         id="line90377"
         y1="32"
         x2="367.33331"
         x1="367.33331"
         style="fill:none"
         y2="36.399899" />
      <line
         id="line90379"
         y1="32"
         x2="440.66669"
         x1="440.66669"
         style="fill:none"
         y2="36.399899" />
      <line
         id="line90381"
         y1="32"
         x2="514"
         x1="514"
         style="fill:none"
         y2="36.399899" />
    </g>
    <g
       id="g90387"
       style="font-style:normal;font-weight:normal;font-size:13.19439983px;font-family:SansSerif;color-interpolation:linearRGB;fill:#262626;fill-opacity:1;stroke:#262626;stroke-width:1;stroke-linecap:square;stroke-linejoin:miter;stroke-miterlimit:10;stroke-dasharray:none;stroke-dashoffset:0;stroke-opacity:1;color-rendering:optimizeQuality;image-rendering:optimizeQuality;shape-rendering:auto;text-rendering:geometricPrecision"
       transform="matrix(0.19494738,0,0,0.19494738,15.306544,101.37563)">
      <text
         id="text90385"
         style="stroke:none"
         y="13"
         xml:space="preserve"
         x="-4.5">0</text>
    </g>
    <g
       id="g90391"
       style="font-style:normal;font-weight:normal;font-size:13.19439983px;font-family:SansSerif;color-interpolation:linearRGB;fill:#262626;fill-opacity:1;stroke:#262626;stroke-width:1;stroke-linecap:square;stroke-linejoin:miter;stroke-miterlimit:10;stroke-dasharray:none;stroke-dashoffset:0;stroke-opacity:1;color-rendering:optimizeQuality;image-rendering:optimizeQuality;shape-rendering:auto;text-rendering:geometricPrecision"
       transform="matrix(0.19494738,0,0,0.19494738,29.602679,101.37563)">
      <text
         id="text90389"
         style="stroke:none"
         y="13"
         xml:space="preserve"
         x="-8.5">10</text>
    </g>
    <g
       id="g90395"
       style="font-style:normal;font-weight:normal;font-size:13.19439983px;font-family:SansSerif;color-interpolation:linearRGB;fill:#262626;fill-opacity:1;stroke:#262626;stroke-width:1;stroke-linecap:square;stroke-linejoin:miter;stroke-miterlimit:10;stroke-dasharray:none;stroke-dashoffset:0;stroke-opacity:1;color-rendering:optimizeQuality;image-rendering:optimizeQuality;shape-rendering:auto;text-rendering:geometricPrecision"
       transform="matrix(0.19494738,0,0,0.19494738,43.898834,101.37563)">
      <text
         id="text90393"
         style="stroke:none"
         y="13"
         xml:space="preserve"
         x="-8.5">20</text>
    </g>
    <g
       id="g90399"
       style="font-style:normal;font-weight:normal;font-size:13.19439983px;font-family:SansSerif;color-interpolation:linearRGB;fill:#262626;fill-opacity:1;stroke:#262626;stroke-width:1;stroke-linecap:square;stroke-linejoin:miter;stroke-miterlimit:10;stroke-dasharray:none;stroke-dashoffset:0;stroke-opacity:1;color-rendering:optimizeQuality;image-rendering:optimizeQuality;shape-rendering:auto;text-rendering:geometricPrecision"
       transform="matrix(0.19494738,0,0,0.19494738,58.194969,101.37563)">
      <text
         id="text90397"
         style="stroke:none"
         y="13"
         xml:space="preserve"
         x="-8.5">30</text>
    </g>
    <g
       id="g90403"
       style="font-style:normal;font-weight:normal;font-size:13.19439983px;font-family:SansSerif;color-interpolation:linearRGB;fill:#262626;fill-opacity:1;stroke:#262626;stroke-width:1;stroke-linecap:square;stroke-linejoin:miter;stroke-miterlimit:10;stroke-dasharray:none;stroke-dashoffset:0;stroke-opacity:1;color-rendering:optimizeQuality;image-rendering:optimizeQuality;shape-rendering:auto;text-rendering:geometricPrecision"
       transform="matrix(0.19494738,0,0,0.19494738,72.491104,101.37563)">
      <text
         id="text90401"
         style="stroke:none"
         y="13"
         xml:space="preserve"
         x="-8.5">40</text>
    </g>
    <g
       id="g90407"
       style="font-style:normal;font-weight:normal;font-size:13.19439983px;font-family:SansSerif;color-interpolation:linearRGB;fill:#262626;fill-opacity:1;stroke:#262626;stroke-width:1;stroke-linecap:square;stroke-linejoin:miter;stroke-miterlimit:10;stroke-dasharray:none;stroke-dashoffset:0;stroke-opacity:1;color-rendering:optimizeQuality;image-rendering:optimizeQuality;shape-rendering:auto;text-rendering:geometricPrecision"
       transform="matrix(0.19494738,0,0,0.19494738,86.787263,101.37563)">
      <text
         id="text90405"
         style="stroke:none"
         y="13"
         xml:space="preserve"
         x="-8.5">50</text>
    </g>
    <g
       id="g90411"
       style="font-style:normal;font-weight:normal;font-size:13.19439983px;font-family:SansSerif;color-interpolation:linearRGB;fill:#262626;fill-opacity:1;stroke:#262626;stroke-width:1;stroke-linecap:square;stroke-linejoin:miter;stroke-miterlimit:10;stroke-dasharray:none;stroke-dashoffset:0;stroke-opacity:1;color-rendering:optimizeQuality;image-rendering:optimizeQuality;shape-rendering:auto;text-rendering:geometricPrecision"
       transform="matrix(0.19494738,0,0,0.19494738,101.0834,101.37563)">
      <text
         id="text90409"
         style="stroke:none"
         y="13"
         xml:space="preserve"
         x="-8.5">60</text>
    </g>
    <g
       transform="matrix(0.19494738,0,0,0.19494738,0.88043759,26.65662)"
       id="g90445"
       style="font-style:normal;font-weight:normal;font-size:12px;font-family:Dialog;color-interpolation:linearRGB;fill:#262626;fill-opacity:1;stroke:#262626;stroke-width:0.65969998;stroke-linecap:square;stroke-linejoin:round;stroke-miterlimit:10;stroke-dasharray:none;stroke-dashoffset:0;stroke-opacity:1;color-rendering:optimizeQuality;image-rendering:optimizeQuality;shape-rendering:auto;text-rendering:geometricPrecision">
      <line
         id="line90413"
         y1="378"
         x2="74"
         x1="74"
         style="fill:none"
         y2="32" />
      <line
         id="line90415"
         y1="378"
         x2="514"
         x1="514"
         style="fill:none"
         y2="32" />
      <line
         id="line90417"
         y1="378"
         x2="78.400002"
         x1="74"
         style="fill:none"
         y2="378" />
      <line
         id="line90419"
         y1="320.33331"
         x2="78.400002"
         x1="74"
         style="fill:none"
         y2="320.33331" />
      <line
         id="line90421"
         y1="262.66669"
         x2="78.400002"
         x1="74"
         style="fill:none"
         y2="262.66669" />
      <line
         id="line90423"
         y1="205"
         x2="78.400002"
         x1="74"
         style="fill:none"
         y2="205" />
      <line
         id="line90425"
         y1="147.3333"
         x2="78.400002"
         x1="74"
         style="fill:none"
         y2="147.3333" />
      <line
         id="line90427"
         y1="89.666702"
         x2="78.400002"
         x1="74"
         style="fill:none"
         y2="89.666702" />
      <line
         id="line90429"
         y1="32"
         x2="78.400002"
         x1="74"
         style="fill:none"
         y2="32" />
      <line
         id="line90431"
         y1="378"
         x2="509.60001"
         x1="514"
         style="fill:none"
         y2="378" />
      <line
         id="line90433"
         y1="320.33331"
         x2="509.60001"
         x1="514"
         style="fill:none"
         y2="320.33331" />
      <line
         id="line90435"
         y1="262.66669"
         x2="509.60001"
         x1="514"
         style="fill:none"
         y2="262.66669" />
      <line
         id="line90437"
         y1="205"
         x2="509.60001"
         x1="514"
         style="fill:none"
         y2="205" />
      <line
         id="line90439"
         y1="147.3333"
         x2="509.60001"
         x1="514"
         style="fill:none"
         y2="147.3333" />
      <line
         id="line90441"
         y1="89.666702"
         x2="509.60001"
         x1="514"
         style="fill:none"
         y2="89.666702" />
      <line
         id="line90443"
         y1="32"
         x2="509.60001"
         x1="514"
         style="fill:none"
         y2="32" />
    </g>
    <g
       id="g90449"
       style="font-style:normal;font-weight:normal;font-size:13.19439983px;font-family:SansSerif;color-interpolation:linearRGB;fill:#262626;fill-opacity:1;stroke:#262626;stroke-width:1;stroke-linecap:square;stroke-linejoin:miter;stroke-miterlimit:10;stroke-dasharray:none;stroke-dashoffset:0;stroke-opacity:1;color-rendering:optimizeQuality;image-rendering:optimizeQuality;shape-rendering:auto;text-rendering:geometricPrecision"
       transform="matrix(0.19494738,0,0,0.19494738,14.277651,100.34674)">
      <text
         id="text90447"
         style="stroke:none"
         y="4.5"
         xml:space="preserve"
         x="-17">13</text>
    </g>
    <g
       id="g90453"
       style="font-style:normal;font-weight:normal;font-size:13.19439983px;font-family:SansSerif;color-interpolation:linearRGB;fill:#262626;fill-opacity:1;stroke:#262626;stroke-width:1;stroke-linecap:square;stroke-linejoin:miter;stroke-miterlimit:10;stroke-dasharray:none;stroke-dashoffset:0;stroke-opacity:1;color-rendering:optimizeQuality;image-rendering:optimizeQuality;shape-rendering:auto;text-rendering:geometricPrecision"
       transform="matrix(0.19494738,0,0,0.19494738,14.277651,89.104756)">
      <text
         id="text90451"
         style="stroke:none"
         y="4.5"
         xml:space="preserve"
         x="-17">14</text>
    </g>
    <g
       id="g90457"
       style="font-style:normal;font-weight:normal;font-size:13.19439983px;font-family:SansSerif;color-interpolation:linearRGB;fill:#262626;fill-opacity:1;stroke:#262626;stroke-width:1;stroke-linecap:square;stroke-linejoin:miter;stroke-miterlimit:10;stroke-dasharray:none;stroke-dashoffset:0;stroke-opacity:1;color-rendering:optimizeQuality;image-rendering:optimizeQuality;shape-rendering:auto;text-rendering:geometricPrecision"
       transform="matrix(0.19494738,0,0,0.19494738,14.277651,77.862806)">
      <text
         id="text90455"
         style="stroke:none"
         y="4.5"
         xml:space="preserve"
         x="-17">15</text>
    </g>
    <g
       id="g90461"
       style="font-style:normal;font-weight:normal;font-size:13.19439983px;font-family:SansSerif;color-interpolation:linearRGB;fill:#262626;fill-opacity:1;stroke:#262626;stroke-width:1;stroke-linecap:square;stroke-linejoin:miter;stroke-miterlimit:10;stroke-dasharray:none;stroke-dashoffset:0;stroke-opacity:1;color-rendering:optimizeQuality;image-rendering:optimizeQuality;shape-rendering:auto;text-rendering:geometricPrecision"
       transform="matrix(0.19494738,0,0,0.19494738,14.277651,66.620834)">
      <text
         id="text90459"
         style="stroke:none"
         y="4.5"
         xml:space="preserve"
         x="-17">16</text>
    </g>
    <g
       id="g90465"
       style="font-style:normal;font-weight:normal;font-size:13.19439983px;font-family:SansSerif;color-interpolation:linearRGB;fill:#262626;fill-opacity:1;stroke:#262626;stroke-width:1;stroke-linecap:square;stroke-linejoin:miter;stroke-miterlimit:10;stroke-dasharray:none;stroke-dashoffset:0;stroke-opacity:1;color-rendering:optimizeQuality;image-rendering:optimizeQuality;shape-rendering:auto;text-rendering:geometricPrecision"
       transform="matrix(0.19494738,0,0,0.19494738,14.277651,55.378861)">
      <text
         id="text90463"
         style="stroke:none"
         y="4.5"
         xml:space="preserve"
         x="-17">17</text>
    </g>
    <g
       id="g90469"
       style="font-style:normal;font-weight:normal;font-size:13.19439983px;font-family:SansSerif;color-interpolation:linearRGB;fill:#262626;fill-opacity:1;stroke:#262626;stroke-width:1;stroke-linecap:square;stroke-linejoin:miter;stroke-miterlimit:10;stroke-dasharray:none;stroke-dashoffset:0;stroke-opacity:1;color-rendering:optimizeQuality;image-rendering:optimizeQuality;shape-rendering:auto;text-rendering:geometricPrecision"
       transform="matrix(0.19494738,0,0,0.19494738,14.277651,44.136908)">
      <text
         id="text90467"
         style="stroke:none"
         y="4.5"
         xml:space="preserve"
         x="-17">18</text>
    </g>
    <g
       id="g90473"
       style="font-style:normal;font-weight:normal;font-size:13.19439983px;font-family:SansSerif;color-interpolation:linearRGB;fill:#262626;fill-opacity:1;stroke:#262626;stroke-width:1;stroke-linecap:square;stroke-linejoin:miter;stroke-miterlimit:10;stroke-dasharray:none;stroke-dashoffset:0;stroke-opacity:1;color-rendering:optimizeQuality;image-rendering:optimizeQuality;shape-rendering:auto;text-rendering:geometricPrecision"
       transform="matrix(0.19494738,0,0,0.19494738,14.277651,32.894936)">
      <text
         id="text90471"
         style="stroke:none"
         y="4.5"
         xml:space="preserve"
         x="-17">19</text>
    </g>
    <g
       transform="matrix(0.19494738,0,0,0.19494738,0.88043759,26.65662)"
       id="g90477"
       style="font-style:normal;font-weight:normal;font-size:12px;font-family:Dialog;color-interpolation:linearRGB;fill:#0072bd;fill-opacity:1;stroke:#0072bd;stroke-width:0.65969998;stroke-linecap:butt;stroke-linejoin:round;stroke-miterlimit:10;stroke-dasharray:none;stroke-dashoffset:0;stroke-opacity:1;color-rendering:optimizeQuality;image-rendering:optimizeQuality;shape-rendering:auto;text-rendering:geometricPrecision">
      <path
         inkscape:connector-curvature="0"
         id="path90475"
         style="fill:none;fill-rule:evenodd"
         d="m 81.3333,157.252 7.3334,32.9853 7.3333,-15.5699 7.3333,-92.0937 7.3334,129.231 7.3333,44.115 7.3333,78.4266 7.3334,-92.2666 7.3333,19.7219 7.3333,-74.9666 7.3334,140.8797 7.3333,-81.7137 7.3333,76.5813 7.3334,18.338 7.3333,-19.7219 7.3333,19.4336 7.3334,7.2083 7.3333,23.2397 7.3333,-3.5177 7.3334,-41.001 7.3333,48.8437 7.3333,-36.4453 7.3334,-0.7497 7.3333,5.882 7.3333,30.448 7.3334,-37.0797 7.3333,-21.6827 7.3333,-70.7569 7.3334,-65.1634 7.3333,-39.2133 7.3333,-15.6276 7.3334,24.6813 7.3333,-2.4797 7.3333,41.52 7.3334,7.3236 7.3333,-40.4819 7.3333,43.769 7.3334,-31.9474 7.3333,26.642 7.3333,-39.6746 7.3334,58.647 7.3333,-48.6131 7.3333,0.1731 7.3334,13.321 7.3333,18.7416 7.3333,-28.4873 7.3334,-3.114 7.3333,-0.2883 7.3333,18.2226 7.3334,-20.4716 7.3333,19.6643 7.3333,-8.3617 7.3334,-25.6616 L 470,174.206" />
    </g>
    <text
       xml:space="preserve"
       style="font-style:normal;font-variant:normal;font-weight:normal;font-stretch:normal;font-size:3.52777767px;line-height:1.25;font-family:'Times New Roman';-inkscape-font-specification:'Times New Roman, Normal';font-variant-ligatures:normal;font-variant-caps:normal;font-variant-numeric:normal;font-feature-settings:normal;text-align:start;letter-spacing:0px;word-spacing:0px;writing-mode:lr-tb;text-anchor:start;fill:#000000;fill-opacity:1;stroke:none;stroke-width:0.26458332"
       x="27.781248"
       y="30.526785"
       id="text180395"><tspan
         sodipodi:role="line"
         id="tspan180393"
         x="27.781248"
         y="30.526785"
         style="stroke-width:0.26458332">Mean Episode Reward (92 steps/episode)</tspan></text>
    <text
       xml:space="preserve"
       style="font-style:normal;font-variant:normal;font-weight:normal;font-stretch:normal;font-size:3.52777767px;line-height:1.25;font-family:'Times New Roman';-inkscape-font-specification:'Times New Roman, Normal';font-variant-ligatures:normal;font-variant-caps:normal;font-variant-numeric:normal;font-feature-settings:normal;text-align:start;letter-spacing:0px;word-spacing:0px;writing-mode:lr-tb;text-anchor:start;fill:#000000;fill-opacity:1;stroke:none;stroke-width:0.26458332"
       x="-75.888481"
       y="9.7711515"
       id="text180399"
       transform="rotate(-90)"><tspan
         sodipodi:role="line"
         id="tspan180397"
         x="-75.888481"
         y="9.7711515"
         style="stroke-width:0.26458332">Reward Value</tspan></text>
    <text
       id="text180403"
       y="107.06696"
       x="45.168159"
       style="font-style:normal;font-variant:normal;font-weight:normal;font-stretch:normal;font-size:3.52777767px;line-height:1.25;font-family:'Times New Roman';-inkscape-font-specification:'Times New Roman, Normal';font-variant-ligatures:normal;font-variant-caps:normal;font-variant-numeric:normal;font-feature-settings:normal;text-align:start;letter-spacing:0px;word-spacing:0px;writing-mode:lr-tb;text-anchor:start;fill:#000000;fill-opacity:1;stroke:none;stroke-width:0.26458332"
       xml:space="preserve"><tspan
         style="stroke-width:0.26458332"
         y="107.06696"
         x="45.168159"
         id="tspan180401"
         sodipodi:role="line">Episode Number</tspan></text>
  </g>
</svg>
