<?xml version="1.0" encoding="UTF-8" standalone="no"?>
<!-- Created with Inkscape (http://www.inkscape.org/) -->

<svg
   xmlns:dc="http://purl.org/dc/elements/1.1/"
   xmlns:cc="http://creativecommons.org/ns#"
   xmlns:rdf="http://www.w3.org/1999/02/22-rdf-syntax-ns#"
   xmlns:svg="http://www.w3.org/2000/svg"
   xmlns="http://www.w3.org/2000/svg"
   xmlns:sodipodi="http://sodipodi.sourceforge.net/DTD/sodipodi-0.dtd"
   xmlns:inkscape="http://www.inkscape.org/namespaces/inkscape"
   width="263.73724mm"
   height="198.06186mm"
   viewBox="0 0 263.73724 198.06186"
   version="1.1"
   id="svg8"
   inkscape:version="0.92.3 (2405546, 2018-03-11)"
   sodipodi:docname="multipleSpectreCalls.svg">
  <defs
     id="defs2">
    <marker
       inkscape:stockid="Arrow2Lend"
       orient="auto"
       refY="0"
       refX="0"
       id="marker11738"
       style="overflow:visible"
       inkscape:isstock="true">
      <path
         id="path11736"
         style="fill:#000000;fill-opacity:1;fill-rule:evenodd;stroke:#000000;stroke-width:0.625;stroke-linejoin:round;stroke-opacity:1"
         d="M 8.7185878,4.0337352 -2.2072895,0.01601326 8.7185884,-4.0017078 c -1.7454984,2.3720609 -1.7354408,5.6174519 -6e-7,8.035443 z"
         transform="matrix(-1.1,0,0,-1.1,-1.1,0)"
         inkscape:connector-curvature="0" />
    </marker>
    <marker
       inkscape:isstock="true"
       style="overflow:visible"
       id="marker10472"
       refX="0"
       refY="0"
       orient="auto"
       inkscape:stockid="Arrow2Lend"
       inkscape:collect="always">
      <path
         inkscape:connector-curvature="0"
         transform="matrix(-1.1,0,0,-1.1,-1.1,0)"
         d="M 8.7185878,4.0337352 -2.2072895,0.01601326 8.7185884,-4.0017078 c -1.7454984,2.3720609 -1.7354408,5.6174519 -6e-7,8.035443 z"
         style="fill:#000000;fill-opacity:1;fill-rule:evenodd;stroke:#000000;stroke-width:0.625;stroke-linejoin:round;stroke-opacity:1"
         id="path10470" />
    </marker>
    <marker
       inkscape:stockid="Arrow2Lend"
       orient="auto"
       refY="0"
       refX="0"
       id="marker8128"
       style="overflow:visible"
       inkscape:isstock="true"
       inkscape:collect="always">
      <path
         id="path8126"
         style="fill:#000000;fill-opacity:1;fill-rule:evenodd;stroke:#000000;stroke-width:0.625;stroke-linejoin:round;stroke-opacity:1"
         d="M 8.7185878,4.0337352 -2.2072895,0.01601326 8.7185884,-4.0017078 c -1.7454984,2.3720609 -1.7354408,5.6174519 -6e-7,8.035443 z"
         transform="matrix(-1.1,0,0,-1.1,-1.1,0)"
         inkscape:connector-curvature="0" />
    </marker>
    <marker
       inkscape:isstock="true"
       style="overflow:visible"
       id="marker7418"
       refX="0"
       refY="0"
       orient="auto"
       inkscape:stockid="Arrow2Lend"
       inkscape:collect="always">
      <path
         transform="matrix(-1.1,0,0,-1.1,-1.1,0)"
         d="M 8.7185878,4.0337352 -2.2072895,0.01601326 8.7185884,-4.0017078 c -1.7454984,2.3720609 -1.7354408,5.6174519 -6e-7,8.035443 z"
         style="fill:#000000;fill-opacity:1;fill-rule:evenodd;stroke:#000000;stroke-width:0.625;stroke-linejoin:round;stroke-opacity:1"
         id="path7416"
         inkscape:connector-curvature="0" />
    </marker>
    <marker
       inkscape:stockid="Arrow2Lend"
       orient="auto"
       refY="0"
       refX="0"
       id="marker6485"
       style="overflow:visible"
       inkscape:isstock="true"
       inkscape:collect="always">
      <path
         id="path6483"
         style="fill:#000000;fill-opacity:1;fill-rule:evenodd;stroke:#000000;stroke-width:0.625;stroke-linejoin:round;stroke-opacity:1"
         d="M 8.7185878,4.0337352 -2.2072895,0.01601326 8.7185884,-4.0017078 c -1.7454984,2.3720609 -1.7354408,5.6174519 -6e-7,8.035443 z"
         transform="matrix(-1.1,0,0,-1.1,-1.1,0)"
         inkscape:connector-curvature="0" />
    </marker>
    <marker
       inkscape:isstock="true"
       style="overflow:visible"
       id="marker5687"
       refX="0"
       refY="0"
       orient="auto"
       inkscape:stockid="Arrow2Lend"
       inkscape:collect="always">
      <path
         transform="matrix(-1.1,0,0,-1.1,-1.1,0)"
         d="M 8.7185878,4.0337352 -2.2072895,0.01601326 8.7185884,-4.0017078 c -1.7454984,2.3720609 -1.7354408,5.6174519 -6e-7,8.035443 z"
         style="fill:#000000;fill-opacity:1;fill-rule:evenodd;stroke:#000000;stroke-width:0.625;stroke-linejoin:round;stroke-opacity:1"
         id="path5685"
         inkscape:connector-curvature="0" />
    </marker>
    <marker
       inkscape:stockid="Arrow2Lend"
       orient="auto"
       refY="0"
       refX="0"
       id="marker5497"
       style="overflow:visible"
       inkscape:isstock="true"
       inkscape:collect="always">
      <path
         id="path5495"
         style="fill:#000000;fill-opacity:1;fill-rule:evenodd;stroke:#000000;stroke-width:0.625;stroke-linejoin:round;stroke-opacity:1"
         d="M 8.7185878,4.0337352 -2.2072895,0.01601326 8.7185884,-4.0017078 c -1.7454984,2.3720609 -1.7354408,5.6174519 -6e-7,8.035443 z"
         transform="matrix(-1.1,0,0,-1.1,-1.1,0)"
         inkscape:connector-curvature="0" />
    </marker>
    <inkscape:path-effect
       effect="bspline"
       id="path-effect5305"
       is_visible="true"
       weight="33.333333"
       steps="2"
       helper_size="0"
       apply_no_weight="true"
       apply_with_weight="true"
       only_selected="false" />
    <inkscape:path-effect
       only_selected="false"
       apply_with_weight="true"
       apply_no_weight="true"
       helper_size="0"
       steps="2"
       weight="33.333333"
       is_visible="true"
       id="path-effect5279"
       effect="bspline" />
    <inkscape:path-effect
       only_selected="false"
       apply_with_weight="true"
       apply_no_weight="true"
       helper_size="0"
       steps="2"
       weight="33.333333"
       is_visible="true"
       id="path-effect965"
       effect="bspline" />
    <inkscape:path-effect
       effect="bspline"
       id="path-effect831"
       is_visible="true"
       weight="33.333333"
       steps="2"
       helper_size="0"
       apply_no_weight="true"
       apply_with_weight="true"
       only_selected="false" />
    <inkscape:path-effect
       only_selected="false"
       apply_with_weight="true"
       apply_no_weight="true"
       helper_size="0"
       steps="2"
       weight="33.333333"
       is_visible="true"
       id="path-effect827"
       effect="bspline" />
    <inkscape:path-effect
       effect="bspline"
       id="path-effect823"
       is_visible="true"
       weight="33.333333"
       steps="2"
       helper_size="0"
       apply_no_weight="true"
       apply_with_weight="true"
       only_selected="false" />
    <inkscape:path-effect
       effect="bspline"
       id="path-effect823-4"
       is_visible="true"
       weight="33.333333"
       steps="2"
       helper_size="0"
       apply_no_weight="true"
       apply_with_weight="true"
       only_selected="false" />
    <inkscape:path-effect
       only_selected="false"
       apply_with_weight="true"
       apply_no_weight="true"
       helper_size="0"
       steps="2"
       weight="33.333333"
       is_visible="true"
       id="path-effect965-2"
       effect="bspline" />
    <inkscape:path-effect
       effect="bspline"
       id="path-effect823-4-7"
       is_visible="true"
       weight="33.333333"
       steps="2"
       helper_size="0"
       apply_no_weight="true"
       apply_with_weight="true"
       only_selected="false" />
    <inkscape:path-effect
       only_selected="false"
       apply_with_weight="true"
       apply_no_weight="true"
       helper_size="0"
       steps="2"
       weight="33.333333"
       is_visible="true"
       id="path-effect965-2-2"
       effect="bspline" />
  </defs>
  <sodipodi:namedview
     id="base"
     pagecolor="#ffffff"
     bordercolor="#666666"
     borderopacity="1.0"
     inkscape:pageopacity="0.0"
     inkscape:pageshadow="2"
     inkscape:zoom="0.49497475"
     inkscape:cx="575.47575"
     inkscape:cy="143.74734"
     inkscape:document-units="mm"
     inkscape:current-layer="layer1"
     showgrid="false"
     fit-margin-top="0"
     fit-margin-left="0"
     fit-margin-right="0"
     fit-margin-bottom="0"
     inkscape:window-width="1680"
     inkscape:window-height="1026"
     inkscape:window-x="1920"
     inkscape:window-y="0"
     inkscape:window-maximized="1" />
  <metadata
     id="metadata5">
    <rdf:RDF>
      <cc:Work
         rdf:about="">
        <dc:format>image/svg+xml</dc:format>
        <dc:type
           rdf:resource="http://purl.org/dc/dcmitype/StillImage" />
        <dc:title></dc:title>
      </cc:Work>
    </rdf:RDF>
  </metadata>
  <g
     inkscape:label="Layer 1"
     inkscape:groupmode="layer"
     id="layer1"
     transform="translate(-5.2916666,-30.107477)">
    <g
       transform="translate(63.171818,118.27406)"
       id="g8025-8">
      <rect
         style="opacity:1;fill:#e3e3e3;fill-opacity:1;stroke:#000000;stroke-width:0.30000001;stroke-miterlimit:4;stroke-dasharray:none;stroke-dashoffset:0;stroke-opacity:1"
         id="rect1299-9"
         width="110.18005"
         height="63.688988"
         x="19.312189"
         y="43.383587" />
      <path
         style="fill:none;stroke:#000000;stroke-width:0.26458332px;stroke-linecap:butt;stroke-linejoin:miter;stroke-opacity:1"
         d="m 24.856066,95.746044 c 0.178338,-0.356677 0.356518,-0.713036 1.380175,-4.807672 1.023658,-4.094637 2.896211,-11.941527 5.657864,-8.645426 2.761652,3.296101 6.41448,17.729224 9.488167,20.847254 3.073686,3.11803 5.568171,-5.078135 8.06259,-13.274084"
         id="path821-0"
         inkscape:connector-curvature="0"
         inkscape:path-effect="#path-effect823-4"
         inkscape:original-d="m 24.856066,95.746044 c 0.178444,-0.356624 0.356624,-0.712983 0.534539,-1.069078 1.869485,-7.833185 3.742038,-15.680076 5.61266,-23.519717 3.652804,14.431719 7.305631,28.864841 10.958051,43.297661 2.494812,-8.19663 4.989295,-16.392794 7.483546,-24.588794" />
      <path
         style="fill:none;stroke:#000000;stroke-width:0.26458332px;stroke-linecap:butt;stroke-linejoin:miter;stroke-opacity:1"
         d="M 21.916101,91.202464 H 74.076534"
         id="path920-4"
         inkscape:connector-curvature="0"
         sodipodi:nodetypes="cc" />
      <path
         inkscape:original-d="m 49.444862,89.866116 c 0.178444,-0.356624 0.356624,-0.712983 0.534539,-1.069078 1.869484,-8.966103 3.742038,-17.947933 5.61266,-26.921503 3.14898,9.802081 6.297655,19.604301 9.446146,29.407035 1.73885,-5.928747 3.477391,-11.857078 5.215689,-17.785221"
         inkscape:path-effect="#path-effect965-2"
         inkscape:connector-curvature="0"
         id="path963-4"
         d="m 49.444862,89.866116 c 0.178338,-0.356677 0.356518,-0.713036 1.38017,-5.374129 1.023653,-4.661094 2.896206,-13.642924 5.405949,-13.228597 2.509743,0.414328 5.658418,10.216548 8.102161,12.153465 2.443743,1.936917 4.182283,-3.991414 5.920754,-9.919506"
         style="fill:none;stroke:#000000;stroke-width:0.26458332px;stroke-linecap:butt;stroke-linejoin:miter;stroke-opacity:1"
         sodipodi:nodetypes="ccccc" />
      <text
         xml:space="preserve"
         style="font-style:normal;font-variant:normal;font-weight:normal;font-stretch:normal;font-size:3.52777767px;line-height:1.25;font-family:'Liberation Serif';-inkscape-font-specification:'Liberation Serif, Normal';font-variant-ligatures:normal;font-variant-caps:normal;font-variant-numeric:normal;font-feature-settings:normal;text-align:start;letter-spacing:0px;word-spacing:0px;writing-mode:lr-tb;text-anchor:start;fill:#000000;fill-opacity:1;stroke:none;stroke-width:0.26458332"
         x="23.024124"
         y="50.457081"
         id="text1693-2"><tspan
           sodipodi:role="line"
           x="23.024124"
           y="50.457081"
           style="stroke-width:0.26458332"
           id="tspan10326">Equivalent Concatenated Simulation</tspan></text>
      <path
         style="fill:none;stroke:#000000;stroke-width:0.26499999;stroke-linecap:butt;stroke-linejoin:miter;stroke-miterlimit:4;stroke-dasharray:0.26499999, 1.58999992;stroke-dashoffset:0;stroke-opacity:1"
         d="m 70.253894,56.110442 v 38.11095"
         id="path10330"
         inkscape:connector-curvature="0"
         sodipodi:nodetypes="cc" />
      <text
         xml:space="preserve"
         style="font-style:normal;font-variant:normal;font-weight:normal;font-stretch:normal;font-size:3.52777767px;line-height:1.25;font-family:'Liberation Serif';-inkscape-font-specification:'Liberation Serif, Normal';font-variant-ligatures:normal;font-variant-caps:normal;font-variant-numeric:normal;font-feature-settings:normal;text-align:start;letter-spacing:0px;word-spacing:0px;writing-mode:lr-tb;text-anchor:start;fill:#000000;fill-opacity:1;stroke:none;stroke-width:0.26458332"
         x="21.013075"
         y="100.83597"
         id="text10334"><tspan
           sodipodi:role="line"
           id="tspan10332"
           x="21.013075"
           y="100.83597"
           style="stroke-width:0.26458332">0 e-6</tspan></text>
      <text
         id="text10338"
         y="100.83597"
         x="66.181229"
         style="font-style:normal;font-variant:normal;font-weight:normal;font-stretch:normal;font-size:3.52777767px;line-height:1.25;font-family:'Liberation Serif';-inkscape-font-specification:'Liberation Serif, Normal';font-variant-ligatures:normal;font-variant-caps:normal;font-variant-numeric:normal;font-feature-settings:normal;text-align:start;letter-spacing:0px;word-spacing:0px;writing-mode:lr-tb;text-anchor:start;fill:#000000;fill-opacity:1;stroke:none;stroke-width:0.26458332"
         xml:space="preserve"><tspan
           style="stroke-width:0.26458332"
           y="100.83597"
           x="66.181229"
           id="tspan10336"
           sodipodi:role="line">1 e-6</tspan></text>
      <text
         xml:space="preserve"
         style="font-style:normal;font-variant:normal;font-weight:normal;font-stretch:normal;font-size:3.52777767px;line-height:1.25;font-family:'Liberation Serif';-inkscape-font-specification:'Liberation Serif, Normal';font-variant-ligatures:normal;font-variant-caps:normal;font-variant-numeric:normal;font-feature-settings:normal;text-align:start;letter-spacing:0px;word-spacing:0px;writing-mode:lr-tb;text-anchor:start;fill:#000000;fill-opacity:1;stroke:none;stroke-width:0.26458332"
         x="120.04284"
         y="100.83597"
         id="text10342"><tspan
           sodipodi:role="line"
           id="tspan10340"
           x="120.04284"
           y="100.83597"
           style="stroke-width:0.26458332">2 e-6</tspan></text>
      <path
         sodipodi:nodetypes="cc"
         inkscape:connector-curvature="0"
         id="path10344"
         d="m 24.707763,56.110442 v 38.11095"
         style="fill:none;stroke:#000000;stroke-width:0.26499999;stroke-linecap:butt;stroke-linejoin:miter;stroke-miterlimit:4;stroke-dasharray:0.26499999, 1.58999992;stroke-dashoffset:0;stroke-opacity:1" />
      <path
         style="fill:none;stroke:#000000;stroke-width:0.26499999;stroke-linecap:butt;stroke-linejoin:miter;stroke-miterlimit:4;stroke-dasharray:0.26499999, 1.58999992;stroke-dashoffset:0;stroke-opacity:1"
         d="m 123.92651,56.110442 v 38.11095"
         id="path10346"
         inkscape:connector-curvature="0"
         sodipodi:nodetypes="cc" />
      <g
         id="g10322"
         transform="translate(45.39783,-22.248695)">
        <path
           inkscape:original-d="m 24.856066,95.746044 c 0.178444,-0.356624 0.356624,-0.712983 0.534539,-1.069078 1.869485,-7.833185 3.742038,-15.680076 5.61266,-23.519717 3.652804,14.431719 7.305631,28.864841 10.958051,43.297661 2.494812,-8.19663 4.989295,-16.392794 7.483546,-24.588794"
           inkscape:path-effect="#path-effect823-4-7"
           inkscape:connector-curvature="0"
           id="path10310"
           d="m 24.856066,95.746044 c 0.178338,-0.356677 0.356518,-0.713036 1.380175,-4.807672 1.023658,-4.094637 2.896211,-11.941527 5.657864,-8.645426 2.761652,3.296101 6.41448,17.729224 9.488167,20.847254 3.073686,3.11803 5.568171,-5.078135 8.06259,-13.274084"
           style="fill:none;stroke:#000000;stroke-width:0.26458332px;stroke-linecap:butt;stroke-linejoin:miter;stroke-opacity:1" />
        <path
           sodipodi:nodetypes="cc"
           inkscape:connector-curvature="0"
           id="path10312"
           d="M 28.678704,113.45116 H 80.839137"
           style="fill:none;stroke:#000000;stroke-width:0.26458332px;stroke-linecap:butt;stroke-linejoin:miter;stroke-opacity:1" />
        <path
           sodipodi:nodetypes="ccccc"
           style="fill:none;stroke:#000000;stroke-width:0.26458332px;stroke-linecap:butt;stroke-linejoin:miter;stroke-opacity:1"
           d="m 49.444862,89.866116 c 0.178338,-0.356677 0.356518,-0.713036 1.38017,-5.374129 1.023653,-4.661094 2.896206,-13.642924 5.405949,-13.228597 2.509743,0.414328 5.658418,10.216548 8.102161,12.153465 2.443743,1.936917 4.182283,-3.991414 5.920754,-9.919506"
           id="path10314"
           inkscape:connector-curvature="0"
           inkscape:path-effect="#path-effect965-2-2"
           inkscape:original-d="m 49.444862,89.866116 c 0.178444,-0.356624 0.356624,-0.712983 0.534539,-1.069078 1.869484,-8.966103 3.742038,-17.947933 5.61266,-26.921503 3.14898,9.802081 6.297655,19.604301 9.446146,29.407035 1.73885,-5.928747 3.477391,-11.857078 5.215689,-17.785221" />
      </g>
    </g>
    <g
       transform="translate(20.930231,-24.293369)"
       id="g885">
      <rect
         y="54.550846"
         x="9.7458401"
         height="26.840443"
         width="37.299641"
         id="rect873"
         style="opacity:1;fill:#e3e3e3;fill-opacity:1;stroke:#000000;stroke-width:0.30000001;stroke-miterlimit:4;stroke-dasharray:none;stroke-dashoffset:0;stroke-opacity:1" />
      <text
         id="text877"
         y="58.168484"
         x="20.635582"
         style="font-style:normal;font-variant:normal;font-weight:normal;font-stretch:normal;font-size:3.52777767px;line-height:1.25;font-family:'Liberation Serif';-inkscape-font-specification:'Liberation Serif, Normal';font-variant-ligatures:normal;font-variant-caps:normal;font-variant-numeric:normal;font-feature-settings:normal;text-align:start;letter-spacing:0px;word-spacing:0px;writing-mode:lr-tb;text-anchor:start;fill:#000000;fill-opacity:1;stroke:none;stroke-width:0.26458332"
         xml:space="preserve"><tspan
           style="font-style:normal;font-variant:normal;font-weight:normal;font-stretch:normal;font-size:3.52777767px;font-family:'Liberation Serif';-inkscape-font-specification:'Liberation Serif, Normal';font-variant-ligatures:normal;font-variant-caps:normal;font-variant-numeric:normal;font-feature-settings:normal;text-align:start;writing-mode:lr-tb;text-anchor:start;stroke-width:0.26458332"
           y="58.168484"
           x="20.635582"
           sodipodi:role="line"
           id="tspan918">netlist1.scs</tspan></text>
      <text
         id="text883"
         y="78.340782"
         x="11.055804"
         style="font-style:normal;font-variant:normal;font-weight:normal;font-stretch:normal;font-size:3.52777767px;line-height:1.25;font-family:'Liberation Serif';-inkscape-font-specification:'Liberation Serif, Normal';font-variant-ligatures:normal;font-variant-caps:normal;font-variant-numeric:normal;font-feature-settings:normal;text-align:start;letter-spacing:0px;word-spacing:0px;writing-mode:lr-tb;text-anchor:start;fill:#000000;fill-opacity:1;stroke:none;stroke-width:0.26458332"
         xml:space="preserve"><tspan
           style="stroke-width:0.26458332"
           y="81.472115"
           x="11.055804"
           id="tspan881"
           sodipodi:role="line" /></text>
      <text
         xml:space="preserve"
         style="font-style:normal;font-variant:normal;font-weight:normal;font-stretch:normal;font-size:3.52777767px;line-height:1.25;font-family:'Liberation Serif';-inkscape-font-specification:'Liberation Serif, Normal';font-variant-ligatures:normal;font-variant-caps:normal;font-variant-numeric:normal;font-feature-settings:normal;text-align:start;letter-spacing:0px;word-spacing:0px;writing-mode:lr-tb;text-anchor:start;fill:#000000;fill-opacity:1;stroke:none;stroke-width:0.26458332"
         x="13.325952"
         y="64.965691"
         id="text959"><tspan
           sodipodi:role="line"
           id="tspan957"
           x="13.325952"
           y="64.965691"
           style="stroke-width:0.26458332">tran      =  0 -&gt;1e-6</tspan><tspan
           sodipodi:role="line"
           x="13.325952"
           y="69.375412"
           style="stroke-width:0.26458332"
           id="tspan961">in_1     = 0v</tspan><tspan
           sodipodi:role="line"
           x="13.325952"
           y="73.785133"
           style="stroke-width:0.26458332"
           id="tspan7656">load i.c. = none</tspan><tspan
           sodipodi:role="line"
           x="13.325952"
           y="78.194855"
           style="stroke-width:0.26458332"
           id="tspan5255">save f.c. = &quot;state.file&quot;</tspan></text>
      <path
         style="fill:none;stroke:#000000;stroke-width:0.26458332px;stroke-linecap:butt;stroke-linejoin:miter;stroke-opacity:1"
         d="M 19.560468,59.422683 H 37.230853"
         id="path7654"
         inkscape:connector-curvature="0" />
    </g>
    <path
       style="fill:none;stroke:#000000;stroke-width:0.26458332px;stroke-linecap:butt;stroke-linejoin:miter;stroke-opacity:1;marker-end:url(#marker5497)"
       d="m 49.331936,57.666688 -0.02193,5.52592"
       id="path967"
       inkscape:connector-curvature="0"
       sodipodi:nodetypes="cc" />
    <g
       id="g5299"
       transform="translate(70.141578,-22.061871)">
      <text
         xml:space="preserve"
         style="font-style:normal;font-variant:normal;font-weight:normal;font-stretch:normal;font-size:3.52777767px;line-height:1.25;font-family:'Liberation Serif';-inkscape-font-specification:'Liberation Serif, Normal';font-variant-ligatures:normal;font-variant-caps:normal;font-variant-numeric:normal;font-feature-settings:normal;text-align:start;letter-spacing:0px;word-spacing:0px;writing-mode:lr-tb;text-anchor:start;fill:#000000;fill-opacity:1;stroke:none;stroke-width:0.26458332"
         x="11.055804"
         y="78.340782"
         id="text5289"><tspan
           sodipodi:role="line"
           id="tspan5287"
           x="11.055804"
           y="81.472115"
           style="stroke-width:0.26458332" /></text>
    </g>
    <g
       id="g8044">
      <g
         id="g8025">
        <rect
           style="opacity:1;fill:#e3e3e3;fill-opacity:1;stroke:#000000;stroke-width:0.30000001;stroke-miterlimit:4;stroke-dasharray:none;stroke-dashoffset:0;stroke-opacity:1"
           id="rect1299"
           width="56.696423"
           height="38.931549"
           x="19.312189"
           y="68.141029" />
        <path
           style="fill:none;stroke:#000000;stroke-width:0.26458332px;stroke-linecap:butt;stroke-linejoin:miter;stroke-opacity:1"
           d="m 24.856066,95.746044 c 0.178338,-0.356677 0.356518,-0.713036 1.380175,-4.807672 1.023658,-4.094637 2.896211,-11.941527 5.657864,-8.645426 2.761652,3.296101 6.41448,17.729224 9.488167,20.847254 3.073686,3.11803 5.568171,-5.078135 8.06259,-13.274084"
           id="path821"
           inkscape:connector-curvature="0"
           inkscape:path-effect="#path-effect823"
           inkscape:original-d="m 24.856066,95.746044 c 0.178444,-0.356624 0.356624,-0.712983 0.534539,-1.069078 1.869485,-7.833185 3.742038,-15.680076 5.61266,-23.519717 3.652804,14.431719 7.305631,28.864841 10.958051,43.297661 2.494812,-8.19663 4.989295,-16.392794 7.483546,-24.588794" />
        <path
           style="fill:none;stroke:#000000;stroke-width:0.26458332px;stroke-linecap:butt;stroke-linejoin:miter;stroke-opacity:1"
           d="M 21.916101,91.202464 H 74.076534"
           id="path920"
           inkscape:connector-curvature="0"
           sodipodi:nodetypes="cc" />
        <path
           inkscape:original-d="m 49.444862,89.866116 c 0.178444,-0.356624 0.356624,-0.712983 0.534539,-1.069078 1.869484,-8.966103 3.742038,-17.947933 5.61266,-26.921503 3.14898,9.802081 6.297655,19.604301 9.446146,29.407035 1.73885,-5.928747 3.477391,-11.857078 5.215689,-17.785221"
           inkscape:path-effect="#path-effect965"
           inkscape:connector-curvature="0"
           id="path963"
           d="m 49.444862,89.866116 c 0.178338,-0.356677 0.356518,-0.713036 1.38017,-5.374129 1.023653,-4.661094 2.896206,-13.642924 5.405949,-13.228597 2.509743,0.414328 5.658418,10.216548 8.102161,12.153465 2.443743,1.936917 4.182283,-3.991414 5.920754,-9.919506"
           style="fill:none;stroke:#000000;stroke-width:0.26458332px;stroke-linecap:butt;stroke-linejoin:miter;stroke-opacity:1"
           sodipodi:nodetypes="ccccc" />
        <text
           xml:space="preserve"
           style="font-style:normal;font-variant:normal;font-weight:normal;font-stretch:normal;font-size:3.52777767px;line-height:1.25;font-family:'Liberation Serif';-inkscape-font-specification:'Liberation Serif, Normal';font-variant-ligatures:normal;font-variant-caps:normal;font-variant-numeric:normal;font-feature-settings:normal;text-align:start;letter-spacing:0px;word-spacing:0px;writing-mode:lr-tb;text-anchor:start;fill:#000000;fill-opacity:1;stroke:none;stroke-width:0.26458332"
           x="21.134243"
           y="72.568687"
           id="text1693"><tspan
             sodipodi:role="line"
             id="tspan1691"
             x="21.134243"
             y="72.568687"
             style="stroke-width:0.26458332">Spectre</tspan><tspan
             sodipodi:role="line"
             x="21.134243"
             y="76.978409"
             style="stroke-width:0.26458332"
             id="tspan1695">simulation</tspan></text>
      </g>
      <g
         id="g5408">
        <rect
           style="opacity:1;fill:none;fill-opacity:1;stroke:#000000;stroke-width:0.30000001;stroke-miterlimit:4;stroke-dasharray:none;stroke-dashoffset:0;stroke-opacity:1"
           id="rect5359"
           width="87.690468"
           height="65.011902"
           x="5.4806542"
           y="64.355652" />
        <path
           style="fill:none;stroke:#000000;stroke-width:0.26458332px;stroke-linecap:butt;stroke-linejoin:miter;stroke-opacity:1"
           d="M 5.2916666,111.22471 H 93.360117"
           id="path5361"
           inkscape:connector-curvature="0" />
        <g
           id="g5398"
           transform="translate(1.889881,-5.4806547)">
          <text
             id="text5365"
             y="121.80482"
             x="7.3499122"
             style="font-style:normal;font-variant:normal;font-weight:normal;font-stretch:normal;font-size:3.52777767px;line-height:1.25;font-family:'Liberation Serif';-inkscape-font-specification:'Liberation Serif, Normal';font-variant-ligatures:normal;font-variant-caps:normal;font-variant-numeric:normal;font-feature-settings:normal;text-align:start;letter-spacing:0px;word-spacing:0px;writing-mode:lr-tb;text-anchor:start;fill:#000000;fill-opacity:1;stroke:none;stroke-width:0.26458332"
             xml:space="preserve"><tspan
               style="stroke-width:0.26458332"
               y="121.80482"
               x="7.3499122"
               id="tspan5363"
               sodipodi:role="line">Full invocation of the Spectre simulator from the</tspan><tspan
               id="tspan5371"
               style="stroke-width:0.26458332"
               y="126.21454"
               x="7.3499122"
               sodipodi:role="line">command-line:             </tspan></text>
          <text
             xml:space="preserve"
             style="font-style:normal;font-variant:normal;font-weight:normal;font-stretch:normal;font-size:3.52777767px;line-height:1.25;font-family:'Liberation Serif';-inkscape-font-specification:'Liberation Serif, Normal';font-variant-ligatures:normal;font-variant-caps:normal;font-variant-numeric:normal;font-feature-settings:normal;text-align:start;letter-spacing:0px;word-spacing:0px;writing-mode:lr-tb;text-anchor:start;fill:#000000;fill-opacity:1;stroke:none;stroke-width:0.26458332"
             x="12.561667"
             y="131.6938"
             id="text5389"><tspan
               sodipodi:role="line"
               x="12.561667"
               y="131.6938"
               style="font-style:normal;font-variant:normal;font-weight:normal;font-stretch:normal;font-family:'Tlwg Typewriter';-inkscape-font-specification:'Tlwg Typewriter';stroke-width:0.26458332"
               id="tspan5387">/bin/bash -ic 'spectre netlist1.scs`</tspan></text>
        </g>
      </g>
    </g>
    <g
       id="g5471"
       transform="translate(95.80767,-44.921631)">
      <rect
         style="opacity:1;fill:none;fill-opacity:1;stroke:#000000;stroke-width:0.30000001;stroke-miterlimit:4;stroke-dasharray:none;stroke-dashoffset:0;stroke-opacity:1"
         id="rect5455"
         width="72.571419"
         height="15.176584"
         x="5.4806542"
         y="109.27728" />
      <g
         id="g5469"
         transform="translate(1.889881,-5.4806547)">
        <text
           id="text5463"
           y="120.84644"
           x="6.7236609"
           style="font-style:normal;font-variant:normal;font-weight:normal;font-stretch:normal;font-size:3.52777767px;line-height:1.25;font-family:'Liberation Serif';-inkscape-font-specification:'Liberation Serif, Normal';font-variant-ligatures:normal;font-variant-caps:normal;font-variant-numeric:normal;font-feature-settings:normal;text-align:start;letter-spacing:0px;word-spacing:0px;writing-mode:lr-tb;text-anchor:start;fill:#000000;fill-opacity:1;stroke:none;stroke-width:0.26458332"
           xml:space="preserve"><tspan
             id="tspan5461"
             style="stroke-width:0.26458332"
             y="120.84644"
             x="6.7236609"
             sodipodi:role="line">Evaluate RL agent's inference on the results of</tspan><tspan
             style="stroke-width:0.26458332"
             y="125.25616"
             x="6.7236609"
             sodipodi:role="line"
             id="tspan5475">the previous transient simulation.</tspan></text>
      </g>
    </g>
    <g
       transform="translate(95.80767,-19.72868)"
       id="g5671">
      <rect
         y="109.27728"
         x="5.4806542"
         height="15.176584"
         width="72.571419"
         id="rect5661"
         style="opacity:1;fill:none;fill-opacity:1;stroke:#000000;stroke-width:0.30000001;stroke-miterlimit:4;stroke-dasharray:none;stroke-dashoffset:0;stroke-opacity:1" />
      <g
         transform="translate(1.889881,-5.4806547)"
         id="g5669">
        <text
           xml:space="preserve"
           style="font-style:normal;font-variant:normal;font-weight:normal;font-stretch:normal;font-size:3.52777767px;line-height:1.25;font-family:'Liberation Serif';-inkscape-font-specification:'Liberation Serif, Normal';font-variant-ligatures:normal;font-variant-caps:normal;font-variant-numeric:normal;font-feature-settings:normal;text-align:start;letter-spacing:0px;word-spacing:0px;writing-mode:lr-tb;text-anchor:start;fill:#000000;fill-opacity:1;stroke:none;stroke-width:0.26458332"
           x="6.7236609"
           y="120.84644"
           id="text5667"><tspan
             id="tspan5665"
             sodipodi:role="line"
             x="6.7236609"
             y="120.84644"
             style="stroke-width:0.26458332">Create a new netlist, incorporating the RL</tspan><tspan
             sodipodi:role="line"
             x="6.7236609"
             y="125.25616"
             style="stroke-width:0.26458332"
             id="tspan5675">agent's chosen action at time t=1e-6</tspan></text>
      </g>
    </g>
    <path
       sodipodi:nodetypes="cc"
       inkscape:connector-curvature="0"
       id="path5683"
       d="m 93.874043,72.324947 5.52592,0.0219"
       style="fill:none;stroke:#000000;stroke-width:0.26458332px;stroke-linecap:butt;stroke-linejoin:miter;stroke-opacity:1;marker-end:url(#marker5687)" />
    <path
       style="fill:none;stroke:#000000;stroke-width:0.26458332px;stroke-linecap:butt;stroke-linejoin:miter;stroke-opacity:1;marker-end:url(#marker6485)"
       d="m 137.58006,80.817729 -0.0219,5.52592"
       id="path6481"
       inkscape:connector-curvature="0"
       sodipodi:nodetypes="cc" />
    <path
       sodipodi:nodetypes="cc"
       inkscape:connector-curvature="0"
       id="path7414"
       d="m 137.58006,106.14213 -0.0219,5.52592"
       style="fill:none;stroke:#000000;stroke-width:0.26458332px;stroke-linecap:butt;stroke-linejoin:miter;stroke-opacity:1;marker-end:url(#marker7418)" />
    <g
       id="g8080"
       transform="translate(175.66879,-1.1339286)">
      <g
         id="g8060">
        <rect
           y="68.141029"
           x="19.312189"
           height="38.931549"
           width="56.696423"
           id="rect8046"
           style="opacity:1;fill:#e3e3e3;fill-opacity:1;stroke:#000000;stroke-width:0.30000001;stroke-miterlimit:4;stroke-dasharray:none;stroke-dashoffset:0;stroke-opacity:1" />
        <path
           inkscape:original-d="m 24.856066,95.746044 c 0.178444,-0.356624 0.356624,-0.712983 0.534539,-1.069078 1.869485,-7.833185 3.742038,-15.680076 5.61266,-23.519717 3.652804,14.431719 7.305631,28.864841 10.958051,43.297661 2.494812,-8.19663 4.989295,-16.392794 7.483546,-24.588794"
           inkscape:path-effect="#path-effect823"
           inkscape:connector-curvature="0"
           id="path8048"
           d="m 24.856066,95.746044 c 0.178338,-0.356677 0.356518,-0.713036 1.380175,-4.807672 1.023658,-4.094637 2.896211,-11.941527 5.657864,-8.645426 2.761652,3.296101 6.41448,17.729224 9.488167,20.847254 3.073686,3.11803 5.568171,-5.078135 8.06259,-13.274084"
           style="fill:none;stroke:#000000;stroke-width:0.26458332px;stroke-linecap:butt;stroke-linejoin:miter;stroke-opacity:1" />
        <path
           sodipodi:nodetypes="cc"
           inkscape:connector-curvature="0"
           id="path8050"
           d="M 21.916101,105.18758 H 74.076534"
           style="fill:none;stroke:#000000;stroke-width:0.26458332px;stroke-linecap:butt;stroke-linejoin:miter;stroke-opacity:1" />
        <path
           sodipodi:nodetypes="ccccc"
           style="fill:none;stroke:#000000;stroke-width:0.26458332px;stroke-linecap:butt;stroke-linejoin:miter;stroke-opacity:1"
           d="m 49.444862,89.866116 c 0.178338,-0.356677 0.356518,-0.713036 1.38017,-5.374129 1.023653,-4.661094 2.896206,-13.642924 5.405949,-13.228597 2.509743,0.414328 5.658418,10.216548 8.102161,12.153465 2.443743,1.936917 4.182283,-3.991414 5.920754,-9.919506"
           id="path8052"
           inkscape:connector-curvature="0"
           inkscape:path-effect="#path-effect965"
           inkscape:original-d="m 49.444862,89.866116 c 0.178444,-0.356624 0.356624,-0.712983 0.534539,-1.069078 1.869484,-8.966103 3.742038,-17.947933 5.61266,-26.921503 3.14898,9.802081 6.297655,19.604301 9.446146,29.407035 1.73885,-5.928747 3.477391,-11.857078 5.215689,-17.785221" />
        <text
           id="text8058"
           y="72.568687"
           x="21.134243"
           style="font-style:normal;font-variant:normal;font-weight:normal;font-stretch:normal;font-size:3.52777767px;line-height:1.25;font-family:'Liberation Serif';-inkscape-font-specification:'Liberation Serif, Normal';font-variant-ligatures:normal;font-variant-caps:normal;font-variant-numeric:normal;font-feature-settings:normal;text-align:start;letter-spacing:0px;word-spacing:0px;writing-mode:lr-tb;text-anchor:start;fill:#000000;fill-opacity:1;stroke:none;stroke-width:0.26458332"
           xml:space="preserve"><tspan
             style="stroke-width:0.26458332"
             y="72.568687"
             x="21.134243"
             id="tspan8054"
             sodipodi:role="line">Spectre</tspan><tspan
             id="tspan8056"
             style="stroke-width:0.26458332"
             y="76.978409"
             x="21.134243"
             sodipodi:role="line">simulation</tspan></text>
      </g>
      <g
         id="g8078">
        <rect
           y="64.355652"
           x="5.4806542"
           height="65.011902"
           width="87.690468"
           id="rect8062"
           style="opacity:1;fill:none;fill-opacity:1;stroke:#000000;stroke-width:0.30000001;stroke-miterlimit:4;stroke-dasharray:none;stroke-dashoffset:0;stroke-opacity:1" />
        <path
           inkscape:connector-curvature="0"
           id="path8064"
           d="M 5.2916666,111.22471 H 93.360117"
           style="fill:none;stroke:#000000;stroke-width:0.26458332px;stroke-linecap:butt;stroke-linejoin:miter;stroke-opacity:1" />
        <g
           transform="translate(1.889881,-5.4806547)"
           id="g8076">
          <text
             xml:space="preserve"
             style="font-style:normal;font-variant:normal;font-weight:normal;font-stretch:normal;font-size:3.52777767px;line-height:1.25;font-family:'Liberation Serif';-inkscape-font-specification:'Liberation Serif, Normal';font-variant-ligatures:normal;font-variant-caps:normal;font-variant-numeric:normal;font-feature-settings:normal;text-align:start;letter-spacing:0px;word-spacing:0px;writing-mode:lr-tb;text-anchor:start;fill:#000000;fill-opacity:1;stroke:none;stroke-width:0.26458332"
             x="7.3499122"
             y="121.80482"
             id="text8070"><tspan
               sodipodi:role="line"
               id="tspan8066"
               x="7.3499122"
               y="121.80482"
               style="stroke-width:0.26458332">Full invocation of the Spectre simulator from the</tspan><tspan
               sodipodi:role="line"
               x="7.3499122"
               y="126.21454"
               style="stroke-width:0.26458332"
               id="tspan8068">command-line:             </tspan></text>
          <text
             id="text8074"
             y="131.6938"
             x="12.561667"
             style="font-style:normal;font-variant:normal;font-weight:normal;font-stretch:normal;font-size:3.52777767px;line-height:1.25;font-family:'Liberation Serif';-inkscape-font-specification:'Liberation Serif, Normal';font-variant-ligatures:normal;font-variant-caps:normal;font-variant-numeric:normal;font-feature-settings:normal;text-align:start;letter-spacing:0px;word-spacing:0px;writing-mode:lr-tb;text-anchor:start;fill:#000000;fill-opacity:1;stroke:none;stroke-width:0.26458332"
             xml:space="preserve"><tspan
               id="tspan8072"
               style="font-style:normal;font-variant:normal;font-weight:normal;font-stretch:normal;font-family:'Tlwg Typewriter';-inkscape-font-specification:'Tlwg Typewriter';stroke-width:0.26458332"
               y="131.6938"
               x="12.561667"
               sodipodi:role="line">/bin/bash -ic 'spectre netlist2.scs`</tspan></text>
        </g>
      </g>
    </g>
    <g
       id="g8104"
       transform="translate(109.17837,58.827454)">
      <rect
         style="opacity:1;fill:#e3e3e3;fill-opacity:1;stroke:#000000;stroke-width:0.30000001;stroke-miterlimit:4;stroke-dasharray:none;stroke-dashoffset:0;stroke-opacity:1"
         id="rect8082"
         width="37.299641"
         height="26.840443"
         x="9.7458401"
         y="54.550846" />
      <text
         xml:space="preserve"
         style="font-style:normal;font-variant:normal;font-weight:normal;font-stretch:normal;font-size:3.52777767px;line-height:1.25;font-family:'Liberation Serif';-inkscape-font-specification:'Liberation Serif, Normal';font-variant-ligatures:normal;font-variant-caps:normal;font-variant-numeric:normal;font-feature-settings:normal;text-align:start;letter-spacing:0px;word-spacing:0px;writing-mode:lr-tb;text-anchor:start;fill:#000000;fill-opacity:1;stroke:none;stroke-width:0.26458332"
         x="20.635582"
         y="58.168484"
         id="text8086"><tspan
           id="tspan8084"
           sodipodi:role="line"
           x="20.635582"
           y="58.168484"
           style="font-style:normal;font-variant:normal;font-weight:normal;font-stretch:normal;font-size:3.52777767px;font-family:'Liberation Serif';-inkscape-font-specification:'Liberation Serif, Normal';font-variant-ligatures:normal;font-variant-caps:normal;font-variant-numeric:normal;font-feature-settings:normal;text-align:start;writing-mode:lr-tb;text-anchor:start;stroke-width:0.26458332">netlist2.scs</tspan></text>
      <text
         xml:space="preserve"
         style="font-style:normal;font-variant:normal;font-weight:normal;font-stretch:normal;font-size:3.52777767px;line-height:1.25;font-family:'Liberation Serif';-inkscape-font-specification:'Liberation Serif, Normal';font-variant-ligatures:normal;font-variant-caps:normal;font-variant-numeric:normal;font-feature-settings:normal;text-align:start;letter-spacing:0px;word-spacing:0px;writing-mode:lr-tb;text-anchor:start;fill:#000000;fill-opacity:1;stroke:none;stroke-width:0.26458332"
         x="11.055804"
         y="78.340782"
         id="text8090"><tspan
           sodipodi:role="line"
           id="tspan8088"
           x="11.055804"
           y="81.472115"
           style="stroke-width:0.26458332" /></text>
      <text
         id="text8100"
         y="64.965691"
         x="13.325952"
         style="font-style:normal;font-variant:normal;font-weight:normal;font-stretch:normal;font-size:3.52777767px;line-height:1.25;font-family:'Liberation Serif';-inkscape-font-specification:'Liberation Serif, Normal';font-variant-ligatures:normal;font-variant-caps:normal;font-variant-numeric:normal;font-feature-settings:normal;text-align:start;letter-spacing:0px;word-spacing:0px;writing-mode:lr-tb;text-anchor:start;fill:#000000;fill-opacity:1;stroke:none;stroke-width:0.26458332"
         xml:space="preserve"><tspan
           style="stroke-width:0.26458332"
           y="64.965691"
           x="13.325952"
           id="tspan8092"
           sodipodi:role="line">tran      = 1e-6 -&gt; 2e-6</tspan><tspan
           id="tspan8094"
           style="stroke-width:0.26458332"
           y="69.375412"
           x="13.325952"
           sodipodi:role="line">in_1     = 3v</tspan><tspan
           id="tspan8096"
           style="stroke-width:0.26458332"
           y="73.785133"
           x="13.325952"
           sodipodi:role="line">load i.c. = &quot;state.file&quot;</tspan><tspan
           id="tspan8098"
           style="stroke-width:0.26458332"
           y="78.194855"
           x="13.325952"
           sodipodi:role="line">save f.c. = &quot;state.file&quot;</tspan></text>
      <path
         inkscape:connector-curvature="0"
         id="path8102"
         d="M 19.560468,59.422683 H 37.230853"
         style="fill:none;stroke:#000000;stroke-width:0.26458332px;stroke-linecap:butt;stroke-linejoin:miter;stroke-opacity:1" />
    </g>
    <path
       style="fill:none;stroke:#000000;stroke-width:0.26458332px;stroke-linecap:butt;stroke-linejoin:miter;stroke-opacity:1;marker-end:url(#marker8128)"
       d="m 157.43553,129.01859 23.10181,-13.39625"
       id="path8124"
       inkscape:connector-curvature="0"
       sodipodi:nodetypes="cc" />
    <path
       sodipodi:nodetypes="cc"
       inkscape:connector-curvature="0"
       id="path10468"
       d="m 51.413209,131.34055 28.424965,28.04924"
       style="fill:none;stroke:#000000;stroke-width:0.26458332px;stroke-linecap:butt;stroke-linejoin:miter;stroke-opacity:1;marker-end:url(#marker10472)" />
    <path
       style="fill:none;stroke:#000000;stroke-width:0.26458332px;stroke-linecap:butt;stroke-linejoin:miter;stroke-opacity:1;marker-end:url(#marker11738)"
       d="M 223.49446,131.20298 195.0695,159.25222"
       id="path11734"
       inkscape:connector-curvature="0"
       sodipodi:nodetypes="cc" />
  </g>
</svg>
