<?xml version="1.0" encoding="utf-8" standalone="no"?>
<!DOCTYPE svg PUBLIC "-//W3C//DTD SVG 1.1//EN"
  "http://www.w3.org/Graphics/SVG/1.1/DTD/svg11.dtd">
<!-- Created with matplotlib (https://matplotlib.org/) -->
<svg height="141.84pt" version="1.1" viewBox="0 0 720 141.84" width="720pt" xmlns="http://www.w3.org/2000/svg" xmlns:xlink="http://www.w3.org/1999/xlink">
 <defs>
  <style type="text/css">
*{stroke-linecap:butt;stroke-linejoin:round;}
  </style>
 </defs>
 <g id="figure_1">
  <g id="patch_1">
   <path d="M 0 141.84 
L 720 141.84 
L 720 0 
L 0 0 
z
" style="fill:#ffffff;"/>
  </g>
  <g id="axes_1">
   <g id="patch_2">
    <path d="M 30.364083 111.448341 
L 231.86 111.448341 
L 231.86 37.360811 
L 30.364083 37.360811 
z
" style="fill:#ffffff;"/>
   </g>
   <g id="PathCollection_1">
    <defs>
     <path d="M 0 2.8 
C 0.742569 2.8 1.454824 2.504974 1.979899 1.979899 
C 2.504974 1.454824 2.8 0.742569 2.8 0 
C 2.8 -0.742569 2.504974 -1.454824 1.979899 -1.979899 
C 1.454824 -2.504974 0.742569 -2.8 0 -2.8 
C -0.742569 -2.8 -1.454824 -2.504974 -1.979899 -1.979899 
C -2.504974 -1.454824 -2.8 -0.742569 -2.8 0 
C -2.8 0.742569 -2.504974 1.454824 -1.979899 1.979899 
C -1.454824 2.504974 -0.742569 2.8 0 2.8 
z
" id="m444a26ea64" style="stroke:#1f77b4;stroke-width:0.24;"/>
    </defs>
    <g clip-path="url(#paf81b1fd66)">
     <use style="fill:#1f77b4;stroke:#1f77b4;stroke-width:0.24;" x="131.112041" xlink:href="#m444a26ea64" y="74.40458"/>
     <use style="fill:#1f77b4;stroke:#1f77b4;stroke-width:0.24;" x="193.154041" xlink:href="#m444a26ea64" y="52.437471"/>
     <use style="fill:#1f77b4;stroke:#1f77b4;stroke-width:0.24;" x="226.108797" xlink:href="#m444a26ea64" y="41.565406"/>
     <use style="fill:#1f77b4;stroke:#1f77b4;stroke-width:0.24;" x="211.083036" xlink:href="#m444a26ea64" y="47.279596"/>
     <use style="fill:#1f77b4;stroke:#1f77b4;stroke-width:0.24;" x="155.665897" xlink:href="#m444a26ea64" y="66.693945"/>
     <use style="fill:#1f77b4;stroke:#1f77b4;stroke-width:0.24;" x="87.847207" xlink:href="#m444a26ea64" y="90.002745"/>
     <use style="fill:#1f77b4;stroke:#1f77b4;stroke-width:0.24;" x="41.880511" xlink:href="#m444a26ea64" y="105.433297"/>
     <use style="fill:#1f77b4;stroke:#1f77b4;stroke-width:0.24;" x="40.98245" xlink:href="#m444a26ea64" y="105.192012"/>
     <use style="fill:#1f77b4;stroke:#1f77b4;stroke-width:0.24;" x="85.606612" xlink:href="#m444a26ea64" y="89.400755"/>
     <use style="fill:#1f77b4;stroke:#1f77b4;stroke-width:0.24;" x="153.214437" xlink:href="#m444a26ea64" y="66.035301"/>
     <use style="fill:#1f77b4;stroke:#1f77b4;stroke-width:0.24;" x="209.658883" xlink:href="#m444a26ea64" y="46.896963"/>
     <use style="fill:#1f77b4;stroke:#1f77b4;stroke-width:0.24;" x="226.431256" xlink:href="#m444a26ea64" y="41.652042"/>
     <use style="fill:#1f77b4;stroke:#1f77b4;stroke-width:0.24;" x="195.060245" xlink:href="#m444a26ea64" y="52.949618"/>
     <use style="fill:#1f77b4;stroke:#1f77b4;stroke-width:0.24;" x="131.390571" xlink:href="#m444a26ea64" y="75.083565"/>
     <use style="fill:#1f77b4;stroke:#1f77b4;stroke-width:0.24;" x="67.580215" xlink:href="#m444a26ea64" y="96.874574"/>
     <use style="fill:#1f77b4;stroke:#1f77b4;stroke-width:0.24;" x="35.858208" xlink:href="#m444a26ea64" y="107.316543"/>
     <use style="fill:#1f77b4;stroke:#1f77b4;stroke-width:0.24;" x="52.246553" xlink:href="#m444a26ea64" y="101.135494"/>
     <use style="fill:#1f77b4;stroke:#1f77b4;stroke-width:0.24;" x="108.467902" xlink:href="#m444a26ea64" y="81.453321"/>
     <use style="fill:#1f77b4;stroke:#1f77b4;stroke-width:0.24;" x="176.12624" xlink:href="#m444a26ea64" y="58.211003"/>
     <use style="fill:#1f77b4;stroke:#1f77b4;stroke-width:0.24;" x="221.049015" xlink:href="#m444a26ea64" y="43.14766"/>
     <use style="fill:#1f77b4;stroke:#1f77b4;stroke-width:0.24;" x="220.546842" xlink:href="#m444a26ea64" y="43.871415"/>
     <use style="fill:#1f77b4;stroke:#1f77b4;stroke-width:0.24;" x="174.873357" xlink:href="#m444a26ea64" y="60.016717"/>
     <use style="fill:#1f77b4;stroke:#1f77b4;stroke-width:0.24;" x="107.097108" xlink:href="#m444a26ea64" y="83.428973"/>
     <use style="fill:#1f77b4;stroke:#1f77b4;stroke-width:0.24;" x="51.450203" xlink:href="#m444a26ea64" y="102.283231"/>
     <use style="fill:#1f77b4;stroke:#1f77b4;stroke-width:0.24;" x="36.038518" xlink:href="#m444a26ea64" y="107.056671"/>
     <use style="fill:#1f77b4;stroke:#1f77b4;stroke-width:0.24;" x="68.646115" xlink:href="#m444a26ea64" y="95.338348"/>
     <use style="fill:#1f77b4;stroke:#1f77b4;stroke-width:0.24;" x="132.803702" xlink:href="#m444a26ea64" y="73.046896"/>
     <use style="fill:#1f77b4;stroke:#1f77b4;stroke-width:0.24;" x="196.106867" xlink:href="#m444a26ea64" y="51.441176"/>
     <use style="fill:#1f77b4;stroke:#1f77b4;stroke-width:0.24;" x="226.582748" xlink:href="#m444a26ea64" y="41.433704"/>
     <use style="fill:#1f77b4;stroke:#1f77b4;stroke-width:0.24;" x="208.83873" xlink:href="#m444a26ea64" y="48.079007"/>
     <use style="fill:#1f77b4;stroke:#1f77b4;stroke-width:0.24;" x="151.836877" xlink:href="#m444a26ea64" y="68.020705"/>
     <use style="fill:#1f77b4;stroke:#1f77b4;stroke-width:0.24;" x="84.367417" xlink:href="#m444a26ea64" y="91.186741"/>
     <use style="fill:#1f77b4;stroke:#1f77b4;stroke-width:0.24;" x="40.507507" xlink:href="#m444a26ea64" y="105.876522"/>
     <use style="fill:#1f77b4;stroke:#1f77b4;stroke-width:0.24;" x="42.409701" xlink:href="#m444a26ea64" y="104.670603"/>
     <use style="fill:#1f77b4;stroke:#1f77b4;stroke-width:0.24;" x="89.11325" xlink:href="#m444a26ea64" y="88.178064"/>
     <use style="fill:#1f77b4;stroke:#1f77b4;stroke-width:0.24;" x="157.029346" xlink:href="#m444a26ea64" y="64.728878"/>
     <use style="fill:#1f77b4;stroke:#1f77b4;stroke-width:0.24;" x="211.855246" xlink:href="#m444a26ea64" y="46.16665"/>
     <use style="fill:#1f77b4;stroke:#1f77b4;stroke-width:0.24;" x="225.899744" xlink:href="#m444a26ea64" y="41.866703"/>
     <use style="fill:#1f77b4;stroke:#1f77b4;stroke-width:0.24;" x="192.069312" xlink:href="#m444a26ea64" y="54.000832"/>
     <use style="fill:#1f77b4;stroke:#1f77b4;stroke-width:0.24;" x="127.450864" xlink:href="#m444a26ea64" y="76.440391"/>
     <use style="fill:#1f77b4;stroke:#1f77b4;stroke-width:0.24;" x="64.681581" xlink:href="#m444a26ea64" y="97.851711"/>
     <use style="fill:#1f77b4;stroke:#1f77b4;stroke-width:0.24;" x="35.464676" xlink:href="#m444a26ea64" y="107.420465"/>
     <use style="fill:#1f77b4;stroke:#1f77b4;stroke-width:0.24;" x="54.556886" xlink:href="#m444a26ea64" y="100.313712"/>
     <use style="fill:#1f77b4;stroke:#1f77b4;stroke-width:0.24;" x="112.315208" xlink:href="#m444a26ea64" y="80.120896"/>
     <use style="fill:#1f77b4;stroke:#1f77b4;stroke-width:0.24;" x="179.56734" xlink:href="#m444a26ea64" y="57.04091"/>
     <use style="fill:#1f77b4;stroke:#1f77b4;stroke-width:0.24;" x="222.345894" xlink:href="#m444a26ea64" y="42.730885"/>
     <use style="fill:#1f77b4;stroke:#1f77b4;stroke-width:0.24;" x="219.044479" xlink:href="#m444a26ea64" y="44.41846"/>
     <use style="fill:#1f77b4;stroke:#1f77b4;stroke-width:0.24;" x="171.330558" xlink:href="#m444a26ea64" y="61.251283"/>
     <use style="fill:#1f77b4;stroke:#1f77b4;stroke-width:0.24;" x="103.303254" xlink:href="#m444a26ea64" y="84.727511"/>
     <use style="fill:#1f77b4;stroke:#1f77b4;stroke-width:0.24;" x="49.321476" xlink:href="#m444a26ea64" y="102.989882"/>
     <use style="fill:#1f77b4;stroke:#1f77b4;stroke-width:0.24;" x="36.650085" xlink:href="#m444a26ea64" y="106.814523"/>
     <use style="fill:#1f77b4;stroke:#1f77b4;stroke-width:0.24;" x="71.689089" xlink:href="#m444a26ea64" y="94.269704"/>
     <use style="fill:#1f77b4;stroke:#1f77b4;stroke-width:0.24;" x="136.741152" xlink:href="#m444a26ea64" y="71.691501"/>
     <use style="fill:#1f77b4;stroke:#1f77b4;stroke-width:0.24;" x="198.950085" xlink:href="#m444a26ea64" y="50.483607"/>
     <use style="fill:#1f77b4;stroke:#1f77b4;stroke-width:0.24;" x="226.895694" xlink:href="#m444a26ea64" y="41.357606"/>
     <use style="fill:#1f77b4;stroke:#1f77b4;stroke-width:0.24;" x="206.463343" xlink:href="#m444a26ea64" y="48.922814"/>
     <use style="fill:#1f77b4;stroke:#1f77b4;stroke-width:0.24;" x="147.972907" xlink:href="#m444a26ea64" y="69.358232"/>
     <use style="fill:#1f77b4;stroke:#1f77b4;stroke-width:0.24;" x="80.966459" xlink:href="#m444a26ea64" y="92.342436"/>
     <use style="fill:#1f77b4;stroke:#1f77b4;stroke-width:0.24;" x="39.287301" xlink:href="#m444a26ea64" y="106.266672"/>
     <use style="fill:#1f77b4;stroke:#1f77b4;stroke-width:0.24;" x="43.986544" xlink:href="#m444a26ea64" y="104.098153"/>
     <use style="fill:#1f77b4;stroke:#1f77b4;stroke-width:0.24;" x="92.690717" xlink:href="#m444a26ea64" y="86.932144"/>
     <use style="fill:#1f77b4;stroke:#1f77b4;stroke-width:0.24;" x="160.800546" xlink:href="#m444a26ea64" y="63.438772"/>
     <use style="fill:#1f77b4;stroke:#1f77b4;stroke-width:0.24;" x="213.915441" xlink:href="#m444a26ea64" y="45.483959"/>
     <use style="fill:#1f77b4;stroke:#1f77b4;stroke-width:0.24;" x="225.20838" xlink:href="#m444a26ea64" y="42.136236"/>
     <use style="fill:#1f77b4;stroke:#1f77b4;stroke-width:0.24;" x="188.97558" xlink:href="#m444a26ea64" y="55.086456"/>
     <use style="fill:#1f77b4;stroke:#1f77b4;stroke-width:0.24;" x="123.517331" xlink:href="#m444a26ea64" y="77.793783"/>
     <use style="fill:#1f77b4;stroke:#1f77b4;stroke-width:0.24;" x="61.894978" xlink:href="#m444a26ea64" y="98.789307"/>
     <use style="fill:#1f77b4;stroke:#1f77b4;stroke-width:0.24;" x="35.232448" xlink:href="#m444a26ea64" y="107.468708"/>
     <use style="fill:#1f77b4;stroke:#1f77b4;stroke-width:0.24;" x="56.996325" xlink:href="#m444a26ea64" y="99.448235"/>
     <use style="fill:#1f77b4;stroke:#1f77b4;stroke-width:0.24;" x="116.194213" xlink:href="#m444a26ea64" y="78.778831"/>
     <use style="fill:#1f77b4;stroke:#1f77b4;stroke-width:0.24;" x="182.926723" xlink:href="#m444a26ea64" y="55.900101"/>
     <use style="fill:#1f77b4;stroke:#1f77b4;stroke-width:0.24;" x="223.488912" xlink:href="#m444a26ea64" y="42.367525"/>
     <use style="fill:#1f77b4;stroke:#1f77b4;stroke-width:0.24;" x="217.393823" xlink:href="#m444a26ea64" y="45.016074"/>
     <use style="fill:#1f77b4;stroke:#1f77b4;stroke-width:0.24;" x="167.719933" xlink:href="#m444a26ea64" y="62.508031"/>
     <use style="fill:#1f77b4;stroke:#1f77b4;stroke-width:0.24;" x="99.556297" xlink:href="#m444a26ea64" y="86.00864"/>
     <use style="fill:#1f77b4;stroke:#1f77b4;stroke-width:0.24;" x="47.330683" xlink:href="#m444a26ea64" y="103.648326"/>
     <use style="fill:#1f77b4;stroke:#1f77b4;stroke-width:0.24;" x="37.420956" xlink:href="#m444a26ea64" y="106.517718"/>
     <use style="fill:#1f77b4;stroke:#1f77b4;stroke-width:0.24;" x="74.832276" xlink:href="#m444a26ea64" y="93.167558"/>
     <use style="fill:#1f77b4;stroke:#1f77b4;stroke-width:0.24;" x="140.669109" xlink:href="#m444a26ea64" y="70.340682"/>
     <use style="fill:#1f77b4;stroke:#1f77b4;stroke-width:0.24;" x="201.678898" xlink:href="#m444a26ea64" y="49.56638"/>
     <use style="fill:#1f77b4;stroke:#1f77b4;stroke-width:0.24;" x="227.047108" xlink:href="#m444a26ea64" y="41.337239"/>
     <use style="fill:#1f77b4;stroke:#1f77b4;stroke-width:0.24;" x="203.960881" xlink:href="#m444a26ea64" y="49.809594"/>
     <use style="fill:#1f77b4;stroke:#1f77b4;stroke-width:0.24;" x="144.080502" xlink:href="#m444a26ea64" y="70.704269"/>
     <use style="fill:#1f77b4;stroke:#1f77b4;stroke-width:0.24;" x="77.650068" xlink:href="#m444a26ea64" y="93.467879"/>
     <use style="fill:#1f77b4;stroke:#1f77b4;stroke-width:0.24;" x="38.221951" xlink:href="#m444a26ea64" y="106.603088"/>
     <use style="fill:#1f77b4;stroke:#1f77b4;stroke-width:0.24;" x="45.710317" xlink:href="#m444a26ea64" y="103.475626"/>
     <use style="fill:#1f77b4;stroke:#1f77b4;stroke-width:0.24;" x="96.332978" xlink:href="#m444a26ea64" y="85.665098"/>
     <use style="fill:#1f77b4;stroke:#1f77b4;stroke-width:0.24;" x="164.521679" xlink:href="#m444a26ea64" y="62.16716"/>
     <use style="fill:#1f77b4;stroke:#1f77b4;stroke-width:0.24;" x="215.835993" xlink:href="#m444a26ea64" y="44.85004"/>
     <use style="fill:#1f77b4;stroke:#1f77b4;stroke-width:0.24;" x="224.358328" xlink:href="#m444a26ea64" y="42.460188"/>
     <use style="fill:#1f77b4;stroke:#1f77b4;stroke-width:0.24;" x="185.784264" xlink:href="#m444a26ea64" y="56.204659"/>
     <use style="fill:#1f77b4;stroke:#1f77b4;stroke-width:0.24;" x="119.596606" xlink:href="#m444a26ea64" y="79.14146"/>
     <use style="fill:#1f77b4;stroke:#1f77b4;stroke-width:0.24;" x="59.225105" xlink:href="#m444a26ea64" y="99.68578"/>
     <use style="fill:#1f77b4;stroke:#1f77b4;stroke-width:0.24;" x="35.161914" xlink:href="#m444a26ea64" y="107.461191"/>
     <use style="fill:#1f77b4;stroke:#1f77b4;stroke-width:0.24;" x="59.560755" xlink:href="#m444a26ea64" y="98.540525"/>
     <use style="fill:#1f77b4;stroke:#1f77b4;stroke-width:0.24;" x="120.098377" xlink:href="#m444a26ea64" y="77.42939"/>
     <use style="fill:#1f77b4;stroke:#1f77b4;stroke-width:0.24;" x="186.198724" xlink:href="#m444a26ea64" y="54.790498"/>
     <use style="fill:#1f77b4;stroke:#1f77b4;stroke-width:0.24;" x="224.476144" xlink:href="#m444a26ea64" y="42.058194"/>
     <use style="fill:#1f77b4;stroke:#1f77b4;stroke-width:0.24;" x="215.597659" xlink:href="#m444a26ea64" y="45.66325"/>
     <use style="fill:#1f77b4;stroke:#1f77b4;stroke-width:0.24;" x="164.047572" xlink:href="#m444a26ea64" y="63.784841"/>
     <use style="fill:#1f77b4;stroke:#1f77b4;stroke-width:0.24;" x="95.862557" xlink:href="#m444a26ea64" y="87.2702"/>
     <use style="fill:#1f77b4;stroke:#1f77b4;stroke-width:0.24;" x="45.481181" xlink:href="#m444a26ea64" y="104.257452"/>
     <use style="fill:#1f77b4;stroke:#1f77b4;stroke-width:0.24;" x="35.186388" xlink:href="#m444a26ea64" y="107.47242"/>
     <use style="fill:#1f77b4;stroke:#1f77b4;stroke-width:0.24;" x="35.161604" xlink:href="#m444a26ea64" y="107.462797"/>
     <use style="fill:#1f77b4;stroke:#1f77b4;stroke-width:0.24;" x="37.800466" xlink:href="#m444a26ea64" y="106.373647"/>
     <use style="fill:#1f77b4;stroke:#1f77b4;stroke-width:0.24;" x="38.34983" xlink:href="#m444a26ea64" y="106.166756"/>
     <use style="fill:#1f77b4;stroke:#1f77b4;stroke-width:0.24;" x="41.053388" xlink:href="#m444a26ea64" y="105.166007"/>
     <use style="fill:#1f77b4;stroke:#1f77b4;stroke-width:0.24;" x="48.802667" xlink:href="#m444a26ea64" y="102.365173"/>
     <use style="fill:#1f77b4;stroke:#1f77b4;stroke-width:0.24;" x="49.980913" xlink:href="#m444a26ea64" y="101.94375"/>
     <use style="fill:#1f77b4;stroke:#1f77b4;stroke-width:0.24;" x="89.800857" xlink:href="#m444a26ea64" y="87.938479"/>
     <use style="fill:#1f77b4;stroke:#1f77b4;stroke-width:0.24;" x="157.763436" xlink:href="#m444a26ea64" y="64.477644"/>
     <use style="fill:#1f77b4;stroke:#1f77b4;stroke-width:0.24;" x="212.265048" xlink:href="#m444a26ea64" y="46.030658"/>
     <use style="fill:#1f77b4;stroke:#1f77b4;stroke-width:0.24;" x="227.035519" xlink:href="#m444a26ea64" y="41.336733"/>
     <use style="fill:#1f77b4;stroke:#1f77b4;stroke-width:0.24;" x="227.062478" xlink:href="#m444a26ea64" y="41.345606"/>
     <use style="fill:#1f77b4;stroke:#1f77b4;stroke-width:0.24;" x="224.941166" xlink:href="#m444a26ea64" y="42.238745"/>
     <use style="fill:#1f77b4;stroke:#1f77b4;stroke-width:0.24;" x="187.916877" xlink:href="#m444a26ea64" y="55.457594"/>
     <use style="fill:#1f77b4;stroke:#1f77b4;stroke-width:0.24;" x="122.201864" xlink:href="#m444a26ea64" y="78.246097"/>
     <use style="fill:#1f77b4;stroke:#1f77b4;stroke-width:0.24;" x="60.987156" xlink:href="#m444a26ea64" y="99.094345"/>
     <use style="fill:#1f77b4;stroke:#1f77b4;stroke-width:0.24;" x="35.19079" xlink:href="#m444a26ea64" y="107.472402"/>
     <use style="fill:#1f77b4;stroke:#1f77b4;stroke-width:0.24;" x="57.841871" xlink:href="#m444a26ea64" y="99.14872"/>
     <use style="fill:#1f77b4;stroke:#1f77b4;stroke-width:0.24;" x="117.499899" xlink:href="#m444a26ea64" y="78.327385"/>
     <use style="fill:#1f77b4;stroke:#1f77b4;stroke-width:0.24;" x="184.033079" xlink:href="#m444a26ea64" y="55.524737"/>
     <use style="fill:#1f77b4;stroke:#1f77b4;stroke-width:0.24;" x="223.837145" xlink:href="#m444a26ea64" y="42.257832"/>
     <use style="fill:#1f77b4;stroke:#1f77b4;stroke-width:0.24;" x="216.808049" xlink:href="#m444a26ea64" y="45.227454"/>
     <use style="fill:#1f77b4;stroke:#1f77b4;stroke-width:0.24;" x="166.496012" xlink:href="#m444a26ea64" y="62.933721"/>
     <use style="fill:#1f77b4;stroke:#1f77b4;stroke-width:0.24;" x="98.312402" xlink:href="#m444a26ea64" y="86.433636"/>
     <use style="fill:#1f77b4;stroke:#1f77b4;stroke-width:0.24;" x="46.695073" xlink:href="#m444a26ea64" y="103.857971"/>
     <use style="fill:#1f77b4;stroke:#1f77b4;stroke-width:0.24;" x="37.714664" xlink:href="#m444a26ea64" y="106.406127"/>
     <use style="fill:#1f77b4;stroke:#1f77b4;stroke-width:0.24;" x="75.906956" xlink:href="#m444a26ea64" y="92.791092"/>
     <use style="fill:#1f77b4;stroke:#1f77b4;stroke-width:0.24;" x="141.981967" xlink:href="#m444a26ea64" y="69.889485"/>
     <use style="fill:#1f77b4;stroke:#1f77b4;stroke-width:0.24;" x="202.566843" xlink:href="#m444a26ea64" y="49.26834"/>
     <use style="fill:#1f77b4;stroke:#1f77b4;stroke-width:0.24;" x="227.061659" xlink:href="#m444a26ea64" y="41.342889"/>
     <use style="fill:#1f77b4;stroke:#1f77b4;stroke-width:0.24;" x="203.094691" xlink:href="#m444a26ea64" y="50.11608"/>
     <use style="fill:#1f77b4;stroke:#1f77b4;stroke-width:0.24;" x="142.77106" xlink:href="#m444a26ea64" y="71.156793"/>
     <use style="fill:#1f77b4;stroke:#1f77b4;stroke-width:0.24;" x="76.558742" xlink:href="#m444a26ea64" y="93.837882"/>
     <use style="fill:#1f77b4;stroke:#1f77b4;stroke-width:0.24;" x="37.899943" xlink:href="#m444a26ea64" y="106.703691"/>
     <use style="fill:#1f77b4;stroke:#1f77b4;stroke-width:0.24;" x="46.320265" xlink:href="#m444a26ea64" y="103.256017"/>
     <use style="fill:#1f77b4;stroke:#1f77b4;stroke-width:0.24;" x="97.566812" xlink:href="#m444a26ea64" y="85.236196"/>
     <use style="fill:#1f77b4;stroke:#1f77b4;stroke-width:0.24;" x="165.75622" xlink:href="#m444a26ea64" y="61.745593"/>
     <use style="fill:#1f77b4;stroke:#1f77b4;stroke-width:0.24;" x="216.447705" xlink:href="#m444a26ea64" y="44.648731"/>
     <use style="fill:#1f77b4;stroke:#1f77b4;stroke-width:0.24;" x="224.038251" xlink:href="#m444a26ea64" y="42.580813"/>
     <use style="fill:#1f77b4;stroke:#1f77b4;stroke-width:0.24;" x="184.69406" xlink:href="#m444a26ea64" y="56.586293"/>
     <use style="fill:#1f77b4;stroke:#1f77b4;stroke-width:0.24;" x="118.286911" xlink:href="#m444a26ea64" y="79.591349"/>
     <use style="fill:#1f77b4;stroke:#1f77b4;stroke-width:0.24;" x="58.357413" xlink:href="#m444a26ea64" y="99.976696"/>
     <use style="fill:#1f77b4;stroke:#1f77b4;stroke-width:0.24;" x="35.174475" xlink:href="#m444a26ea64" y="107.446199"/>
     <use style="fill:#1f77b4;stroke:#1f77b4;stroke-width:0.24;" x="60.447225" xlink:href="#m444a26ea64" y="98.227197"/>
     <use style="fill:#1f77b4;stroke:#1f77b4;stroke-width:0.24;" x="121.411022" xlink:href="#m444a26ea64" y="76.97598"/>
     <use style="fill:#1f77b4;stroke:#1f77b4;stroke-width:0.24;" x="187.274559" xlink:href="#m444a26ea64" y="54.426012"/>
     <use style="fill:#1f77b4;stroke:#1f77b4;stroke-width:0.24;" x="215.307329" xlink:href="#m444a26ea64" y="45.024265"/>
     <use style="fill:#1f77b4;stroke:#1f77b4;stroke-width:0.24;" x="216.36265" xlink:href="#m444a26ea64" y="44.676703"/>
     <use style="fill:#1f77b4;stroke:#1f77b4;stroke-width:0.24;" x="225.645467" xlink:href="#m444a26ea64" y="41.70134"/>
     <use style="fill:#1f77b4;stroke:#1f77b4;stroke-width:0.24;" x="212.686199" xlink:href="#m444a26ea64" y="46.70704"/>
     <use style="fill:#1f77b4;stroke:#1f77b4;stroke-width:0.24;" x="158.525836" xlink:href="#m444a26ea64" y="65.702082"/>
     <use style="fill:#1f77b4;stroke:#1f77b4;stroke-width:0.24;" x="90.519437" xlink:href="#m444a26ea64" y="89.092542"/>
     <use style="fill:#1f77b4;stroke:#1f77b4;stroke-width:0.24;" x="44.893623" xlink:href="#m444a26ea64" y="104.450339"/>
     <use style="fill:#1f77b4;stroke:#1f77b4;stroke-width:0.24;" x="43.930545" xlink:href="#m444a26ea64" y="104.765745"/>
     <use style="fill:#1f77b4;stroke:#1f77b4;stroke-width:0.24;" x="41.330622" xlink:href="#m444a26ea64" y="105.611254"/>
     <use style="fill:#1f77b4;stroke:#1f77b4;stroke-width:0.24;" x="41.517455" xlink:href="#m444a26ea64" y="104.996134"/>
     <use style="fill:#1f77b4;stroke:#1f77b4;stroke-width:0.24;" x="86.956293" xlink:href="#m444a26ea64" y="88.929976"/>
     <use style="fill:#1f77b4;stroke:#1f77b4;stroke-width:0.24;" x="154.697103" xlink:href="#m444a26ea64" y="65.527399"/>
     <use style="fill:#1f77b4;stroke:#1f77b4;stroke-width:0.24;" x="210.525677" xlink:href="#m444a26ea64" y="46.608467"/>
     <use style="fill:#1f77b4;stroke:#1f77b4;stroke-width:0.24;" x="226.244381" xlink:href="#m444a26ea64" y="41.728665"/>
     <use style="fill:#1f77b4;stroke:#1f77b4;stroke-width:0.24;" x="193.914087" xlink:href="#m444a26ea64" y="53.352659"/>
     <use style="fill:#1f77b4;stroke:#1f77b4;stroke-width:0.24;" x="129.864027" xlink:href="#m444a26ea64" y="75.609458"/>
     <use style="fill:#1f77b4;stroke:#1f77b4;stroke-width:0.24;" x="66.444303" xlink:href="#m444a26ea64" y="97.257703"/>
     <use style="fill:#1f77b4;stroke:#1f77b4;stroke-width:0.24;" x="35.686651" xlink:href="#m444a26ea64" y="107.3634"/>
     <use style="fill:#1f77b4;stroke:#1f77b4;stroke-width:0.24;" x="53.125999" xlink:href="#m444a26ea64" y="100.822412"/>
     <use style="fill:#1f77b4;stroke:#1f77b4;stroke-width:0.24;" x="109.954164" xlink:href="#m444a26ea64" y="80.93843"/>
     <use style="fill:#1f77b4;stroke:#1f77b4;stroke-width:0.24;" x="177.468645" xlink:href="#m444a26ea64" y="57.754361"/>
     <use style="fill:#1f77b4;stroke:#1f77b4;stroke-width:0.24;" x="221.569547" xlink:href="#m444a26ea64" y="42.979907"/>
     <use style="fill:#1f77b4;stroke:#1f77b4;stroke-width:0.24;" x="219.982593" xlink:href="#m444a26ea64" y="44.077278"/>
     <use style="fill:#1f77b4;stroke:#1f77b4;stroke-width:0.24;" x="173.509315" xlink:href="#m444a26ea64" y="60.492219"/>
     <use style="fill:#1f77b4;stroke:#1f77b4;stroke-width:0.24;" x="105.622218" xlink:href="#m444a26ea64" y="83.933951"/>
     <use style="fill:#1f77b4;stroke:#1f77b4;stroke-width:0.24;" x="50.609395" xlink:href="#m444a26ea64" y="102.562632"/>
     <use style="fill:#1f77b4;stroke:#1f77b4;stroke-width:0.24;" x="36.256464" xlink:href="#m444a26ea64" y="106.969377"/>
     <use style="fill:#1f77b4;stroke:#1f77b4;stroke-width:0.24;" x="69.812735" xlink:href="#m444a26ea64" y="94.928449"/>
    </g>
   </g>
   <g id="matplotlib.axis_1">
    <g id="xtick_1">
     <g id="line2d_1">
      <defs>
       <path d="M 0 0 
L 0 3.5 
" id="meb0eb4bd3d" style="stroke:#000000;stroke-width:0.8;"/>
      </defs>
      <g>
       <use style="stroke:#000000;stroke-width:0.8;" x="35.161604" xlink:href="#meb0eb4bd3d" y="111.448341"/>
      </g>
     </g>
     <g id="text_1">
      <text style="font-family:DejaVu Serif;font-size:8px;font-style:normal;font-weight:normal;text-anchor:middle;" transform="rotate(-0, 35.161604, 126.083143)" x="35.161604" y="126.083143">-1.0</text>
     </g>
    </g>
    <g id="xtick_2">
     <g id="line2d_2">
      <g>
       <use style="stroke:#000000;stroke-width:0.8;" x="83.136823" xlink:href="#meb0eb4bd3d" y="111.448341"/>
      </g>
     </g>
     <g id="text_2">
      <!-- -0.5 -->
      <defs>
       <path d="M 25.5 19.59375 
L 25.5 24 
L 0.40625 24 
L 0.40625 19.59375 
z
" id="CMR17-45"/>
       <path d="M 42 31.84375 
C 42 37.96875 41.90625 48.421875 37.703125 56.453125 
C 34 63.484375 28.09375 66 22.90625 66 
C 18.09375 66 12 63.78125 8.203125 56.5625 
C 4.203125 49.015625 3.796875 39.671875 3.796875 31.84375 
C 3.796875 26.109375 3.90625 17.375 7 9.734375 
C 11.296875 -0.609375 19 -2 22.90625 -2 
C 27.5 -2 34.5 -0.109375 38.59375 9.4375 
C 41.59375 16.375 42 24.5 42 31.84375 
z
M 22.90625 -0.40625 
C 16.5 -0.40625 12.703125 5.125 11.296875 12.75 
C 10.203125 18.6875 10.203125 27.328125 10.203125 32.953125 
C 10.203125 40.6875 10.203125 47.109375 11.5 53.234375 
C 13.40625 61.78125 19 64.390625 22.90625 64.390625 
C 27 64.390625 32.296875 61.671875 34.203125 53.4375 
C 35.5 47.71875 35.59375 40.984375 35.59375 32.953125 
C 35.59375 26.421875 35.59375 18.375 34.40625 12.453125 
C 32.296875 1.5 26.40625 -0.40625 22.90625 -0.40625 
z
" id="CMR17-48"/>
       <path d="M 16.59375 4.09375 
C 16.59375 6.59375 14.59375 8.1875 12.5 8.1875 
C 10.5 8.1875 8.40625 6.59375 8.40625 4.09375 
C 8.40625 1.59375 10.40625 0 12.5 0 
C 14.5 0 16.59375 1.59375 16.59375 4.09375 
z
" id="CMR17-46"/>
       <path d="M 11.40625 58.59375 
C 12.40625 58.1875 16.5 56.890625 20.703125 56.890625 
C 30 56.890625 35.09375 61.890625 38 64.6875 
C 38 65.484375 38 66 37.40625 66 
C 37.296875 66 37.09375 66 36.296875 65.59375 
C 32.796875 64.09375 28.703125 63 23.703125 63 
C 20.703125 63 16.203125 63.359375 11.296875 65.484375 
C 10.203125 66 10 66 9.90625 66 
C 9.40625 66 9.296875 65.890625 9.296875 63.90625 
L 9.296875 34.859375 
C 9.296875 33.015625 9.296875 32.5 10.296875 32.5 
C 10.796875 32.5 11 32.703125 11.5 33.421875 
C 14.703125 38.046875 19.09375 40 24.09375 40 
C 27.59375 40 35.09375 37.734375 35.09375 20.203125 
C 35.09375 16.984375 35.09375 11.1875 32.09375 6.59375 
C 29.59375 2.484375 25.703125 0.390625 21.40625 0.390625 
C 14.796875 0.390625 8.09375 4.984375 6.296875 12.6875 
C 6.703125 12.59375 7.5 12.390625 7.90625 12.390625 
C 9.203125 12.390625 11.703125 13.09375 11.703125 16.1875 
C 11.703125 18.890625 9.796875 20 7.90625 20 
C 5.59375 20 4.09375 18.59375 4.09375 15.796875 
C 4.09375 7.09375 11 -2 21.59375 -2 
C 31.90625 -2 41.703125 6.890625 41.703125 19.796875 
C 41.703125 32.09375 33.90625 41.59375 24.203125 41.59375 
C 19.09375 41.59375 14.796875 39.6875 11.40625 36 
z
" id="CMR17-53"/>
      </defs>
      <g transform="translate(76.315084 126.083143)scale(0.08 -0.08)">
       <use transform="scale(0.996264)" xlink:href="#CMR17-45"/>
       <use transform="translate(30.075966 0)scale(0.996264)" xlink:href="#CMR17-48"/>
       <use transform="translate(75.766443 0)scale(0.996264)" xlink:href="#CMR17-46"/>
       <use transform="translate(100.637502 0)scale(0.996264)" xlink:href="#CMR17-53"/>
      </g>
     </g>
    </g>
    <g id="xtick_3">
     <g id="line2d_3">
      <g>
       <use style="stroke:#000000;stroke-width:0.8;" x="131.112041" xlink:href="#meb0eb4bd3d" y="111.448341"/>
      </g>
     </g>
     <g id="text_3">
      <!-- 0.0 -->
      <g transform="translate(125.701697 126.083143)scale(0.08 -0.08)">
       <use transform="scale(0.996264)" xlink:href="#CMR17-48"/>
       <use transform="translate(45.690477 0)scale(0.996264)" xlink:href="#CMR17-46"/>
       <use transform="translate(70.561536 0)scale(0.996264)" xlink:href="#CMR17-48"/>
      </g>
     </g>
    </g>
    <g id="xtick_4">
     <g id="line2d_4">
      <g>
       <use style="stroke:#000000;stroke-width:0.8;" x="179.08726" xlink:href="#meb0eb4bd3d" y="111.448341"/>
      </g>
     </g>
     <g id="text_4">
      <!-- 0.5 -->
      <g transform="translate(173.676915 126.083143)scale(0.08 -0.08)">
       <use transform="scale(0.996264)" xlink:href="#CMR17-48"/>
       <use transform="translate(45.690477 0)scale(0.996264)" xlink:href="#CMR17-46"/>
       <use transform="translate(70.561536 0)scale(0.996264)" xlink:href="#CMR17-53"/>
      </g>
     </g>
    </g>
    <g id="xtick_5">
     <g id="line2d_5">
      <g>
       <use style="stroke:#000000;stroke-width:0.8;" x="227.062478" xlink:href="#meb0eb4bd3d" y="111.448341"/>
      </g>
     </g>
     <g id="text_5">
      <!-- 1.0 -->
      <defs>
       <path d="M 26.59375 63.796875 
C 26.59375 65.890625 26.5 66 25.09375 66 
C 21.203125 61.359375 15.296875 59.890625 9.703125 59.6875 
C 9.40625 59.6875 8.90625 59.6875 8.796875 59.5 
C 8.703125 59.296875 8.703125 59.09375 8.703125 57 
C 11.796875 57 17 57.59375 21 59.984375 
L 21 7.296875 
C 21 3.796875 20.796875 2.59375 12.203125 2.59375 
L 9.203125 2.59375 
L 9.203125 0 
C 14 0.09375 19 0.1875 23.796875 0.1875 
C 28.59375 0.1875 33.59375 0.09375 38.40625 0 
L 38.40625 2.59375 
L 35.40625 2.59375 
C 26.796875 2.59375 26.59375 3.6875 26.59375 7.296875 
z
" id="CMR17-49"/>
      </defs>
      <g transform="translate(221.652133 126.083143)scale(0.08 -0.08)">
       <use transform="scale(0.996264)" xlink:href="#CMR17-49"/>
       <use transform="translate(45.690477 0)scale(0.996264)" xlink:href="#CMR17-46"/>
       <use transform="translate(70.561536 0)scale(0.996264)" xlink:href="#CMR17-48"/>
      </g>
     </g>
    </g>
    <g id="text_6">
     <text style="font-family:DejaVu Serif;font-size:8.8px;font-style:normal;font-weight:normal;text-anchor:middle;" transform="rotate(-0, 131.112041, 138.208222)" x="131.112041" y="138.208222">Input x[0]</text>
    </g>
   </g>
   <g id="matplotlib.axis_2">
    <g id="ytick_1">
     <g id="line2d_6">
      <defs>
       <path d="M 0 0 
L -3.5 0 
" id="m3a2338f56f" style="stroke:#000000;stroke-width:0.8;"/>
      </defs>
      <g>
       <use style="stroke:#000000;stroke-width:0.8;" x="30.364083" xlink:href="#m3a2338f56f" y="107.47242"/>
      </g>
     </g>
     <g id="text_7">
      <text style="font-family:DejaVu Serif;font-size:8px;font-style:normal;font-weight:normal;text-anchor:end;" transform="rotate(-0, 21.264083, 110.23982)" x="21.264083" y="110.23982">-1</text>
     </g>
    </g>
    <g id="ytick_2">
     <g id="line2d_7">
      <g>
       <use style="stroke:#000000;stroke-width:0.8;" x="30.364083" xlink:href="#m3a2338f56f" y="74.404576"/>
      </g>
     </g>
     <g id="text_8">
      <!-- 0 -->
      <g transform="translate(17.0299 77.171977)scale(0.08 -0.08)">
       <use transform="scale(0.996264)" xlink:href="#CMR17-48"/>
      </g>
     </g>
    </g>
    <g id="ytick_3">
     <g id="line2d_8">
      <g>
       <use style="stroke:#000000;stroke-width:0.8;" x="30.364083" xlink:href="#m3a2338f56f" y="41.336733"/>
      </g>
     </g>
     <g id="text_9">
      <!-- 1 -->
      <g transform="translate(17.0299 44.104134)scale(0.08 -0.08)">
       <use transform="scale(0.996264)" xlink:href="#CMR17-49"/>
      </g>
     </g>
    </g>
    <g id="text_10">
     <text style="font-family:DejaVu Serif;font-size:8.8px;font-style:normal;font-weight:normal;text-anchor:middle;" transform="rotate(-90, 8.015333, 74.404576)" x="8.015333" y="74.404576">Input x[-1]</text>
    </g>
   </g>
   <g id="patch_3">
    <path d="M 30.364083 111.448341 
L 30.364083 37.360811 
" style="fill:none;stroke:#000000;stroke-linecap:square;stroke-linejoin:miter;stroke-width:0.8;"/>
   </g>
   <g id="patch_4">
    <path d="M 231.86 111.448341 
L 231.86 37.360811 
" style="fill:none;stroke:#000000;stroke-linecap:square;stroke-linejoin:miter;stroke-width:0.8;"/>
   </g>
   <g id="patch_5">
    <path d="M 30.364083 111.448341 
L 231.86 111.448341 
" style="fill:none;stroke:#000000;stroke-linecap:square;stroke-linejoin:miter;stroke-width:0.8;"/>
   </g>
   <g id="patch_6">
    <path d="M 30.364083 37.360811 
L 231.86 37.360811 
" style="fill:none;stroke:#000000;stroke-linecap:square;stroke-linejoin:miter;stroke-width:0.8;"/>
   </g>
   <g id="text_11">
    <text style="font-family:DejaVu Serif;font-size:9.6px;font-style:normal;font-weight:normal;text-anchor:middle;" transform="rotate(-0, 131.112041, 31.360811)" x="131.112041" y="31.360811">Sinusoid</text>
   </g>
  </g>
  <g id="axes_2">
   <g id="patch_7">
    <path d="M 271.964083 111.448341 
L 473.46 111.448341 
L 473.46 37.360811 
L 271.964083 37.360811 
z
" style="fill:#ffffff;"/>
   </g>
   <g id="PathCollection_2">
    <g clip-path="url(#p9877628ac1)">
     <use style="fill:#1f77b4;stroke:#1f77b4;stroke-width:0.24;" x="372.712041" xlink:href="#m444a26ea64" y="78.945322"/>
     <use style="fill:#1f77b4;stroke:#1f77b4;stroke-width:0.24;" x="367.559197" xlink:href="#m444a26ea64" y="86.407556"/>
     <use style="fill:#1f77b4;stroke:#1f77b4;stroke-width:0.24;" x="322.485618" xlink:href="#m444a26ea64" y="57.175322"/>
     <use style="fill:#1f77b4;stroke:#1f77b4;stroke-width:0.24;" x="389.704105" xlink:href="#m444a26ea64" y="70.486379"/>
     <use style="fill:#1f77b4;stroke:#1f77b4;stroke-width:0.24;" x="327.984379" xlink:href="#m444a26ea64" y="56.451991"/>
     <use style="fill:#1f77b4;stroke:#1f77b4;stroke-width:0.24;" x="391.093063" xlink:href="#m444a26ea64" y="83.917719"/>
     <use style="fill:#1f77b4;stroke:#1f77b4;stroke-width:0.24;" x="372.344382" xlink:href="#m444a26ea64" y="75.467279"/>
     <use style="fill:#1f77b4;stroke:#1f77b4;stroke-width:0.24;" x="390.860464" xlink:href="#m444a26ea64" y="85.658309"/>
     <use style="fill:#1f77b4;stroke:#1f77b4;stroke-width:0.24;" x="362.613751" xlink:href="#m444a26ea64" y="64.104493"/>
     <use style="fill:#1f77b4;stroke:#1f77b4;stroke-width:0.24;" x="381.69376" xlink:href="#m444a26ea64" y="87.60643"/>
     <use style="fill:#1f77b4;stroke:#1f77b4;stroke-width:0.24;" x="375.033741" xlink:href="#m444a26ea64" y="79.026799"/>
     <use style="fill:#1f77b4;stroke:#1f77b4;stroke-width:0.24;" x="388.923047" xlink:href="#m444a26ea64" y="72.286217"/>
     <use style="fill:#1f77b4;stroke:#1f77b4;stroke-width:0.24;" x="349.468311" xlink:href="#m444a26ea64" y="69.834843"/>
     <use style="fill:#1f77b4;stroke:#1f77b4;stroke-width:0.24;" x="346.674063" xlink:href="#m444a26ea64" y="64.925206"/>
     <use style="fill:#1f77b4;stroke:#1f77b4;stroke-width:0.24;" x="373.337861" xlink:href="#m444a26ea64" y="62.880572"/>
     <use style="fill:#1f77b4;stroke:#1f77b4;stroke-width:0.24;" x="362.567242" xlink:href="#m444a26ea64" y="75.769017"/>
     <use style="fill:#1f77b4;stroke:#1f77b4;stroke-width:0.24;" x="330.635499" xlink:href="#m444a26ea64" y="73.985118"/>
     <use style="fill:#1f77b4;stroke:#1f77b4;stroke-width:0.24;" x="347.188043" xlink:href="#m444a26ea64" y="72.668331"/>
     <use style="fill:#1f77b4;stroke:#1f77b4;stroke-width:0.24;" x="374.401142" xlink:href="#m444a26ea64" y="73.832252"/>
     <use style="fill:#1f77b4;stroke:#1f77b4;stroke-width:0.24;" x="367.930388" xlink:href="#m444a26ea64" y="90.270199"/>
     <use style="fill:#1f77b4;stroke:#1f77b4;stroke-width:0.24;" x="383.942749" xlink:href="#m444a26ea64" y="75.921954"/>
     <use style="fill:#1f77b4;stroke:#1f77b4;stroke-width:0.24;" x="377.403855" xlink:href="#m444a26ea64" y="74.612675"/>
     <use style="fill:#1f77b4;stroke:#1f77b4;stroke-width:0.24;" x="359.931493" xlink:href="#m444a26ea64" y="67.04091"/>
     <use style="fill:#1f77b4;stroke:#1f77b4;stroke-width:0.24;" x="365.097282" xlink:href="#m444a26ea64" y="87.099493"/>
     <use style="fill:#1f77b4;stroke:#1f77b4;stroke-width:0.24;" x="348.921329" xlink:href="#m444a26ea64" y="77.14284"/>
     <use style="fill:#1f77b4;stroke:#1f77b4;stroke-width:0.24;" x="345.117434" xlink:href="#m444a26ea64" y="84.511831"/>
     <use style="fill:#1f77b4;stroke:#1f77b4;stroke-width:0.24;" x="378.864052" xlink:href="#m444a26ea64" y="64.916861"/>
     <use style="fill:#1f77b4;stroke:#1f77b4;stroke-width:0.24;" x="409.209945" xlink:href="#m444a26ea64" y="66.663048"/>
     <use style="fill:#1f77b4;stroke:#1f77b4;stroke-width:0.24;" x="369.003345" xlink:href="#m444a26ea64" y="72.946716"/>
     <use style="fill:#1f77b4;stroke:#1f77b4;stroke-width:0.24;" x="369.540497" xlink:href="#m444a26ea64" y="71.982454"/>
     <use style="fill:#1f77b4;stroke:#1f77b4;stroke-width:0.24;" x="407.425498" xlink:href="#m444a26ea64" y="90.4558"/>
     <use style="fill:#1f77b4;stroke:#1f77b4;stroke-width:0.24;" x="358.912856" xlink:href="#m444a26ea64" y="79.516697"/>
     <use style="fill:#1f77b4;stroke:#1f77b4;stroke-width:0.24;" x="423.244547" xlink:href="#m444a26ea64" y="69.972786"/>
     <use style="fill:#1f77b4;stroke:#1f77b4;stroke-width:0.24;" x="386.590539" xlink:href="#m444a26ea64" y="75.667051"/>
     <use style="fill:#1f77b4;stroke:#1f77b4;stroke-width:0.24;" x="343.900464" xlink:href="#m444a26ea64" y="76.116702"/>
     <use style="fill:#1f77b4;stroke:#1f77b4;stroke-width:0.24;" x="343.715355" xlink:href="#m444a26ea64" y="78.623249"/>
     <use style="fill:#1f77b4;stroke:#1f77b4;stroke-width:0.24;" x="362.555827" xlink:href="#m444a26ea64" y="70.735735"/>
     <use style="fill:#1f77b4;stroke:#1f77b4;stroke-width:0.24;" x="398.691666" xlink:href="#m444a26ea64" y="102.874633"/>
     <use style="fill:#1f77b4;stroke:#1f77b4;stroke-width:0.24;" x="415.18722" xlink:href="#m444a26ea64" y="67.36618"/>
     <use style="fill:#1f77b4;stroke:#1f77b4;stroke-width:0.24;" x="432.512385" xlink:href="#m444a26ea64" y="74.169234"/>
     <use style="fill:#1f77b4;stroke:#1f77b4;stroke-width:0.24;" x="401.564779" xlink:href="#m444a26ea64" y="55.205914"/>
     <use style="fill:#1f77b4;stroke:#1f77b4;stroke-width:0.24;" x="378.967398" xlink:href="#m444a26ea64" y="75.922898"/>
     <use style="fill:#1f77b4;stroke:#1f77b4;stroke-width:0.24;" x="386.180674" xlink:href="#m444a26ea64" y="87.453345"/>
     <use style="fill:#1f77b4;stroke:#1f77b4;stroke-width:0.24;" x="386.459769" xlink:href="#m444a26ea64" y="76.620593"/>
     <use style="fill:#1f77b4;stroke:#1f77b4;stroke-width:0.24;" x="357.924296" xlink:href="#m444a26ea64" y="81.98121"/>
     <use style="fill:#1f77b4;stroke:#1f77b4;stroke-width:0.24;" x="375.704378" xlink:href="#m444a26ea64" y="68.884398"/>
     <use style="fill:#1f77b4;stroke:#1f77b4;stroke-width:0.24;" x="378.683071" xlink:href="#m444a26ea64" y="77.581007"/>
     <use style="fill:#1f77b4;stroke:#1f77b4;stroke-width:0.24;" x="353.27073" xlink:href="#m444a26ea64" y="66.271228"/>
     <use style="fill:#1f77b4;stroke:#1f77b4;stroke-width:0.24;" x="422.186507" xlink:href="#m444a26ea64" y="59.296546"/>
     <use style="fill:#1f77b4;stroke:#1f77b4;stroke-width:0.24;" x="384.258744" xlink:href="#m444a26ea64" y="71.46508"/>
     <use style="fill:#1f77b4;stroke:#1f77b4;stroke-width:0.24;" x="357.186446" xlink:href="#m444a26ea64" y="71.691238"/>
     <use style="fill:#1f77b4;stroke:#1f77b4;stroke-width:0.24;" x="388.339777" xlink:href="#m444a26ea64" y="73.95328"/>
     <use style="fill:#1f77b4;stroke:#1f77b4;stroke-width:0.24;" x="420.748945" xlink:href="#m444a26ea64" y="67.204783"/>
     <use style="fill:#1f77b4;stroke:#1f77b4;stroke-width:0.24;" x="376.292202" xlink:href="#m444a26ea64" y="51.52045"/>
     <use style="fill:#1f77b4;stroke:#1f77b4;stroke-width:0.24;" x="371.675199" xlink:href="#m444a26ea64" y="73.042919"/>
     <use style="fill:#1f77b4;stroke:#1f77b4;stroke-width:0.24;" x="385.332928" xlink:href="#m444a26ea64" y="84.65445"/>
     <use style="fill:#1f77b4;stroke:#1f77b4;stroke-width:0.24;" x="357.738937" xlink:href="#m444a26ea64" y="76.975371"/>
     <use style="fill:#1f77b4;stroke:#1f77b4;stroke-width:0.24;" x="353.070886" xlink:href="#m444a26ea64" y="77.749822"/>
     <use style="fill:#1f77b4;stroke:#1f77b4;stroke-width:0.24;" x="411.616679" xlink:href="#m444a26ea64" y="73.911767"/>
     <use style="fill:#1f77b4;stroke:#1f77b4;stroke-width:0.24;" x="372.244081" xlink:href="#m444a26ea64" y="70.053069"/>
     <use style="fill:#1f77b4;stroke:#1f77b4;stroke-width:0.24;" x="421.046449" xlink:href="#m444a26ea64" y="87.182778"/>
     <use style="fill:#1f77b4;stroke:#1f77b4;stroke-width:0.24;" x="394.028797" xlink:href="#m444a26ea64" y="78.546361"/>
     <use style="fill:#1f77b4;stroke:#1f77b4;stroke-width:0.24;" x="415.258658" xlink:href="#m444a26ea64" y="76.636307"/>
     <use style="fill:#1f77b4;stroke:#1f77b4;stroke-width:0.24;" x="387.439716" xlink:href="#m444a26ea64" y="66.604317"/>
     <use style="fill:#1f77b4;stroke:#1f77b4;stroke-width:0.24;" x="365.945952" xlink:href="#m444a26ea64" y="82.811198"/>
     <use style="fill:#1f77b4;stroke:#1f77b4;stroke-width:0.24;" x="394.295802" xlink:href="#m444a26ea64" y="71.509741"/>
     <use style="fill:#1f77b4;stroke:#1f77b4;stroke-width:0.24;" x="362.232902" xlink:href="#m444a26ea64" y="75.189958"/>
     <use style="fill:#1f77b4;stroke:#1f77b4;stroke-width:0.24;" x="348.106341" xlink:href="#m444a26ea64" y="83.645932"/>
     <use style="fill:#1f77b4;stroke:#1f77b4;stroke-width:0.24;" x="365.984263" xlink:href="#m444a26ea64" y="82.605047"/>
     <use style="fill:#1f77b4;stroke:#1f77b4;stroke-width:0.24;" x="382.441583" xlink:href="#m444a26ea64" y="68.300479"/>
     <use style="fill:#1f77b4;stroke:#1f77b4;stroke-width:0.24;" x="330.845576" xlink:href="#m444a26ea64" y="81.204598"/>
     <use style="fill:#1f77b4;stroke:#1f77b4;stroke-width:0.24;" x="368.238192" xlink:href="#m444a26ea64" y="56.605756"/>
     <use style="fill:#1f77b4;stroke:#1f77b4;stroke-width:0.24;" x="344.108381" xlink:href="#m444a26ea64" y="73.064553"/>
     <use style="fill:#1f77b4;stroke:#1f77b4;stroke-width:0.24;" x="421.436453" xlink:href="#m444a26ea64" y="69.32687"/>
     <use style="fill:#1f77b4;stroke:#1f77b4;stroke-width:0.24;" x="394.9804" xlink:href="#m444a26ea64" y="72.605101"/>
     <use style="fill:#1f77b4;stroke:#1f77b4;stroke-width:0.24;" x="337.137709" xlink:href="#m444a26ea64" y="78.430696"/>
     <use style="fill:#1f77b4;stroke:#1f77b4;stroke-width:0.24;" x="348.814525" xlink:href="#m444a26ea64" y="76.622186"/>
     <use style="fill:#1f77b4;stroke:#1f77b4;stroke-width:0.24;" x="394.979365" xlink:href="#m444a26ea64" y="78.019713"/>
     <use style="fill:#1f77b4;stroke:#1f77b4;stroke-width:0.24;" x="398.87378" xlink:href="#m444a26ea64" y="76.345574"/>
     <use style="fill:#1f77b4;stroke:#1f77b4;stroke-width:0.24;" x="390.072561" xlink:href="#m444a26ea64" y="75.381552"/>
     <use style="fill:#1f77b4;stroke:#1f77b4;stroke-width:0.24;" x="383.043935" xlink:href="#m444a26ea64" y="68.280008"/>
     <use style="fill:#1f77b4;stroke:#1f77b4;stroke-width:0.24;" x="347.212548" xlink:href="#m444a26ea64" y="54.096207"/>
     <use style="fill:#1f77b4;stroke:#1f77b4;stroke-width:0.24;" x="366.924791" xlink:href="#m444a26ea64" y="71.501032"/>
     <use style="fill:#1f77b4;stroke:#1f77b4;stroke-width:0.24;" x="401.594758" xlink:href="#m444a26ea64" y="73.571987"/>
     <use style="fill:#1f77b4;stroke:#1f77b4;stroke-width:0.24;" x="367.334829" xlink:href="#m444a26ea64" y="73.540579"/>
     <use style="fill:#1f77b4;stroke:#1f77b4;stroke-width:0.24;" x="414.617142" xlink:href="#m444a26ea64" y="74.570043"/>
     <use style="fill:#1f77b4;stroke:#1f77b4;stroke-width:0.24;" x="345.248593" xlink:href="#m444a26ea64" y="79.001871"/>
     <use style="fill:#1f77b4;stroke:#1f77b4;stroke-width:0.24;" x="370.079666" xlink:href="#m444a26ea64" y="65.232017"/>
     <use style="fill:#1f77b4;stroke:#1f77b4;stroke-width:0.24;" x="374.121946" xlink:href="#m444a26ea64" y="62.74625"/>
     <use style="fill:#1f77b4;stroke:#1f77b4;stroke-width:0.24;" x="328.688902" xlink:href="#m444a26ea64" y="70.733726"/>
     <use style="fill:#1f77b4;stroke:#1f77b4;stroke-width:0.24;" x="335.814025" xlink:href="#m444a26ea64" y="71.32363"/>
     <use style="fill:#1f77b4;stroke:#1f77b4;stroke-width:0.24;" x="432.189425" xlink:href="#m444a26ea64" y="79.216802"/>
     <use style="fill:#1f77b4;stroke:#1f77b4;stroke-width:0.24;" x="384.828295" xlink:href="#m444a26ea64" y="63.692875"/>
     <use style="fill:#1f77b4;stroke:#1f77b4;stroke-width:0.24;" x="391.767641" xlink:href="#m444a26ea64" y="65.031021"/>
     <use style="fill:#1f77b4;stroke:#1f77b4;stroke-width:0.24;" x="359.223001" xlink:href="#m444a26ea64" y="75.604633"/>
     <use style="fill:#1f77b4;stroke:#1f77b4;stroke-width:0.24;" x="396.123459" xlink:href="#m444a26ea64" y="81.532423"/>
     <use style="fill:#1f77b4;stroke:#1f77b4;stroke-width:0.24;" x="406.742246" xlink:href="#m444a26ea64" y="64.662062"/>
     <use style="fill:#1f77b4;stroke:#1f77b4;stroke-width:0.24;" x="406.244182" xlink:href="#m444a26ea64" y="82.001591"/>
     <use style="fill:#1f77b4;stroke:#1f77b4;stroke-width:0.24;" x="393.414812" xlink:href="#m444a26ea64" y="68.963555"/>
     <use style="fill:#1f77b4;stroke:#1f77b4;stroke-width:0.24;" x="310.224632" xlink:href="#m444a26ea64" y="79.607036"/>
     <use style="fill:#1f77b4;stroke:#1f77b4;stroke-width:0.24;" x="358.199481" xlink:href="#m444a26ea64" y="73.346648"/>
     <use style="fill:#1f77b4;stroke:#1f77b4;stroke-width:0.24;" x="350.915588" xlink:href="#m444a26ea64" y="78.011423"/>
     <use style="fill:#1f77b4;stroke:#1f77b4;stroke-width:0.24;" x="390.865613" xlink:href="#m444a26ea64" y="60.724926"/>
     <use style="fill:#1f77b4;stroke:#1f77b4;stroke-width:0.24;" x="412.405239" xlink:href="#m444a26ea64" y="62.391507"/>
     <use style="fill:#1f77b4;stroke:#1f77b4;stroke-width:0.24;" x="393.292996" xlink:href="#m444a26ea64" y="41.336733"/>
     <use style="fill:#1f77b4;stroke:#1f77b4;stroke-width:0.24;" x="468.662478" xlink:href="#m444a26ea64" y="70.188988"/>
     <use style="fill:#1f77b4;stroke:#1f77b4;stroke-width:0.24;" x="395.40031" xlink:href="#m444a26ea64" y="47.340503"/>
     <use style="fill:#1f77b4;stroke:#1f77b4;stroke-width:0.24;" x="368.9017" xlink:href="#m444a26ea64" y="74.034311"/>
     <use style="fill:#1f77b4;stroke:#1f77b4;stroke-width:0.24;" x="373.786412" xlink:href="#m444a26ea64" y="69.994843"/>
     <use style="fill:#1f77b4;stroke:#1f77b4;stroke-width:0.24;" x="409.46297" xlink:href="#m444a26ea64" y="76.976444"/>
     <use style="fill:#1f77b4;stroke:#1f77b4;stroke-width:0.24;" x="422.888109" xlink:href="#m444a26ea64" y="75.431844"/>
     <use style="fill:#1f77b4;stroke:#1f77b4;stroke-width:0.24;" x="406.648362" xlink:href="#m444a26ea64" y="64.911729"/>
     <use style="fill:#1f77b4;stroke:#1f77b4;stroke-width:0.24;" x="413.809583" xlink:href="#m444a26ea64" y="82.998974"/>
     <use style="fill:#1f77b4;stroke:#1f77b4;stroke-width:0.24;" x="347.774333" xlink:href="#m444a26ea64" y="66.669142"/>
     <use style="fill:#1f77b4;stroke:#1f77b4;stroke-width:0.24;" x="369.132152" xlink:href="#m444a26ea64" y="78.797837"/>
     <use style="fill:#1f77b4;stroke:#1f77b4;stroke-width:0.24;" x="378.811128" xlink:href="#m444a26ea64" y="80.699228"/>
     <use style="fill:#1f77b4;stroke:#1f77b4;stroke-width:0.24;" x="335.796629" xlink:href="#m444a26ea64" y="78.83866"/>
     <use style="fill:#1f77b4;stroke:#1f77b4;stroke-width:0.24;" x="366.33656" xlink:href="#m444a26ea64" y="73.454073"/>
     <use style="fill:#1f77b4;stroke:#1f77b4;stroke-width:0.24;" x="377.291493" xlink:href="#m444a26ea64" y="64.352563"/>
     <use style="fill:#1f77b4;stroke:#1f77b4;stroke-width:0.24;" x="332.771879" xlink:href="#m444a26ea64" y="67.84323"/>
     <use style="fill:#1f77b4;stroke:#1f77b4;stroke-width:0.24;" x="347.618461" xlink:href="#m444a26ea64" y="68.478541"/>
     <use style="fill:#1f77b4;stroke:#1f77b4;stroke-width:0.24;" x="396.229151" xlink:href="#m444a26ea64" y="81.122177"/>
     <use style="fill:#1f77b4;stroke:#1f77b4;stroke-width:0.24;" x="393.630788" xlink:href="#m444a26ea64" y="73.953276"/>
     <use style="fill:#1f77b4;stroke:#1f77b4;stroke-width:0.24;" x="416.142871" xlink:href="#m444a26ea64" y="78.630658"/>
     <use style="fill:#1f77b4;stroke:#1f77b4;stroke-width:0.24;" x="331.095604" xlink:href="#m444a26ea64" y="59.906051"/>
     <use style="fill:#1f77b4;stroke:#1f77b4;stroke-width:0.24;" x="388.741958" xlink:href="#m444a26ea64" y="84.528256"/>
     <use style="fill:#1f77b4;stroke:#1f77b4;stroke-width:0.24;" x="401.068776" xlink:href="#m444a26ea64" y="86.183333"/>
     <use style="fill:#1f77b4;stroke:#1f77b4;stroke-width:0.24;" x="359.678253" xlink:href="#m444a26ea64" y="87.812418"/>
     <use style="fill:#1f77b4;stroke:#1f77b4;stroke-width:0.24;" x="366.056107" xlink:href="#m444a26ea64" y="70.986242"/>
     <use style="fill:#1f77b4;stroke:#1f77b4;stroke-width:0.24;" x="413.487409" xlink:href="#m444a26ea64" y="50.078526"/>
     <use style="fill:#1f77b4;stroke:#1f77b4;stroke-width:0.24;" x="390.870854" xlink:href="#m444a26ea64" y="79.535337"/>
     <use style="fill:#1f77b4;stroke:#1f77b4;stroke-width:0.24;" x="381.589875" xlink:href="#m444a26ea64" y="83.86621"/>
     <use style="fill:#1f77b4;stroke:#1f77b4;stroke-width:0.24;" x="391.154879" xlink:href="#m444a26ea64" y="63.199599"/>
     <use style="fill:#1f77b4;stroke:#1f77b4;stroke-width:0.24;" x="341.803249" xlink:href="#m444a26ea64" y="64.327503"/>
     <use style="fill:#1f77b4;stroke:#1f77b4;stroke-width:0.24;" x="377.26362" xlink:href="#m444a26ea64" y="80.862515"/>
     <use style="fill:#1f77b4;stroke:#1f77b4;stroke-width:0.24;" x="327.111725" xlink:href="#m444a26ea64" y="47.810151"/>
     <use style="fill:#1f77b4;stroke:#1f77b4;stroke-width:0.24;" x="419.879139" xlink:href="#m444a26ea64" y="67.615914"/>
     <use style="fill:#1f77b4;stroke:#1f77b4;stroke-width:0.24;" x="378.245176" xlink:href="#m444a26ea64" y="75.458803"/>
     <use style="fill:#1f77b4;stroke:#1f77b4;stroke-width:0.24;" x="427.591897" xlink:href="#m444a26ea64" y="69.988467"/>
     <use style="fill:#1f77b4;stroke:#1f77b4;stroke-width:0.24;" x="325.475711" xlink:href="#m444a26ea64" y="73.873402"/>
     <use style="fill:#1f77b4;stroke:#1f77b4;stroke-width:0.24;" x="367.203612" xlink:href="#m444a26ea64" y="64.659462"/>
     <use style="fill:#1f77b4;stroke:#1f77b4;stroke-width:0.24;" x="401.506857" xlink:href="#m444a26ea64" y="63.204845"/>
     <use style="fill:#1f77b4;stroke:#1f77b4;stroke-width:0.24;" x="391.081125" xlink:href="#m444a26ea64" y="66.316873"/>
     <use style="fill:#1f77b4;stroke:#1f77b4;stroke-width:0.24;" x="373.73068" xlink:href="#m444a26ea64" y="76.642175"/>
     <use style="fill:#1f77b4;stroke:#1f77b4;stroke-width:0.24;" x="352.930166" xlink:href="#m444a26ea64" y="77.876237"/>
     <use style="fill:#1f77b4;stroke:#1f77b4;stroke-width:0.24;" x="408.22419" xlink:href="#m444a26ea64" y="82.500635"/>
     <use style="fill:#1f77b4;stroke:#1f77b4;stroke-width:0.24;" x="354.181858" xlink:href="#m444a26ea64" y="83.23651"/>
     <use style="fill:#1f77b4;stroke:#1f77b4;stroke-width:0.24;" x="390.835906" xlink:href="#m444a26ea64" y="88.146266"/>
     <use style="fill:#1f77b4;stroke:#1f77b4;stroke-width:0.24;" x="347.16285" xlink:href="#m444a26ea64" y="107.47242"/>
     <use style="fill:#1f77b4;stroke:#1f77b4;stroke-width:0.24;" x="276.761604" xlink:href="#m444a26ea64" y="70.696934"/>
     <use style="fill:#1f77b4;stroke:#1f77b4;stroke-width:0.24;" x="405.869419" xlink:href="#m444a26ea64" y="62.667468"/>
     <use style="fill:#1f77b4;stroke:#1f77b4;stroke-width:0.24;" x="335.119343" xlink:href="#m444a26ea64" y="79.133439"/>
     <use style="fill:#1f77b4;stroke:#1f77b4;stroke-width:0.24;" x="390.20237" xlink:href="#m444a26ea64" y="74.503488"/>
     <use style="fill:#1f77b4;stroke:#1f77b4;stroke-width:0.24;" x="380.984471" xlink:href="#m444a26ea64" y="59.118982"/>
     <use style="fill:#1f77b4;stroke:#1f77b4;stroke-width:0.24;" x="391.232889" xlink:href="#m444a26ea64" y="75.108358"/>
     <use style="fill:#1f77b4;stroke:#1f77b4;stroke-width:0.24;" x="370.669932" xlink:href="#m444a26ea64" y="72.755632"/>
     <use style="fill:#1f77b4;stroke:#1f77b4;stroke-width:0.24;" x="387.570852" xlink:href="#m444a26ea64" y="72.792646"/>
     <use style="fill:#1f77b4;stroke:#1f77b4;stroke-width:0.24;" x="386.41072" xlink:href="#m444a26ea64" y="68.174881"/>
     <use style="fill:#1f77b4;stroke:#1f77b4;stroke-width:0.24;" x="343.868276" xlink:href="#m444a26ea64" y="80.002205"/>
     <use style="fill:#1f77b4;stroke:#1f77b4;stroke-width:0.24;" x="376.33461" xlink:href="#m444a26ea64" y="80.79111"/>
     <use style="fill:#1f77b4;stroke:#1f77b4;stroke-width:0.24;" x="314.507529" xlink:href="#m444a26ea64" y="86.547843"/>
     <use style="fill:#1f77b4;stroke:#1f77b4;stroke-width:0.24;" x="368.316137" xlink:href="#m444a26ea64" y="65.016088"/>
     <use style="fill:#1f77b4;stroke:#1f77b4;stroke-width:0.24;" x="342.008375" xlink:href="#m444a26ea64" y="68.566392"/>
     <use style="fill:#1f77b4;stroke:#1f77b4;stroke-width:0.24;" x="323.286358" xlink:href="#m444a26ea64" y="78.42932"/>
     <use style="fill:#1f77b4;stroke:#1f77b4;stroke-width:0.24;" x="393.018305" xlink:href="#m444a26ea64" y="89.089935"/>
     <use style="fill:#1f77b4;stroke:#1f77b4;stroke-width:0.24;" x="345.593984" xlink:href="#m444a26ea64" y="79.716848"/>
     <use style="fill:#1f77b4;stroke:#1f77b4;stroke-width:0.24;" x="369.930353" xlink:href="#m444a26ea64" y="71.965834"/>
     <use style="fill:#1f77b4;stroke:#1f77b4;stroke-width:0.24;" x="371.625508" xlink:href="#m444a26ea64" y="87.295821"/>
     <use style="fill:#1f77b4;stroke:#1f77b4;stroke-width:0.24;" x="423.934976" xlink:href="#m444a26ea64" y="81.288205"/>
     <use style="fill:#1f77b4;stroke:#1f77b4;stroke-width:0.24;" x="404.306066" xlink:href="#m444a26ea64" y="57.51949"/>
     <use style="fill:#1f77b4;stroke:#1f77b4;stroke-width:0.24;" x="364.598249" xlink:href="#m444a26ea64" y="75.825078"/>
     <use style="fill:#1f77b4;stroke:#1f77b4;stroke-width:0.24;" x="364.012526" xlink:href="#m444a26ea64" y="63.370479"/>
     <use style="fill:#1f77b4;stroke:#1f77b4;stroke-width:0.24;" x="384.972524" xlink:href="#m444a26ea64" y="48.050965"/>
     <use style="fill:#1f77b4;stroke:#1f77b4;stroke-width:0.24;" x="371.429169" xlink:href="#m444a26ea64" y="64.336832"/>
     <use style="fill:#1f77b4;stroke:#1f77b4;stroke-width:0.24;" x="371.855082" xlink:href="#m444a26ea64" y="71.696864"/>
     <use style="fill:#1f77b4;stroke:#1f77b4;stroke-width:0.24;" x="377.054329" xlink:href="#m444a26ea64" y="73.200948"/>
    </g>
   </g>
   <g id="matplotlib.axis_3">
    <g id="xtick_6">
     <g id="line2d_9">
      <g>
       <use style="stroke:#000000;stroke-width:0.8;" x="276.761604" xlink:href="#meb0eb4bd3d" y="111.448341"/>
      </g>
     </g>
     <g id="text_12">
      <text style="font-family:DejaVu Serif;font-size:8px;font-style:normal;font-weight:normal;text-anchor:middle;" transform="rotate(-0, 276.761604, 126.083143)" x="276.761604" y="126.083143">-1.0</text>
     </g>
    </g>
    <g id="xtick_7">
     <g id="line2d_10">
      <g>
       <use style="stroke:#000000;stroke-width:0.8;" x="324.736823" xlink:href="#meb0eb4bd3d" y="111.448341"/>
      </g>
     </g>
     <g id="text_13">
      <!-- -0.5 -->
      <g transform="translate(317.915084 126.083143)scale(0.08 -0.08)">
       <use transform="scale(0.996264)" xlink:href="#CMR17-45"/>
       <use transform="translate(30.075966 0)scale(0.996264)" xlink:href="#CMR17-48"/>
       <use transform="translate(75.766443 0)scale(0.996264)" xlink:href="#CMR17-46"/>
       <use transform="translate(100.637502 0)scale(0.996264)" xlink:href="#CMR17-53"/>
      </g>
     </g>
    </g>
    <g id="xtick_8">
     <g id="line2d_11">
      <g>
       <use style="stroke:#000000;stroke-width:0.8;" x="372.712041" xlink:href="#meb0eb4bd3d" y="111.448341"/>
      </g>
     </g>
     <g id="text_14">
      <!-- 0.0 -->
      <g transform="translate(367.301697 126.083143)scale(0.08 -0.08)">
       <use transform="scale(0.996264)" xlink:href="#CMR17-48"/>
       <use transform="translate(45.690477 0)scale(0.996264)" xlink:href="#CMR17-46"/>
       <use transform="translate(70.561536 0)scale(0.996264)" xlink:href="#CMR17-48"/>
      </g>
     </g>
    </g>
    <g id="xtick_9">
     <g id="line2d_12">
      <g>
       <use style="stroke:#000000;stroke-width:0.8;" x="420.68726" xlink:href="#meb0eb4bd3d" y="111.448341"/>
      </g>
     </g>
     <g id="text_15">
      <!-- 0.5 -->
      <g transform="translate(415.276915 126.083143)scale(0.08 -0.08)">
       <use transform="scale(0.996264)" xlink:href="#CMR17-48"/>
       <use transform="translate(45.690477 0)scale(0.996264)" xlink:href="#CMR17-46"/>
       <use transform="translate(70.561536 0)scale(0.996264)" xlink:href="#CMR17-53"/>
      </g>
     </g>
    </g>
    <g id="xtick_10">
     <g id="line2d_13">
      <g>
       <use style="stroke:#000000;stroke-width:0.8;" x="468.662478" xlink:href="#meb0eb4bd3d" y="111.448341"/>
      </g>
     </g>
     <g id="text_16">
      <!-- 1.0 -->
      <g transform="translate(463.252133 126.083143)scale(0.08 -0.08)">
       <use transform="scale(0.996264)" xlink:href="#CMR17-49"/>
       <use transform="translate(45.690477 0)scale(0.996264)" xlink:href="#CMR17-46"/>
       <use transform="translate(70.561536 0)scale(0.996264)" xlink:href="#CMR17-48"/>
      </g>
     </g>
    </g>
    <g id="text_17">
     <text style="font-family:DejaVu Serif;font-size:8.8px;font-style:normal;font-weight:normal;text-anchor:middle;" transform="rotate(-0, 372.712041, 138.208222)" x="372.712041" y="138.208222">Input x[0]</text>
    </g>
   </g>
   <g id="matplotlib.axis_4">
    <g id="ytick_4">
     <g id="line2d_14">
      <g>
       <use style="stroke:#000000;stroke-width:0.8;" x="271.964083" xlink:href="#m3a2338f56f" y="107.47242"/>
      </g>
     </g>
     <g id="text_18">
      <text style="font-family:DejaVu Serif;font-size:8px;font-style:normal;font-weight:normal;text-anchor:end;" transform="rotate(-0, 262.864083, 110.23982)" x="262.864083" y="110.23982">-1</text>
     </g>
    </g>
    <g id="ytick_5">
     <g id="line2d_15">
      <g>
       <use style="stroke:#000000;stroke-width:0.8;" x="271.964083" xlink:href="#m3a2338f56f" y="74.404576"/>
      </g>
     </g>
     <g id="text_19">
      <!-- 0 -->
      <g transform="translate(258.6299 77.171977)scale(0.08 -0.08)">
       <use transform="scale(0.996264)" xlink:href="#CMR17-48"/>
      </g>
     </g>
    </g>
    <g id="ytick_6">
     <g id="line2d_16">
      <g>
       <use style="stroke:#000000;stroke-width:0.8;" x="271.964083" xlink:href="#m3a2338f56f" y="41.336733"/>
      </g>
     </g>
     <g id="text_20">
      <!-- 1 -->
      <g transform="translate(258.6299 44.104134)scale(0.08 -0.08)">
       <use transform="scale(0.996264)" xlink:href="#CMR17-49"/>
      </g>
     </g>
    </g>
    <g id="text_21">
     <text style="font-family:DejaVu Serif;font-size:8.8px;font-style:normal;font-weight:normal;text-anchor:middle;" transform="rotate(-90, 249.615333, 74.404576)" x="249.615333" y="74.404576">Input x[-1]</text>
    </g>
   </g>
   <g id="patch_8">
    <path d="M 271.964083 111.448341 
L 271.964083 37.360811 
" style="fill:none;stroke:#000000;stroke-linecap:square;stroke-linejoin:miter;stroke-width:0.8;"/>
   </g>
   <g id="patch_9">
    <path d="M 473.46 111.448341 
L 473.46 37.360811 
" style="fill:none;stroke:#000000;stroke-linecap:square;stroke-linejoin:miter;stroke-width:0.8;"/>
   </g>
   <g id="patch_10">
    <path d="M 271.964083 111.448341 
L 473.46 111.448341 
" style="fill:none;stroke:#000000;stroke-linecap:square;stroke-linejoin:miter;stroke-width:0.8;"/>
   </g>
   <g id="patch_11">
    <path d="M 271.964083 37.360811 
L 473.46 37.360811 
" style="fill:none;stroke:#000000;stroke-linecap:square;stroke-linejoin:miter;stroke-width:0.8;"/>
   </g>
   <g id="text_22">
    <text style="font-family:DejaVu Serif;font-size:9.6px;font-style:normal;font-weight:normal;text-anchor:middle;" transform="rotate(-0, 372.712041, 31.360811)" x="372.712041" y="31.360811">Gaussian White Noise</text>
   </g>
  </g>
  <g id="axes_3">
   <g id="patch_12">
    <path d="M 513.564083 111.448341 
L 715.06 111.448341 
L 715.06 37.360811 
L 513.564083 37.360811 
z
" style="fill:#ffffff;"/>
   </g>
   <g id="PathCollection_3">
    <g clip-path="url(#pea2e5e45fa)">
     <use style="fill:#1f77b4;stroke:#1f77b4;stroke-width:0.24;" x="614.312041" xlink:href="#m444a26ea64" y="51.211754"/>
     <use style="fill:#1f77b4;stroke:#1f77b4;stroke-width:0.24;" x="708.783888" xlink:href="#m444a26ea64" y="56.097425"/>
     <use style="fill:#1f77b4;stroke:#1f77b4;stroke-width:0.24;" x="567.994899" xlink:href="#m444a26ea64" y="102.97411"/>
     <use style="fill:#1f77b4;stroke:#1f77b4;stroke-width:0.24;" x="580.700574" xlink:href="#m444a26ea64" y="75.613879"/>
     <use style="fill:#1f77b4;stroke:#1f77b4;stroke-width:0.24;" x="555.533357" xlink:href="#m444a26ea64" y="82.787124"/>
     <use style="fill:#1f77b4;stroke:#1f77b4;stroke-width:0.24;" x="635.874062" xlink:href="#m444a26ea64" y="69.484159"/>
     <use style="fill:#1f77b4;stroke:#1f77b4;stroke-width:0.24;" x="701.25841" xlink:href="#m444a26ea64" y="103.45359"/>
     <use style="fill:#1f77b4;stroke:#1f77b4;stroke-width:0.24;" x="617.425654" xlink:href="#m444a26ea64" y="84.671858"/>
     <use style="fill:#1f77b4;stroke:#1f77b4;stroke-width:0.24;" x="661.063771" xlink:href="#m444a26ea64" y="96.786406"/>
     <use style="fill:#1f77b4;stroke:#1f77b4;stroke-width:0.24;" x="639.812076" xlink:href="#m444a26ea64" y="50.020862"/>
     <use style="fill:#1f77b4;stroke:#1f77b4;stroke-width:0.24;" x="599.062615" xlink:href="#m444a26ea64" y="46.607127"/>
     <use style="fill:#1f77b4;stroke:#1f77b4;stroke-width:0.24;" x="573.563626" xlink:href="#m444a26ea64" y="49.786485"/>
     <use style="fill:#1f77b4;stroke:#1f77b4;stroke-width:0.24;" x="606.280549" xlink:href="#m444a26ea64" y="98.454141"/>
     <use style="fill:#1f77b4;stroke:#1f77b4;stroke-width:0.24;" x="676.557601" xlink:href="#m444a26ea64" y="75.311239"/>
     <use style="fill:#1f77b4;stroke:#1f77b4;stroke-width:0.24;" x="532.409545" xlink:href="#m444a26ea64" y="66.130783"/>
     <use style="fill:#1f77b4;stroke:#1f77b4;stroke-width:0.24;" x="622.931898" xlink:href="#m444a26ea64" y="84.656589"/>
     <use style="fill:#1f77b4;stroke:#1f77b4;stroke-width:0.24;" x="588.375704" xlink:href="#m444a26ea64" y="41.988518"/>
     <use style="fill:#1f77b4;stroke:#1f77b4;stroke-width:0.24;" x="538.246005" xlink:href="#m444a26ea64" y="63.303045"/>
     <use style="fill:#1f77b4;stroke:#1f77b4;stroke-width:0.24;" x="647.907545" xlink:href="#m444a26ea64" y="87.796759"/>
     <use style="fill:#1f77b4;stroke:#1f77b4;stroke-width:0.24;" x="523.955953" xlink:href="#m444a26ea64" y="72.113502"/>
     <use style="fill:#1f77b4;stroke:#1f77b4;stroke-width:0.24;" x="636.966577" xlink:href="#m444a26ea64" y="48.832573"/>
     <use style="fill:#1f77b4;stroke:#1f77b4;stroke-width:0.24;" x="689.022708" xlink:href="#m444a26ea64" y="85.798278"/>
     <use style="fill:#1f77b4;stroke:#1f77b4;stroke-width:0.24;" x="698.511235" xlink:href="#m444a26ea64" y="60.685646"/>
     <use style="fill:#1f77b4;stroke:#1f77b4;stroke-width:0.24;" x="622.135079" xlink:href="#m444a26ea64" y="90.453258"/>
     <use style="fill:#1f77b4;stroke:#1f77b4;stroke-width:0.24;" x="694.373458" xlink:href="#m444a26ea64" y="99.056947"/>
     <use style="fill:#1f77b4;stroke:#1f77b4;stroke-width:0.24;" x="696.311746" xlink:href="#m444a26ea64" y="82.676688"/>
     <use style="fill:#1f77b4;stroke:#1f77b4;stroke-width:0.24;" x="587.579736" xlink:href="#m444a26ea64" y="105.706691"/>
     <use style="fill:#1f77b4;stroke:#1f77b4;stroke-width:0.24;" x="532.610653" xlink:href="#m444a26ea64" y="58.023883"/>
     <use style="fill:#1f77b4;stroke:#1f77b4;stroke-width:0.24;" x="539.164827" xlink:href="#m444a26ea64" y="58.034451"/>
     <use style="fill:#1f77b4;stroke:#1f77b4;stroke-width:0.24;" x="574.95089" xlink:href="#m444a26ea64" y="91.007423"/>
     <use style="fill:#1f77b4;stroke:#1f77b4;stroke-width:0.24;" x="612.447134" xlink:href="#m444a26ea64" y="62.24803"/>
     <use style="fill:#1f77b4;stroke:#1f77b4;stroke-width:0.24;" x="624.791395" xlink:href="#m444a26ea64" y="104.290056"/>
     <use style="fill:#1f77b4;stroke:#1f77b4;stroke-width:0.24;" x="694.815506" xlink:href="#m444a26ea64" y="84.52402"/>
     <use style="fill:#1f77b4;stroke:#1f77b4;stroke-width:0.24;" x="569.064409" xlink:href="#m444a26ea64" y="89.009048"/>
     <use style="fill:#1f77b4;stroke:#1f77b4;stroke-width:0.24;" x="589.685139" xlink:href="#m444a26ea64" y="77.611602"/>
     <use style="fill:#1f77b4;stroke:#1f77b4;stroke-width:0.24;" x="613.586405" xlink:href="#m444a26ea64" y="78.590487"/>
     <use style="fill:#1f77b4;stroke:#1f77b4;stroke-width:0.24;" x="577.276193" xlink:href="#m444a26ea64" y="69.782909"/>
     <use style="fill:#1f77b4;stroke:#1f77b4;stroke-width:0.24;" x="609.04439" xlink:href="#m444a26ea64" y="96.91195"/>
     <use style="fill:#1f77b4;stroke:#1f77b4;stroke-width:0.24;" x="683.919718" xlink:href="#m444a26ea64" y="60.824501"/>
     <use style="fill:#1f77b4;stroke:#1f77b4;stroke-width:0.24;" x="584.172105" xlink:href="#m444a26ea64" y="75.020456"/>
     <use style="fill:#1f77b4;stroke:#1f77b4;stroke-width:0.24;" x="653.444303" xlink:href="#m444a26ea64" y="53.989198"/>
     <use style="fill:#1f77b4;stroke:#1f77b4;stroke-width:0.24;" x="548.629804" xlink:href="#m444a26ea64" y="51.124248"/>
     <use style="fill:#1f77b4;stroke:#1f77b4;stroke-width:0.24;" x="640.566315" xlink:href="#m444a26ea64" y="60.030827"/>
     <use style="fill:#1f77b4;stroke:#1f77b4;stroke-width:0.24;" x="528.557999" xlink:href="#m444a26ea64" y="82.756845"/>
     <use style="fill:#1f77b4;stroke:#1f77b4;stroke-width:0.24;" x="527.757333" xlink:href="#m444a26ea64" y="88.290493"/>
     <use style="fill:#1f77b4;stroke:#1f77b4;stroke-width:0.24;" x="675.099279" xlink:href="#m444a26ea64" y="75.832862"/>
     <use style="fill:#1f77b4;stroke:#1f77b4;stroke-width:0.24;" x="677.963657" xlink:href="#m444a26ea64" y="94.293548"/>
     <use style="fill:#1f77b4;stroke:#1f77b4;stroke-width:0.24;" x="636.957554" xlink:href="#m444a26ea64" y="73.103959"/>
     <use style="fill:#1f77b4;stroke:#1f77b4;stroke-width:0.24;" x="650.004117" xlink:href="#m444a26ea64" y="69.952676"/>
     <use style="fill:#1f77b4;stroke:#1f77b4;stroke-width:0.24;" x="676.317906" xlink:href="#m444a26ea64" y="91.671328"/>
     <use style="fill:#1f77b4;stroke:#1f77b4;stroke-width:0.24;" x="560.631071" xlink:href="#m444a26ea64" y="77.462978"/>
     <use style="fill:#1f77b4;stroke:#1f77b4;stroke-width:0.24;" x="592.016822" xlink:href="#m444a26ea64" y="83.138018"/>
     <use style="fill:#1f77b4;stroke:#1f77b4;stroke-width:0.24;" x="533.040795" xlink:href="#m444a26ea64" y="85.32761"/>
     <use style="fill:#1f77b4;stroke:#1f77b4;stroke-width:0.24;" x="700.563003" xlink:href="#m444a26ea64" y="70.773948"/>
     <use style="fill:#1f77b4;stroke:#1f77b4;stroke-width:0.24;" x="588.489005" xlink:href="#m444a26ea64" y="60.168855"/>
     <use style="fill:#1f77b4;stroke:#1f77b4;stroke-width:0.24;" x="561.664508" xlink:href="#m444a26ea64" y="82.576058"/>
     <use style="fill:#1f77b4;stroke:#1f77b4;stroke-width:0.24;" x="682.375491" xlink:href="#m444a26ea64" y="48.205644"/>
     <use style="fill:#1f77b4;stroke:#1f77b4;stroke-width:0.24;" x="620.990756" xlink:href="#m444a26ea64" y="65.648736"/>
     <use style="fill:#1f77b4;stroke:#1f77b4;stroke-width:0.24;" x="658.819496" xlink:href="#m444a26ea64" y="48.056534"/>
     <use style="fill:#1f77b4;stroke:#1f77b4;stroke-width:0.24;" x="649.353525" xlink:href="#m444a26ea64" y="88.525567"/>
     <use style="fill:#1f77b4;stroke:#1f77b4;stroke-width:0.24;" x="707.32089" xlink:href="#m444a26ea64" y="78.490829"/>
     <use style="fill:#1f77b4;stroke:#1f77b4;stroke-width:0.24;" x="664.677719" xlink:href="#m444a26ea64" y="67.549695"/>
     <use style="fill:#1f77b4;stroke:#1f77b4;stroke-width:0.24;" x="687.304591" xlink:href="#m444a26ea64" y="55.857315"/>
     <use style="fill:#1f77b4;stroke:#1f77b4;stroke-width:0.24;" x="670.428423" xlink:href="#m444a26ea64" y="43.19348"/>
     <use style="fill:#1f77b4;stroke:#1f77b4;stroke-width:0.24;" x="523.39984" xlink:href="#m444a26ea64" y="66.309461"/>
     <use style="fill:#1f77b4;stroke:#1f77b4;stroke-width:0.24;" x="647.423483" xlink:href="#m444a26ea64" y="47.46296"/>
     <use style="fill:#1f77b4;stroke:#1f77b4;stroke-width:0.24;" x="572.412747" xlink:href="#m444a26ea64" y="82.024218"/>
     <use style="fill:#1f77b4;stroke:#1f77b4;stroke-width:0.24;" x="580.066267" xlink:href="#m444a26ea64" y="55.064015"/>
     <use style="fill:#1f77b4;stroke:#1f77b4;stroke-width:0.24;" x="521.445404" xlink:href="#m444a26ea64" y="84.618714"/>
     <use style="fill:#1f77b4;stroke:#1f77b4;stroke-width:0.24;" x="655.740355" xlink:href="#m444a26ea64" y="101.351588"/>
     <use style="fill:#1f77b4;stroke:#1f77b4;stroke-width:0.24;" x="528.683467" xlink:href="#m444a26ea64" y="54.363816"/>
     <use style="fill:#1f77b4;stroke:#1f77b4;stroke-width:0.24;" x="650.83357" xlink:href="#m444a26ea64" y="55.339172"/>
     <use style="fill:#1f77b4;stroke:#1f77b4;stroke-width:0.24;" x="588.709188" xlink:href="#m444a26ea64" y="90.465153"/>
     <use style="fill:#1f77b4;stroke:#1f77b4;stroke-width:0.24;" x="699.123504" xlink:href="#m444a26ea64" y="104.252034"/>
     <use style="fill:#1f77b4;stroke:#1f77b4;stroke-width:0.24;" x="635.036012" xlink:href="#m444a26ea64" y="103.415491"/>
     <use style="fill:#1f77b4;stroke:#1f77b4;stroke-width:0.24;" x="586.136325" xlink:href="#m444a26ea64" y="71.853891"/>
     <use style="fill:#1f77b4;stroke:#1f77b4;stroke-width:0.24;" x="692.855485" xlink:href="#m444a26ea64" y="81.229504"/>
     <use style="fill:#1f77b4;stroke:#1f77b4;stroke-width:0.24;" x="706.364394" xlink:href="#m444a26ea64" y="81.254056"/>
     <use style="fill:#1f77b4;stroke:#1f77b4;stroke-width:0.24;" x="579.120381" xlink:href="#m444a26ea64" y="106.286016"/>
     <use style="fill:#1f77b4;stroke:#1f77b4;stroke-width:0.24;" x="563.362446" xlink:href="#m444a26ea64" y="92.291581"/>
     <use style="fill:#1f77b4;stroke:#1f77b4;stroke-width:0.24;" x="687.345879" xlink:href="#m444a26ea64" y="91.336948"/>
     <use style="fill:#1f77b4;stroke:#1f77b4;stroke-width:0.24;" x="679.574976" xlink:href="#m444a26ea64" y="48.654088"/>
     <use style="fill:#1f77b4;stroke:#1f77b4;stroke-width:0.24;" x="644.739528" xlink:href="#m444a26ea64" y="101.178495"/>
     <use style="fill:#1f77b4;stroke:#1f77b4;stroke-width:0.24;" x="625.983527" xlink:href="#m444a26ea64" y="66.188463"/>
     <use style="fill:#1f77b4;stroke:#1f77b4;stroke-width:0.24;" x="666.81854" xlink:href="#m444a26ea64" y="70.284132"/>
     <use style="fill:#1f77b4;stroke:#1f77b4;stroke-width:0.24;" x="618.398336" xlink:href="#m444a26ea64" y="98.485141"/>
     <use style="fill:#1f77b4;stroke:#1f77b4;stroke-width:0.24;" x="632.549517" xlink:href="#m444a26ea64" y="51.56657"/>
     <use style="fill:#1f77b4;stroke:#1f77b4;stroke-width:0.24;" x="649.147763" xlink:href="#m444a26ea64" y="59.339306"/>
     <use style="fill:#1f77b4;stroke:#1f77b4;stroke-width:0.24;" x="551.702639" xlink:href="#m444a26ea64" y="95.292963"/>
     <use style="fill:#1f77b4;stroke:#1f77b4;stroke-width:0.24;" x="651.884838" xlink:href="#m444a26ea64" y="47.528129"/>
     <use style="fill:#1f77b4;stroke:#1f77b4;stroke-width:0.24;" x="587.330547" xlink:href="#m444a26ea64" y="80.632687"/>
     <use style="fill:#1f77b4;stroke:#1f77b4;stroke-width:0.24;" x="669.566344" xlink:href="#m444a26ea64" y="56.023384"/>
     <use style="fill:#1f77b4;stroke:#1f77b4;stroke-width:0.24;" x="577.430568" xlink:href="#m444a26ea64" y="82.884358"/>
     <use style="fill:#1f77b4;stroke:#1f77b4;stroke-width:0.24;" x="707.355785" xlink:href="#m444a26ea64" y="76.95157"/>
     <use style="fill:#1f77b4;stroke:#1f77b4;stroke-width:0.24;" x="628.147732" xlink:href="#m444a26ea64" y="60.64061"/>
     <use style="fill:#1f77b4;stroke:#1f77b4;stroke-width:0.24;" x="615.072761" xlink:href="#m444a26ea64" y="49.141336"/>
     <use style="fill:#1f77b4;stroke:#1f77b4;stroke-width:0.24;" x="520.842038" xlink:href="#m444a26ea64" y="58.262454"/>
     <use style="fill:#1f77b4;stroke:#1f77b4;stroke-width:0.24;" x="530.143628" xlink:href="#m444a26ea64" y="93.747774"/>
     <use style="fill:#1f77b4;stroke:#1f77b4;stroke-width:0.24;" x="523.369027" xlink:href="#m444a26ea64" y="60.211365"/>
     <use style="fill:#1f77b4;stroke:#1f77b4;stroke-width:0.24;" x="644.360184" xlink:href="#m444a26ea64" y="94.089281"/>
     <use style="fill:#1f77b4;stroke:#1f77b4;stroke-width:0.24;" x="561.058933" xlink:href="#m444a26ea64" y="76.809454"/>
     <use style="fill:#1f77b4;stroke:#1f77b4;stroke-width:0.24;" x="682.852631" xlink:href="#m444a26ea64" y="55.545792"/>
     <use style="fill:#1f77b4;stroke:#1f77b4;stroke-width:0.24;" x="533.397306" xlink:href="#m444a26ea64" y="60.318877"/>
     <use style="fill:#1f77b4;stroke:#1f77b4;stroke-width:0.24;" x="655.18344" xlink:href="#m444a26ea64" y="78.512015"/>
     <use style="fill:#1f77b4;stroke:#1f77b4;stroke-width:0.24;" x="671.202959" xlink:href="#m444a26ea64" y="89.314886"/>
     <use style="fill:#1f77b4;stroke:#1f77b4;stroke-width:0.24;" x="571.047933" xlink:href="#m444a26ea64" y="92.857207"/>
     <use style="fill:#1f77b4;stroke:#1f77b4;stroke-width:0.24;" x="583.449199" xlink:href="#m444a26ea64" y="71.432451"/>
     <use style="fill:#1f77b4;stroke:#1f77b4;stroke-width:0.24;" x="648.064354" xlink:href="#m444a26ea64" y="107.47242"/>
     <use style="fill:#1f77b4;stroke:#1f77b4;stroke-width:0.24;" x="518.361604" xlink:href="#m444a26ea64" y="83.718021"/>
     <use style="fill:#1f77b4;stroke:#1f77b4;stroke-width:0.24;" x="569.684615" xlink:href="#m444a26ea64" y="50.698129"/>
     <use style="fill:#1f77b4;stroke:#1f77b4;stroke-width:0.24;" x="519.271469" xlink:href="#m444a26ea64" y="97.89354"/>
     <use style="fill:#1f77b4;stroke:#1f77b4;stroke-width:0.24;" x="703.745934" xlink:href="#m444a26ea64" y="65.305878"/>
     <use style="fill:#1f77b4;stroke:#1f77b4;stroke-width:0.24;" x="643.665657" xlink:href="#m444a26ea64" y="106.834339"/>
     <use style="fill:#1f77b4;stroke:#1f77b4;stroke-width:0.24;" x="520.213074" xlink:href="#m444a26ea64" y="92.724748"/>
     <use style="fill:#1f77b4;stroke:#1f77b4;stroke-width:0.24;" x="545.996518" xlink:href="#m444a26ea64" y="95.907302"/>
     <use style="fill:#1f77b4;stroke:#1f77b4;stroke-width:0.24;" x="702.758265" xlink:href="#m444a26ea64" y="97.160315"/>
     <use style="fill:#1f77b4;stroke:#1f77b4;stroke-width:0.24;" x="577.27239" xlink:href="#m444a26ea64" y="79.951287"/>
     <use style="fill:#1f77b4;stroke:#1f77b4;stroke-width:0.24;" x="588.899617" xlink:href="#m444a26ea64" y="76.225156"/>
     <use style="fill:#1f77b4;stroke:#1f77b4;stroke-width:0.24;" x="595.210456" xlink:href="#m444a26ea64" y="78.796773"/>
     <use style="fill:#1f77b4;stroke:#1f77b4;stroke-width:0.24;" x="629.366639" xlink:href="#m444a26ea64" y="56.635329"/>
     <use style="fill:#1f77b4;stroke:#1f77b4;stroke-width:0.24;" x="558.778357" xlink:href="#m444a26ea64" y="95.808116"/>
     <use style="fill:#1f77b4;stroke:#1f77b4;stroke-width:0.24;" x="653.147609" xlink:href="#m444a26ea64" y="44.916712"/>
     <use style="fill:#1f77b4;stroke:#1f77b4;stroke-width:0.24;" x="596.50353" xlink:href="#m444a26ea64" y="97.286074"/>
     <use style="fill:#1f77b4;stroke:#1f77b4;stroke-width:0.24;" x="672.120013" xlink:href="#m444a26ea64" y="80.274366"/>
     <use style="fill:#1f77b4;stroke:#1f77b4;stroke-width:0.24;" x="661.455596" xlink:href="#m444a26ea64" y="101.707592"/>
     <use style="fill:#1f77b4;stroke:#1f77b4;stroke-width:0.24;" x="694.920061" xlink:href="#m444a26ea64" y="71.754294"/>
     <use style="fill:#1f77b4;stroke:#1f77b4;stroke-width:0.24;" x="676.3276" xlink:href="#m444a26ea64" y="45.977789"/>
     <use style="fill:#1f77b4;stroke:#1f77b4;stroke-width:0.24;" x="633.237426" xlink:href="#m444a26ea64" y="99.047544"/>
     <use style="fill:#1f77b4;stroke:#1f77b4;stroke-width:0.24;" x="541.404054" xlink:href="#m444a26ea64" y="71.810445"/>
     <use style="fill:#1f77b4;stroke:#1f77b4;stroke-width:0.24;" x="585.329428" xlink:href="#m444a26ea64" y="70.361386"/>
     <use style="fill:#1f77b4;stroke:#1f77b4;stroke-width:0.24;" x="553.784568" xlink:href="#m444a26ea64" y="73.63039"/>
     <use style="fill:#1f77b4;stroke:#1f77b4;stroke-width:0.24;" x="552.824863" xlink:href="#m444a26ea64" y="60.23956"/>
     <use style="fill:#1f77b4;stroke:#1f77b4;stroke-width:0.24;" x="544.460391" xlink:href="#m444a26ea64" y="93.12674"/>
     <use style="fill:#1f77b4;stroke:#1f77b4;stroke-width:0.24;" x="532.117416" xlink:href="#m444a26ea64" y="83.134312"/>
     <use style="fill:#1f77b4;stroke:#1f77b4;stroke-width:0.24;" x="664.798812" xlink:href="#m444a26ea64" y="86.822803"/>
     <use style="fill:#1f77b4;stroke:#1f77b4;stroke-width:0.24;" x="580.327835" xlink:href="#m444a26ea64" y="106.469183"/>
     <use style="fill:#1f77b4;stroke:#1f77b4;stroke-width:0.24;" x="668.319985" xlink:href="#m444a26ea64" y="73.687839"/>
     <use style="fill:#1f77b4;stroke:#1f77b4;stroke-width:0.24;" x="697.310729" xlink:href="#m444a26ea64" y="103.687266"/>
     <use style="fill:#1f77b4;stroke:#1f77b4;stroke-width:0.24;" x="689.247136" xlink:href="#m444a26ea64" y="63.496324"/>
     <use style="fill:#1f77b4;stroke:#1f77b4;stroke-width:0.24;" x="537.836504" xlink:href="#m444a26ea64" y="45.385352"/>
     <use style="fill:#1f77b4;stroke:#1f77b4;stroke-width:0.24;" x="560.192134" xlink:href="#m444a26ea64" y="55.252031"/>
     <use style="fill:#1f77b4;stroke:#1f77b4;stroke-width:0.24;" x="589.593093" xlink:href="#m444a26ea64" y="92.415447"/>
     <use style="fill:#1f77b4;stroke:#1f77b4;stroke-width:0.24;" x="689.764809" xlink:href="#m444a26ea64" y="65.969127"/>
     <use style="fill:#1f77b4;stroke:#1f77b4;stroke-width:0.24;" x="626.759284" xlink:href="#m444a26ea64" y="59.28767"/>
     <use style="fill:#1f77b4;stroke:#1f77b4;stroke-width:0.24;" x="706.423276" xlink:href="#m444a26ea64" y="83.623754"/>
     <use style="fill:#1f77b4;stroke:#1f77b4;stroke-width:0.24;" x="699.326053" xlink:href="#m444a26ea64" y="67.516004"/>
     <use style="fill:#1f77b4;stroke:#1f77b4;stroke-width:0.24;" x="575.974554" xlink:href="#m444a26ea64" y="51.459249"/>
     <use style="fill:#1f77b4;stroke:#1f77b4;stroke-width:0.24;" x="552.280676" xlink:href="#m444a26ea64" y="49.202235"/>
     <use style="fill:#1f77b4;stroke:#1f77b4;stroke-width:0.24;" x="656.724236" xlink:href="#m444a26ea64" y="49.862745"/>
     <use style="fill:#1f77b4;stroke:#1f77b4;stroke-width:0.24;" x="685.5232" xlink:href="#m444a26ea64" y="85.622288"/>
     <use style="fill:#1f77b4;stroke:#1f77b4;stroke-width:0.24;" x="686.489234" xlink:href="#m444a26ea64" y="84.646931"/>
     <use style="fill:#1f77b4;stroke:#1f77b4;stroke-width:0.24;" x="699.816381" xlink:href="#m444a26ea64" y="93.87743"/>
     <use style="fill:#1f77b4;stroke:#1f77b4;stroke-width:0.24;" x="543.716348" xlink:href="#m444a26ea64" y="84.413831"/>
     <use style="fill:#1f77b4;stroke:#1f77b4;stroke-width:0.24;" x="520.433756" xlink:href="#m444a26ea64" y="98.791915"/>
     <use style="fill:#1f77b4;stroke:#1f77b4;stroke-width:0.24;" x="541.815442" xlink:href="#m444a26ea64" y="41.336733"/>
     <use style="fill:#1f77b4;stroke:#1f77b4;stroke-width:0.24;" x="710.262478" xlink:href="#m444a26ea64" y="67.795387"/>
     <use style="fill:#1f77b4;stroke:#1f77b4;stroke-width:0.24;" x="695.894996" xlink:href="#m444a26ea64" y="84.200732"/>
     <use style="fill:#1f77b4;stroke:#1f77b4;stroke-width:0.24;" x="659.271056" xlink:href="#m444a26ea64" y="66.101388"/>
     <use style="fill:#1f77b4;stroke:#1f77b4;stroke-width:0.24;" x="687.328421" xlink:href="#m444a26ea64" y="71.563397"/>
     <use style="fill:#1f77b4;stroke:#1f77b4;stroke-width:0.24;" x="670.912788" xlink:href="#m444a26ea64" y="64.510116"/>
     <use style="fill:#1f77b4;stroke:#1f77b4;stroke-width:0.24;" x="627.285437" xlink:href="#m444a26ea64" y="70.815217"/>
     <use style="fill:#1f77b4;stroke:#1f77b4;stroke-width:0.24;" x="704.386604" xlink:href="#m444a26ea64" y="54.058433"/>
     <use style="fill:#1f77b4;stroke:#1f77b4;stroke-width:0.24;" x="571.68291" xlink:href="#m444a26ea64" y="105.587835"/>
     <use style="fill:#1f77b4;stroke:#1f77b4;stroke-width:0.24;" x="615.111685" xlink:href="#m444a26ea64" y="57.479399"/>
     <use style="fill:#1f77b4;stroke:#1f77b4;stroke-width:0.24;" x="660.86599" xlink:href="#m444a26ea64" y="73.357412"/>
     <use style="fill:#1f77b4;stroke:#1f77b4;stroke-width:0.24;" x="523.950846" xlink:href="#m444a26ea64" y="44.866423"/>
     <use style="fill:#1f77b4;stroke:#1f77b4;stroke-width:0.24;" x="629.173064" xlink:href="#m444a26ea64" y="55.816724"/>
     <use style="fill:#1f77b4;stroke:#1f77b4;stroke-width:0.24;" x="533.412786" xlink:href="#m444a26ea64" y="48.387824"/>
     <use style="fill:#1f77b4;stroke:#1f77b4;stroke-width:0.24;" x="618.468882" xlink:href="#m444a26ea64" y="74.136921"/>
     <use style="fill:#1f77b4;stroke:#1f77b4;stroke-width:0.24;" x="710.24712" xlink:href="#m444a26ea64" y="43.495402"/>
     <use style="fill:#1f77b4;stroke:#1f77b4;stroke-width:0.24;" x="662.978695" xlink:href="#m444a26ea64" y="73.516706"/>
     <use style="fill:#1f77b4;stroke:#1f77b4;stroke-width:0.24;" x="635.282592" xlink:href="#m444a26ea64" y="81.105277"/>
     <use style="fill:#1f77b4;stroke:#1f77b4;stroke-width:0.24;" x="652.033866" xlink:href="#m444a26ea64" y="80.210635"/>
     <use style="fill:#1f77b4;stroke:#1f77b4;stroke-width:0.24;" x="566.513511" xlink:href="#m444a26ea64" y="93.770471"/>
     <use style="fill:#1f77b4;stroke:#1f77b4;stroke-width:0.24;" x="694.232821" xlink:href="#m444a26ea64" y="95.885236"/>
     <use style="fill:#1f77b4;stroke:#1f77b4;stroke-width:0.24;" x="533.390425" xlink:href="#m444a26ea64" y="86.151033"/>
    </g>
   </g>
   <g id="matplotlib.axis_5">
    <g id="xtick_11">
     <g id="line2d_17">
      <g>
       <use style="stroke:#000000;stroke-width:0.8;" x="518.361604" xlink:href="#meb0eb4bd3d" y="111.448341"/>
      </g>
     </g>
     <g id="text_23">
      <text style="font-family:DejaVu Serif;font-size:8px;font-style:normal;font-weight:normal;text-anchor:middle;" transform="rotate(-0, 518.361604, 126.083143)" x="518.361604" y="126.083143">-1.0</text>
     </g>
    </g>
    <g id="xtick_12">
     <g id="line2d_18">
      <g>
       <use style="stroke:#000000;stroke-width:0.8;" x="566.336823" xlink:href="#meb0eb4bd3d" y="111.448341"/>
      </g>
     </g>
     <g id="text_24">
      <!-- -0.5 -->
      <g transform="translate(559.515084 126.083143)scale(0.08 -0.08)">
       <use transform="scale(0.996264)" xlink:href="#CMR17-45"/>
       <use transform="translate(30.075966 0)scale(0.996264)" xlink:href="#CMR17-48"/>
       <use transform="translate(75.766443 0)scale(0.996264)" xlink:href="#CMR17-46"/>
       <use transform="translate(100.637502 0)scale(0.996264)" xlink:href="#CMR17-53"/>
      </g>
     </g>
    </g>
    <g id="xtick_13">
     <g id="line2d_19">
      <g>
       <use style="stroke:#000000;stroke-width:0.8;" x="614.312041" xlink:href="#meb0eb4bd3d" y="111.448341"/>
      </g>
     </g>
     <g id="text_25">
      <!-- 0.0 -->
      <g transform="translate(608.901697 126.083143)scale(0.08 -0.08)">
       <use transform="scale(0.996264)" xlink:href="#CMR17-48"/>
       <use transform="translate(45.690477 0)scale(0.996264)" xlink:href="#CMR17-46"/>
       <use transform="translate(70.561536 0)scale(0.996264)" xlink:href="#CMR17-48"/>
      </g>
     </g>
    </g>
    <g id="xtick_14">
     <g id="line2d_20">
      <g>
       <use style="stroke:#000000;stroke-width:0.8;" x="662.28726" xlink:href="#meb0eb4bd3d" y="111.448341"/>
      </g>
     </g>
     <g id="text_26">
      <!-- 0.5 -->
      <g transform="translate(656.876915 126.083143)scale(0.08 -0.08)">
       <use transform="scale(0.996264)" xlink:href="#CMR17-48"/>
       <use transform="translate(45.690477 0)scale(0.996264)" xlink:href="#CMR17-46"/>
       <use transform="translate(70.561536 0)scale(0.996264)" xlink:href="#CMR17-53"/>
      </g>
     </g>
    </g>
    <g id="xtick_15">
     <g id="line2d_21">
      <g>
       <use style="stroke:#000000;stroke-width:0.8;" x="710.262478" xlink:href="#meb0eb4bd3d" y="111.448341"/>
      </g>
     </g>
     <g id="text_27">
      <!-- 1.0 -->
      <g transform="translate(704.852133 126.083143)scale(0.08 -0.08)">
       <use transform="scale(0.996264)" xlink:href="#CMR17-49"/>
       <use transform="translate(45.690477 0)scale(0.996264)" xlink:href="#CMR17-46"/>
       <use transform="translate(70.561536 0)scale(0.996264)" xlink:href="#CMR17-48"/>
      </g>
     </g>
    </g>
    <g id="text_28">
     <text style="font-family:DejaVu Serif;font-size:8.8px;font-style:normal;font-weight:normal;text-anchor:middle;" transform="rotate(-0, 614.312041, 138.208222)" x="614.312041" y="138.208222">Input x[0]</text>
    </g>
   </g>
   <g id="matplotlib.axis_6">
    <g id="ytick_7">
     <g id="line2d_22">
      <g>
       <use style="stroke:#000000;stroke-width:0.8;" x="513.564083" xlink:href="#m3a2338f56f" y="107.47242"/>
      </g>
     </g>
     <g id="text_29">
      <text style="font-family:DejaVu Serif;font-size:8px;font-style:normal;font-weight:normal;text-anchor:end;" transform="rotate(-0, 504.464083, 110.23982)" x="504.464083" y="110.23982">-1</text>
     </g>
    </g>
    <g id="ytick_8">
     <g id="line2d_23">
      <g>
       <use style="stroke:#000000;stroke-width:0.8;" x="513.564083" xlink:href="#m3a2338f56f" y="74.404576"/>
      </g>
     </g>
     <g id="text_30">
      <!-- 0 -->
      <g transform="translate(500.2299 77.171977)scale(0.08 -0.08)">
       <use transform="scale(0.996264)" xlink:href="#CMR17-48"/>
      </g>
     </g>
    </g>
    <g id="ytick_9">
     <g id="line2d_24">
      <g>
       <use style="stroke:#000000;stroke-width:0.8;" x="513.564083" xlink:href="#m3a2338f56f" y="41.336733"/>
      </g>
     </g>
     <g id="text_31">
      <!-- 1 -->
      <g transform="translate(500.2299 44.104134)scale(0.08 -0.08)">
       <use transform="scale(0.996264)" xlink:href="#CMR17-49"/>
      </g>
     </g>
    </g>
    <g id="text_32">
     <text style="font-family:DejaVu Serif;font-size:8.8px;font-style:normal;font-weight:normal;text-anchor:middle;" transform="rotate(-90, 491.215333, 74.404576)" x="491.215333" y="74.404576">Input x[-1]</text>
    </g>
   </g>
   <g id="patch_13">
    <path d="M 513.564083 111.448341 
L 513.564083 37.360811 
" style="fill:none;stroke:#000000;stroke-linecap:square;stroke-linejoin:miter;stroke-width:0.8;"/>
   </g>
   <g id="patch_14">
    <path d="M 715.06 111.448341 
L 715.06 37.360811 
" style="fill:none;stroke:#000000;stroke-linecap:square;stroke-linejoin:miter;stroke-width:0.8;"/>
   </g>
   <g id="patch_15">
    <path d="M 513.564083 111.448341 
L 715.06 111.448341 
" style="fill:none;stroke:#000000;stroke-linecap:square;stroke-linejoin:miter;stroke-width:0.8;"/>
   </g>
   <g id="patch_16">
    <path d="M 513.564083 37.360811 
L 715.06 37.360811 
" style="fill:none;stroke:#000000;stroke-linecap:square;stroke-linejoin:miter;stroke-width:0.8;"/>
   </g>
   <g id="text_33">
    <text style="font-family:DejaVu Serif;font-size:9.6px;font-style:normal;font-weight:normal;text-anchor:middle;" transform="rotate(-0, 614.312041, 31.360811)" x="614.312041" y="31.360811">Uniform White Noise</text>
   </g>
  </g>
  <g id="text_34">
   <text style="font-family:DejaVu Serif;font-size:9.6px;font-style:normal;font-weight:normal;" transform="translate(307.422363 8.947232)">Coverage of Input Space</text>
   <text style="font-family:DejaVu Serif;font-size:9.6px;font-style:normal;font-weight:normal;" transform="translate(281.290537 19.414645)">(Hypothesized System Memory = 1)</text>
  </g>
 </g>
 <defs>
  <clipPath id="paf81b1fd66">
   <rect height="74.08753" width="201.495917" x="30.364083" y="37.360811"/>
  </clipPath>
  <clipPath id="p9877628ac1">
   <rect height="74.08753" width="201.495917" x="271.964083" y="37.360811"/>
  </clipPath>
  <clipPath id="pea2e5e45fa">
   <rect height="74.08753" width="201.495917" x="513.564083" y="37.360811"/>
  </clipPath>
 </defs>
</svg>
