<?xml version="1.0" encoding="utf-8" standalone="no"?>
<!DOCTYPE svg PUBLIC "-//W3C//DTD SVG 1.1//EN"
  "http://www.w3.org/Graphics/SVG/1.1/DTD/svg11.dtd">
<!-- Created with matplotlib (https://matplotlib.org/) -->
<svg height="141.84pt" version="1.1" viewBox="0 0 720 141.84" width="720pt" xmlns="http://www.w3.org/2000/svg" xmlns:xlink="http://www.w3.org/1999/xlink">
 <defs>
  <style type="text/css">
*{stroke-linecap:butt;stroke-linejoin:round;}
  </style>
 </defs>
 <g id="figure_1">
  <g id="patch_1">
   <path d="M 0 141.84 
L 720 141.84 
L 720 0 
L 0 0 
z
" style="fill:#ffffff;"/>
  </g>
  <g id="axes_1">
   <g id="patch_2">
    <path d="M 35.904375 127.88325 
L 230.163333 127.88325 
L 230.163333 39.085574 
L 35.904375 39.085574 
z
" style="fill:#ffffff;"/>
   </g>
   <g id="patch_3">
    <path clip-path="url(#p1000de7688)" d="M 70.29581 127.88325 
L 78.138066 127.88325 
L 78.138066 87.40761 
L 70.29581 87.40761 
z
" style="fill:#1f77b4;opacity:0.4;"/>
   </g>
   <g id="patch_4">
    <path clip-path="url(#p1000de7688)" d="M 78.138066 127.88325 
L 85.980321 127.88325 
L 85.980321 110.578805 
L 78.138066 110.578805 
z
" style="fill:#1f77b4;opacity:0.4;"/>
   </g>
   <g id="patch_5">
    <path clip-path="url(#p1000de7688)" d="M 85.980321 127.88325 
L 93.822577 127.88325 
L 93.822577 114.128434 
L 85.980321 114.128434 
z
" style="fill:#1f77b4;opacity:0.4;"/>
   </g>
   <g id="patch_6">
    <path clip-path="url(#p1000de7688)" d="M 93.822577 127.88325 
L 101.664832 127.88325 
L 101.664832 115.706048 
L 93.822577 115.706048 
z
" style="fill:#1f77b4;opacity:0.4;"/>
   </g>
   <g id="patch_7">
    <path clip-path="url(#p1000de7688)" d="M 101.664832 127.88325 
L 109.507088 127.88325 
L 109.507088 116.692056 
L 101.664832 116.692056 
z
" style="fill:#1f77b4;opacity:0.4;"/>
   </g>
   <g id="patch_8">
    <path clip-path="url(#p1000de7688)" d="M 109.507088 127.88325 
L 117.349343 127.88325 
L 117.349343 117.431562 
L 109.507088 117.431562 
z
" style="fill:#1f77b4;opacity:0.4;"/>
   </g>
   <g id="patch_9">
    <path clip-path="url(#p1000de7688)" d="M 117.349343 127.88325 
L 125.191599 127.88325 
L 125.191599 117.678064 
L 117.349343 117.678064 
z
" style="fill:#1f77b4;opacity:0.4;"/>
   </g>
   <g id="patch_10">
    <path clip-path="url(#p1000de7688)" d="M 125.191599 127.88325 
L 133.033854 127.88325 
L 133.033854 117.875266 
L 125.191599 117.875266 
z
" style="fill:#1f77b4;opacity:0.4;"/>
   </g>
   <g id="patch_11">
    <path clip-path="url(#p1000de7688)" d="M 133.033854 127.88325 
L 140.87611 127.88325 
L 140.87611 117.825965 
L 133.033854 117.825965 
z
" style="fill:#1f77b4;opacity:0.4;"/>
   </g>
   <g id="patch_12">
    <path clip-path="url(#p1000de7688)" d="M 140.87611 127.88325 
L 148.718365 127.88325 
L 148.718365 117.678064 
L 140.87611 117.678064 
z
" style="fill:#1f77b4;opacity:0.4;"/>
   </g>
   <g id="patch_13">
    <path clip-path="url(#p1000de7688)" d="M 148.718365 127.88325 
L 156.560621 127.88325 
L 156.560621 117.382262 
L 148.718365 117.382262 
z
" style="fill:#1f77b4;opacity:0.4;"/>
   </g>
   <g id="patch_14">
    <path clip-path="url(#p1000de7688)" d="M 156.560621 127.88325 
L 164.402876 127.88325 
L 164.402876 116.741356 
L 156.560621 116.741356 
z
" style="fill:#1f77b4;opacity:0.4;"/>
   </g>
   <g id="patch_15">
    <path clip-path="url(#p1000de7688)" d="M 164.402876 127.88325 
L 172.245131 127.88325 
L 172.245131 115.755348 
L 164.402876 115.755348 
z
" style="fill:#1f77b4;opacity:0.4;"/>
   </g>
   <g id="patch_16">
    <path clip-path="url(#p1000de7688)" d="M 172.245131 127.88325 
L 180.087387 127.88325 
L 180.087387 114.079134 
L 172.245131 114.079134 
z
" style="fill:#1f77b4;opacity:0.4;"/>
   </g>
   <g id="patch_17">
    <path clip-path="url(#p1000de7688)" d="M 180.087387 127.88325 
L 187.929642 127.88325 
L 187.929642 110.480204 
L 180.087387 110.480204 
z
" style="fill:#1f77b4;opacity:0.4;"/>
   </g>
   <g id="patch_18">
    <path clip-path="url(#p1000de7688)" d="M 187.929642 127.88325 
L 195.771898 127.88325 
L 195.771898 87.506211 
L 187.929642 87.506211 
z
" style="fill:#1f77b4;opacity:0.4;"/>
   </g>
   <g id="patch_19">
    <path clip-path="url(#p1000de7688)" d="M 75.800655 127.88325 
L 82.589654 127.88325 
L 82.589654 49.749268 
L 75.800655 49.749268 
z
" style="fill:#d62728;opacity:0.4;"/>
   </g>
   <g id="patch_20">
    <path clip-path="url(#p1000de7688)" d="M 82.589654 127.88325 
L 89.378652 127.88325 
L 89.378652 115.810069 
L 82.589654 115.810069 
z
" style="fill:#d62728;opacity:0.4;"/>
   </g>
   <g id="patch_21">
    <path clip-path="url(#p1000de7688)" d="M 89.378652 127.88325 
L 96.167651 127.88325 
L 96.167651 118.714466 
L 89.378652 118.714466 
z
" style="fill:#d62728;opacity:0.4;"/>
   </g>
   <g id="patch_22">
    <path clip-path="url(#p1000de7688)" d="M 96.167651 127.88325 
L 102.956649 127.88325 
L 102.956649 119.910395 
L 96.167651 119.910395 
z
" style="fill:#d62728;opacity:0.4;"/>
   </g>
   <g id="patch_23">
    <path clip-path="url(#p1000de7688)" d="M 102.956649 127.88325 
L 109.745647 127.88325 
L 109.745647 120.70768 
L 102.956649 120.70768 
z
" style="fill:#d62728;opacity:0.4;"/>
   </g>
   <g id="patch_24">
    <path clip-path="url(#p1000de7688)" d="M 109.745647 127.88325 
L 116.534646 127.88325 
L 116.534646 121.049374 
L 109.745647 121.049374 
z
" style="fill:#d62728;opacity:0.4;"/>
   </g>
   <g id="patch_25">
    <path clip-path="url(#p1000de7688)" d="M 116.534646 127.88325 
L 123.323644 127.88325 
L 123.323644 121.163272 
L 116.534646 121.163272 
z
" style="fill:#d62728;opacity:0.4;"/>
   </g>
   <g id="patch_26">
    <path clip-path="url(#p1000de7688)" d="M 123.323644 127.88325 
L 130.112643 127.88325 
L 130.112643 121.220221 
L 123.323644 121.220221 
z
" style="fill:#d62728;opacity:0.4;"/>
   </g>
   <g id="patch_27">
    <path clip-path="url(#p1000de7688)" d="M 130.112643 127.88325 
L 136.901641 127.88325 
L 136.901641 121.106323 
L 130.112643 121.106323 
z
" style="fill:#d62728;opacity:0.4;"/>
   </g>
   <g id="patch_28">
    <path clip-path="url(#p1000de7688)" d="M 136.901641 127.88325 
L 143.69064 127.88325 
L 143.69064 120.536833 
L 136.901641 120.536833 
z
" style="fill:#d62728;opacity:0.4;"/>
   </g>
   <g id="patch_29">
    <path clip-path="url(#p1000de7688)" d="M 143.69064 127.88325 
L 150.479638 127.88325 
L 150.479638 120.309037 
L 143.69064 120.309037 
z
" style="fill:#d62728;opacity:0.4;"/>
   </g>
   <g id="patch_30">
    <path clip-path="url(#p1000de7688)" d="M 150.479638 127.88325 
L 157.268636 127.88325 
L 157.268636 119.511752 
L 150.479638 119.511752 
z
" style="fill:#d62728;opacity:0.4;"/>
   </g>
   <g id="patch_31">
    <path clip-path="url(#p1000de7688)" d="M 157.268636 127.88325 
L 164.057635 127.88325 
L 164.057635 118.031079 
L 157.268636 118.031079 
z
" style="fill:#d62728;opacity:0.4;"/>
   </g>
   <g id="patch_32">
    <path clip-path="url(#p1000de7688)" d="M 164.057635 127.88325 
L 170.846633 127.88325 
L 170.846633 115.582273 
L 164.057635 115.582273 
z
" style="fill:#d62728;opacity:0.4;"/>
   </g>
   <g id="patch_33">
    <path clip-path="url(#p1000de7688)" d="M 170.846633 127.88325 
L 177.635632 127.88325 
L 177.635632 109.260938 
L 170.846633 109.260938 
z
" style="fill:#d62728;opacity:0.4;"/>
   </g>
   <g id="patch_34">
    <path clip-path="url(#p1000de7688)" d="M 177.635632 127.88325 
L 184.42463 127.88325 
L 184.42463 43.314035 
L 177.635632 43.314035 
z
" style="fill:#d62728;opacity:0.4;"/>
   </g>
   <g id="matplotlib.axis_1">
    <g id="xtick_1"/>
    <g id="xtick_2"/>
    <g id="xtick_3"/>
    <g id="xtick_4"/>
    <g id="xtick_5"/>
    <g id="text_1">
     <text style="font-family:DejaVu Serif;font-size:8.8px;font-style:normal;font-weight:normal;text-anchor:middle;" transform="rotate(-0, 133.033854, 138.569875)" x="133.033854" y="138.569875">Observed Value (v)</text>
    </g>
   </g>
   <g id="matplotlib.axis_2">
    <g id="ytick_1">
     <g id="line2d_1">
      <defs>
       <path d="M 0 0 
L -3.5 0 
" id="m4a2eec2095" style="stroke:#000000;stroke-width:0.8;"/>
      </defs>
      <g>
       <use style="stroke:#000000;stroke-width:0.8;" x="35.904375" xlink:href="#m4a2eec2095" y="127.88325"/>
      </g>
     </g>
     <g id="text_2">
      <text style="font-family:DejaVu Serif;font-size:8px;font-style:normal;font-weight:normal;text-anchor:end;" transform="rotate(-0, 26.804375, 130.922625)" x="26.804375" y="130.922625">0.0</text>
     </g>
    </g>
    <g id="ytick_2">
     <g id="line2d_2">
      <g>
       <use style="stroke:#000000;stroke-width:0.8;" x="35.904375" xlink:href="#m4a2eec2095" y="105.678254"/>
      </g>
     </g>
     <g id="text_3">
      <text style="font-family:DejaVu Serif;font-size:8px;font-style:normal;font-weight:normal;text-anchor:end;" transform="rotate(-0, 26.804375, 108.717629)" x="26.804375" y="108.717629">0.5</text>
     </g>
    </g>
    <g id="ytick_3">
     <g id="line2d_3">
      <g>
       <use style="stroke:#000000;stroke-width:0.8;" x="35.904375" xlink:href="#m4a2eec2095" y="83.473257"/>
      </g>
     </g>
     <g id="text_4">
      <text style="font-family:DejaVu Serif;font-size:8px;font-style:normal;font-weight:normal;text-anchor:end;" transform="rotate(-0, 26.804375, 86.512632)" x="26.804375" y="86.512632">1.0</text>
     </g>
    </g>
    <g id="ytick_4">
     <g id="line2d_4">
      <g>
       <use style="stroke:#000000;stroke-width:0.8;" x="35.904375" xlink:href="#m4a2eec2095" y="61.268261"/>
      </g>
     </g>
     <g id="text_5">
      <text style="font-family:DejaVu Serif;font-size:8px;font-style:normal;font-weight:normal;text-anchor:end;" transform="rotate(-0, 26.804375, 64.307636)" x="26.804375" y="64.307636">1.5</text>
     </g>
    </g>
    <g id="ytick_5">
     <g id="line2d_5">
      <g>
       <use style="stroke:#000000;stroke-width:0.8;" x="35.904375" xlink:href="#m4a2eec2095" y="39.063265"/>
      </g>
     </g>
     <g id="text_6">
      <text style="font-family:DejaVu Serif;font-size:8px;font-style:normal;font-weight:normal;text-anchor:end;" transform="rotate(-0, 26.804375, 42.10264)" x="26.804375" y="42.10264">2.0</text>
     </g>
    </g>
    <g id="text_7">
     <text style="font-family:DejaVu Serif;font-size:8.8px;font-style:normal;font-weight:normal;text-anchor:middle;" transform="rotate(-90, 8.126625, 83.484412)" x="8.126625" y="83.484412">Statistical Density</text>
    </g>
   </g>
   <g id="line2d_6">
    <path clip-path="url(#p1000de7688)" d="M 44.734328 127.738521 
L 47.515415 127.6283 
L 50.296503 127.316675 
L 53.07759 126.678571 
L 54.468134 126.1843 
L 55.858677 125.543472 
L 57.249221 124.736916 
L 58.639765 123.751597 
L 60.030309 122.583796 
L 62.811396 119.748461 
L 69.764115 111.697623 
L 71.154658 110.404392 
L 72.545202 109.34911 
L 73.935746 108.563959 
L 75.32629 108.062604 
L 76.716833 107.840004 
L 78.107377 107.874314 
L 79.497921 108.130468 
L 80.888464 108.564801 
L 83.669552 109.779397 
L 89.231727 112.488325 
L 92.012814 113.611466 
L 94.793902 114.512402 
L 97.574989 115.216786 
L 101.74662 115.996571 
L 105.918252 116.551047 
L 111.480426 117.067942 
L 118.433145 117.476654 
L 126.776407 117.719499 
L 136.510213 117.752628 
L 144.853476 117.582608 
L 151.806194 117.257359 
L 158.758913 116.700061 
L 164.321088 115.996642 
L 168.492719 115.216968 
L 171.273807 114.512579 
L 174.054894 113.611597 
L 176.835981 112.488402 
L 181.007613 110.471104 
L 183.7887 109.129989 
L 185.179244 108.564845 
L 186.569788 108.13052 
L 187.960331 107.874372 
L 189.350875 107.840067 
L 190.741419 108.062666 
L 192.131962 108.564017 
L 193.522506 109.34916 
L 194.91305 110.404432 
L 196.303594 111.697651 
L 199.084681 114.792844 
L 203.256312 119.748445 
L 206.0374 122.583778 
L 207.427943 123.75158 
L 208.818487 124.736901 
L 210.209031 125.54346 
L 211.599575 126.18429 
L 212.990118 126.678564 
L 215.771206 127.316671 
L 218.552293 127.628299 
L 221.333381 127.73852 
L 221.333381 127.73852 
" style="fill:none;stroke:#1f77b4;stroke-dasharray:8.96,2.24,1.4,2.24;stroke-dashoffset:0;stroke-width:1.4;"/>
   </g>
   <g id="line2d_7">
    <path clip-path="url(#p1000de7688)" d="M 50.239172 127.571591 
L 52.754872 127.39865 
L 55.270572 126.911136 
L 56.528422 126.503996 
L 57.786272 125.954924 
L 59.044122 125.236313 
L 60.301972 124.321089 
L 61.559822 123.185831 
L 62.817672 121.814378 
L 64.075522 120.201633 
L 65.333372 118.357137 
L 67.849071 114.099625 
L 71.622621 107.240567 
L 72.880471 105.175764 
L 74.138321 103.379485 
L 75.396171 101.934923 
L 76.654021 100.906959 
L 77.911871 100.336283 
L 79.169721 100.235893 
L 80.427571 100.59041 
L 81.685421 101.358273 
L 82.94327 102.476449 
L 84.20112 103.866966 
L 86.71682 107.123124 
L 89.23252 110.479919 
L 91.74822 113.459281 
L 93.00607 114.723873 
L 94.26392 115.822848 
L 95.52177 116.75888 
L 96.77962 117.542632 
L 99.29532 118.718792 
L 101.811019 119.495862 
L 104.326719 120.007071 
L 108.100269 120.481536 
L 113.131669 120.833714 
L 119.420918 121.044761 
L 126.968018 121.074244 
L 134.515117 120.884822 
L 142.062217 120.45404 
L 147.093617 119.978245 
L 150.867166 119.456773 
L 154.640716 118.693754 
L 157.156416 117.965668 
L 159.672116 116.965136 
L 162.187816 115.578206 
L 163.445666 114.700325 
L 164.703516 113.680172 
L 165.961365 112.507516 
L 168.477065 109.697791 
L 170.992765 106.361601 
L 174.766315 101.090762 
L 176.024165 99.535524 
L 177.282015 98.220142 
L 178.539865 97.228158 
L 179.797715 96.633418 
L 181.055565 96.492951 
L 182.313415 96.84091 
L 183.571264 97.684397 
L 184.829114 99.00181 
L 186.086964 100.74402 
L 187.344814 102.838279 
L 189.860514 107.712434 
L 193.634064 115.259752 
L 194.891914 117.501839 
L 196.149764 119.514312 
L 197.407614 121.27076 
L 198.665464 122.762902 
L 199.923313 123.99764 
L 201.181163 124.993336 
L 202.439013 125.775844 
L 203.696863 126.374767 
L 204.954713 126.820229 
L 207.470413 127.359293 
L 209.986113 127.564644 
L 209.986113 127.564644 
" style="fill:none;stroke:#d62728;stroke-linecap:square;stroke-width:1.4;"/>
   </g>
   <g id="patch_35">
    <path d="M 35.904375 127.88325 
L 35.904375 39.085574 
" style="fill:none;stroke:#000000;stroke-linecap:square;stroke-linejoin:miter;stroke-width:0.8;"/>
   </g>
   <g id="patch_36">
    <path d="M 230.163333 127.88325 
L 230.163333 39.085574 
" style="fill:none;stroke:#000000;stroke-linecap:square;stroke-linejoin:miter;stroke-width:0.8;"/>
   </g>
   <g id="patch_37">
    <path d="M 35.904375 127.88325 
L 230.163333 127.88325 
" style="fill:none;stroke:#000000;stroke-linecap:square;stroke-linejoin:miter;stroke-width:0.8;"/>
   </g>
   <g id="patch_38">
    <path d="M 35.904375 39.085574 
L 230.163333 39.085574 
" style="fill:none;stroke:#000000;stroke-linecap:square;stroke-linejoin:miter;stroke-width:0.8;"/>
   </g>
   <g id="text_8">
    <text style="font-family:DejaVu Serif;font-size:9.6px;font-style:normal;font-weight:normal;text-anchor:middle;" transform="rotate(-0, 133.033854, 33.085574)" x="133.033854" y="33.085574">Sinusoid</text>
   </g>
   <g id="legend_1">
    <g id="patch_39">
     <path d="M 101.936979 68.970574 
L 164.130729 68.970574 
Q 165.730729 68.970574 165.730729 67.370574 
L 165.730729 44.685574 
Q 165.730729 43.085574 164.130729 43.085574 
L 101.936979 43.085574 
Q 100.336979 43.085574 100.336979 44.685574 
L 100.336979 67.370574 
Q 100.336979 68.970574 101.936979 68.970574 
z
" style="fill:#ffffff;opacity:0.8;stroke:#cccccc;stroke-linejoin:miter;stroke-width:0.24;"/>
    </g>
    <g id="patch_40">
     <path d="M 103.536979 52.364324 
L 119.536979 52.364324 
L 119.536979 46.764324 
L 103.536979 46.764324 
z
" style="fill:#1f77b4;opacity:0.4;"/>
    </g>
    <g id="text_9">
     <text style="font-family:DejaVu Serif;font-size:8px;font-style:normal;font-weight:normal;text-anchor:start;" transform="rotate(-0, 125.936979, 52.364324)" x="125.936979" y="52.364324">stimulus</text>
    </g>
    <g id="patch_41">
     <path d="M 103.536979 64.106824 
L 119.536979 64.106824 
L 119.536979 58.506824 
L 103.536979 58.506824 
z
" style="fill:#d62728;opacity:0.4;"/>
    </g>
    <g id="text_10">
     <text style="font-family:DejaVu Serif;font-size:8px;font-style:normal;font-weight:normal;text-anchor:start;" transform="rotate(-0, 125.936979, 64.106824)" x="125.936979" y="64.106824">response</text>
    </g>
   </g>
  </g>
  <g id="axes_2">
   <g id="patch_42">
    <path d="M 275.807708 127.88325 
L 470.066667 127.88325 
L 470.066667 39.085574 
L 275.807708 39.085574 
z
" style="fill:#ffffff;"/>
   </g>
   <g id="patch_43">
    <path clip-path="url(#p41cafffdf4)" d="M 296.825127 127.88325 
L 306.339134 127.88325 
L 306.339134 127.699603 
L 296.825127 127.699603 
z
" style="fill:#1f77b4;opacity:0.4;"/>
   </g>
   <g id="patch_44">
    <path clip-path="url(#p41cafffdf4)" d="M 306.339134 127.88325 
L 315.853142 127.88325 
L 315.853142 126.781371 
L 306.339134 126.781371 
z
" style="fill:#1f77b4;opacity:0.4;"/>
   </g>
   <g id="patch_45">
    <path clip-path="url(#p41cafffdf4)" d="M 315.853142 127.88325 
L 325.36715 127.88325 
L 325.36715 124.026673 
L 315.853142 124.026673 
z
" style="fill:#1f77b4;opacity:0.4;"/>
   </g>
   <g id="patch_46">
    <path clip-path="url(#p41cafffdf4)" d="M 325.36715 127.88325 
L 334.881157 127.88325 
L 334.881157 116.31352 
L 325.36715 116.31352 
z
" style="fill:#1f77b4;opacity:0.4;"/>
   </g>
   <g id="patch_47">
    <path clip-path="url(#p41cafffdf4)" d="M 334.881157 127.88325 
L 344.395165 127.88325 
L 344.395165 105.5702 
L 334.881157 105.5702 
z
" style="fill:#1f77b4;opacity:0.4;"/>
   </g>
   <g id="patch_48">
    <path clip-path="url(#p41cafffdf4)" d="M 344.395165 127.88325 
L 353.909172 127.88325 
L 353.909172 81.787977 
L 344.395165 81.787977 
z
" style="fill:#1f77b4;opacity:0.4;"/>
   </g>
   <g id="patch_49">
    <path clip-path="url(#p41cafffdf4)" d="M 353.909172 127.88325 
L 363.42318 127.88325 
L 363.42318 65.443439 
L 353.909172 65.443439 
z
" style="fill:#1f77b4;opacity:0.4;"/>
   </g>
   <g id="patch_50">
    <path clip-path="url(#p41cafffdf4)" d="M 363.42318 127.88325 
L 372.937187 127.88325 
L 372.937187 52.404537 
L 363.42318 52.404537 
z
" style="fill:#1f77b4;opacity:0.4;"/>
   </g>
   <g id="patch_51">
    <path clip-path="url(#p41cafffdf4)" d="M 372.937187 127.88325 
L 382.451195 127.88325 
L 382.451195 43.314035 
L 372.937187 43.314035 
z
" style="fill:#1f77b4;opacity:0.4;"/>
   </g>
   <g id="patch_52">
    <path clip-path="url(#p41cafffdf4)" d="M 382.451195 127.88325 
L 391.965203 127.88325 
L 391.965203 57.454816 
L 382.451195 57.454816 
z
" style="fill:#1f77b4;opacity:0.4;"/>
   </g>
   <g id="patch_53">
    <path clip-path="url(#p41cafffdf4)" d="M 391.965203 127.88325 
L 401.47921 127.88325 
L 401.47921 82.15527 
L 391.965203 82.15527 
z
" style="fill:#1f77b4;opacity:0.4;"/>
   </g>
   <g id="patch_54">
    <path clip-path="url(#p41cafffdf4)" d="M 401.47921 127.88325 
L 410.993218 127.88325 
L 410.993218 101.529977 
L 401.47921 101.529977 
z
" style="fill:#1f77b4;opacity:0.4;"/>
   </g>
   <g id="patch_55">
    <path clip-path="url(#p41cafffdf4)" d="M 410.993218 127.88325 
L 420.507225 127.88325 
L 420.507225 115.670757 
L 410.993218 115.670757 
z
" style="fill:#1f77b4;opacity:0.4;"/>
   </g>
   <g id="patch_56">
    <path clip-path="url(#p41cafffdf4)" d="M 420.507225 127.88325 
L 430.021233 127.88325 
L 430.021233 123.383911 
L 420.507225 123.383911 
z
" style="fill:#1f77b4;opacity:0.4;"/>
   </g>
   <g id="patch_57">
    <path clip-path="url(#p41cafffdf4)" d="M 430.021233 127.88325 
L 439.535241 127.88325 
L 439.535241 127.148664 
L 430.021233 127.148664 
z
" style="fill:#1f77b4;opacity:0.4;"/>
   </g>
   <g id="patch_58">
    <path clip-path="url(#p41cafffdf4)" d="M 439.535241 127.88325 
L 449.049248 127.88325 
L 449.049248 127.60778 
L 439.535241 127.60778 
z
" style="fill:#1f77b4;opacity:0.4;"/>
   </g>
   <g id="patch_59">
    <path clip-path="url(#p41cafffdf4)" d="M 314.364521 127.88325 
L 320.736392 127.88325 
L 320.736392 122.124895 
L 314.364521 122.124895 
z
" style="fill:#d62728;opacity:0.4;"/>
   </g>
   <g id="patch_60">
    <path clip-path="url(#p41cafffdf4)" d="M 320.736392 127.88325 
L 327.108263 127.88325 
L 327.108263 118.148887 
L 320.736392 118.148887 
z
" style="fill:#d62728;opacity:0.4;"/>
   </g>
   <g id="patch_61">
    <path clip-path="url(#p41cafffdf4)" d="M 327.108263 127.88325 
L 333.480134 127.88325 
L 333.480134 114.309984 
L 327.108263 114.309984 
z
" style="fill:#d62728;opacity:0.4;"/>
   </g>
   <g id="patch_62">
    <path clip-path="url(#p41cafffdf4)" d="M 333.480134 127.88325 
L 339.852006 127.88325 
L 339.852006 104.575621 
L 333.480134 104.575621 
z
" style="fill:#d62728;opacity:0.4;"/>
   </g>
   <g id="patch_63">
    <path clip-path="url(#p41cafffdf4)" d="M 339.852006 127.88325 
L 346.223877 127.88325 
L 346.223877 98.543058 
L 339.852006 98.543058 
z
" style="fill:#d62728;opacity:0.4;"/>
   </g>
   <g id="patch_64">
    <path clip-path="url(#p41cafffdf4)" d="M 346.223877 127.88325 
L 352.595748 127.88325 
L 352.595748 84.14717 
L 346.223877 84.14717 
z
" style="fill:#d62728;opacity:0.4;"/>
   </g>
   <g id="patch_65">
    <path clip-path="url(#p41cafffdf4)" d="M 352.595748 127.88325 
L 358.967619 127.88325 
L 358.967619 78.937229 
L 352.595748 78.937229 
z
" style="fill:#d62728;opacity:0.4;"/>
   </g>
   <g id="patch_66">
    <path clip-path="url(#p41cafffdf4)" d="M 358.967619 127.88325 
L 365.339491 127.88325 
L 365.339491 70.162593 
L 358.967619 70.162593 
z
" style="fill:#d62728;opacity:0.4;"/>
   </g>
   <g id="patch_67">
    <path clip-path="url(#p41cafffdf4)" d="M 365.339491 127.88325 
L 371.711362 127.88325 
L 371.711362 60.154023 
L 365.339491 60.154023 
z
" style="fill:#d62728;opacity:0.4;"/>
   </g>
   <g id="patch_68">
    <path clip-path="url(#p41cafffdf4)" d="M 371.711362 127.88325 
L 378.083233 127.88325 
L 378.083233 53.710149 
L 371.711362 53.710149 
z
" style="fill:#d62728;opacity:0.4;"/>
   </g>
   <g id="patch_69">
    <path clip-path="url(#p41cafffdf4)" d="M 378.083233 127.88325 
L 384.455104 127.88325 
L 384.455104 44.661305 
L 378.083233 44.661305 
z
" style="fill:#d62728;opacity:0.4;"/>
   </g>
   <g id="patch_70">
    <path clip-path="url(#p41cafffdf4)" d="M 384.455104 127.88325 
L 390.826976 127.88325 
L 390.826976 51.927801 
L 384.455104 51.927801 
z
" style="fill:#d62728;opacity:0.4;"/>
   </g>
   <g id="patch_71">
    <path clip-path="url(#p41cafffdf4)" d="M 390.826976 127.88325 
L 397.198847 127.88325 
L 397.198847 56.589326 
L 390.826976 56.589326 
z
" style="fill:#d62728;opacity:0.4;"/>
   </g>
   <g id="patch_72">
    <path clip-path="url(#p41cafffdf4)" d="M 397.198847 127.88325 
L 403.570718 127.88325 
L 403.570718 75.509637 
L 397.198847 75.509637 
z
" style="fill:#d62728;opacity:0.4;"/>
   </g>
   <g id="patch_73">
    <path clip-path="url(#p41cafffdf4)" d="M 403.570718 127.88325 
L 409.942589 127.88325 
L 409.942589 96.075192 
L 403.570718 96.075192 
z
" style="fill:#d62728;opacity:0.4;"/>
   </g>
   <g id="patch_74">
    <path clip-path="url(#p41cafffdf4)" d="M 409.942589 127.88325 
L 416.314461 127.88325 
L 416.314461 118.011784 
L 409.942589 118.011784 
z
" style="fill:#d62728;opacity:0.4;"/>
   </g>
   <g id="matplotlib.axis_3">
    <g id="xtick_6"/>
    <g id="xtick_7"/>
    <g id="xtick_8"/>
    <g id="xtick_9"/>
    <g id="xtick_10"/>
    <g id="text_11">
     <text style="font-family:DejaVu Serif;font-size:8.8px;font-style:normal;font-weight:normal;text-anchor:middle;" transform="rotate(-0, 372.937187, 138.569875)" x="372.937187" y="138.569875">Observed Value (v)</text>
    </g>
   </g>
   <g id="matplotlib.axis_4">
    <g id="ytick_6">
     <g id="line2d_8">
      <g>
       <use style="stroke:#000000;stroke-width:0.8;" x="275.807708" xlink:href="#m4a2eec2095" y="127.88325"/>
      </g>
     </g>
     <g id="text_12">
      <text style="font-family:DejaVu Serif;font-size:8px;font-style:normal;font-weight:normal;text-anchor:end;" transform="rotate(-0, 266.707708, 130.922625)" x="266.707708" y="130.922625">0.0</text>
     </g>
    </g>
    <g id="ytick_7">
     <g id="line2d_9">
      <g>
       <use style="stroke:#000000;stroke-width:0.8;" x="275.807708" xlink:href="#m4a2eec2095" y="106.836844"/>
      </g>
     </g>
     <g id="text_13">
      <text style="font-family:DejaVu Serif;font-size:8px;font-style:normal;font-weight:normal;text-anchor:end;" transform="rotate(-0, 266.707708, 109.876219)" x="266.707708" y="109.876219">0.1</text>
     </g>
    </g>
    <g id="ytick_8">
     <g id="line2d_10">
      <g>
       <use style="stroke:#000000;stroke-width:0.8;" x="275.807708" xlink:href="#m4a2eec2095" y="85.790438"/>
      </g>
     </g>
     <g id="text_14">
      <text style="font-family:DejaVu Serif;font-size:8px;font-style:normal;font-weight:normal;text-anchor:end;" transform="rotate(-0, 266.707708, 88.829813)" x="266.707708" y="88.829813">0.2</text>
     </g>
    </g>
    <g id="ytick_9">
     <g id="line2d_11">
      <g>
       <use style="stroke:#000000;stroke-width:0.8;" x="275.807708" xlink:href="#m4a2eec2095" y="64.744032"/>
      </g>
     </g>
     <g id="text_15">
      <text style="font-family:DejaVu Serif;font-size:8px;font-style:normal;font-weight:normal;text-anchor:end;" transform="rotate(-0, 266.707708, 67.783407)" x="266.707708" y="67.783407">0.3</text>
     </g>
    </g>
    <g id="ytick_10">
     <g id="line2d_12">
      <g>
       <use style="stroke:#000000;stroke-width:0.8;" x="275.807708" xlink:href="#m4a2eec2095" y="43.697626"/>
      </g>
     </g>
     <g id="text_16">
      <text style="font-family:DejaVu Serif;font-size:8px;font-style:normal;font-weight:normal;text-anchor:end;" transform="rotate(-0, 266.707708, 46.737001)" x="266.707708" y="46.737001">0.4</text>
     </g>
    </g>
    <g id="text_17">
     <text style="font-family:DejaVu Serif;font-size:8.8px;font-style:normal;font-weight:normal;text-anchor:middle;" transform="rotate(-90, 248.029958, 83.484412)" x="248.029958" y="83.484412">Statistical Density</text>
    </g>
   </g>
   <g id="line2d_13">
    <path clip-path="url(#p41cafffdf4)" d="M 284.637661 127.881855 
L 297.152555 127.765555 
L 302.714729 127.595312 
L 306.886361 127.264079 
L 309.667448 126.928327 
L 312.448535 126.404163 
L 315.229623 125.633415 
L 319.401254 124.150467 
L 322.182342 122.836941 
L 323.572885 121.97626 
L 324.963429 120.954048 
L 327.744516 118.545029 
L 331.916148 114.601958 
L 334.697235 111.539165 
L 336.087779 109.740161 
L 338.868866 105.596424 
L 341.649954 100.702271 
L 343.040497 97.892856 
L 345.821585 91.549119 
L 349.993216 81.712617 
L 352.774303 75.94558 
L 356.945935 68.097656 
L 359.727022 63.468416 
L 363.898653 57.461065 
L 368.070284 51.533695 
L 369.460828 49.742309 
L 370.851372 48.138292 
L 372.241916 46.751095 
L 373.632459 45.639462 
L 375.023003 44.922666 
L 376.413547 44.757165 
L 377.804091 45.262945 
L 379.194634 46.44782 
L 380.585178 48.184266 
L 383.366265 52.46317 
L 387.537897 59.272291 
L 388.92844 61.844628 
L 390.318984 64.69619 
L 393.100072 71.107915 
L 402.833878 94.734691 
L 405.614965 100.569033 
L 408.396052 105.765569 
L 409.786596 108.076547 
L 411.17714 110.154821 
L 412.567684 111.987034 
L 413.958227 113.591393 
L 416.739315 116.328506 
L 420.910946 119.977971 
L 423.692033 122.146773 
L 426.473121 123.971547 
L 429.254208 125.423325 
L 432.035296 126.440548 
L 434.816383 126.995043 
L 437.597471 127.235077 
L 447.331277 127.693155 
L 458.455627 127.876863 
L 461.236714 127.881842 
L 461.236714 127.881842 
" style="fill:none;stroke:#1f77b4;stroke-dasharray:8.96,2.24,1.4,2.24;stroke-dashoffset:0;stroke-width:1.4;"/>
   </g>
   <g id="line2d_14">
    <path clip-path="url(#p41cafffdf4)" d="M 302.177055 127.87219 
L 306.155791 127.754403 
L 308.145159 127.520121 
L 310.134527 127.037236 
L 312.123895 126.231504 
L 314.113263 125.127446 
L 318.091999 122.496593 
L 321.076051 120.350733 
L 325.054787 117.119399 
L 331.022892 112.159422 
L 333.01226 110.227533 
L 335.996312 106.98041 
L 337.98568 104.593598 
L 339.975048 101.893514 
L 341.964416 98.776143 
L 347.93252 88.627295 
L 349.921888 85.770575 
L 360.863412 71.39378 
L 363.847465 67.920858 
L 365.836833 65.289453 
L 369.815569 59.36128 
L 373.794305 53.704627 
L 375.783673 51.084461 
L 376.778357 49.919706 
L 377.773041 48.936809 
L 378.767725 48.200674 
L 379.762409 47.755985 
L 380.757093 47.614027 
L 381.751777 47.748807 
L 382.746461 48.103871 
L 384.735829 49.192775 
L 387.719881 51.135364 
L 389.709249 52.802534 
L 390.703933 53.895668 
L 391.698617 55.216195 
L 392.693301 56.781456 
L 394.682669 60.629395 
L 396.672037 65.317644 
L 398.661405 70.685041 
L 401.645458 79.6473 
L 407.613562 98.848795 
L 411.592298 111.522022 
L 413.581666 117.095732 
L 414.57635 119.481775 
L 415.571034 121.537854 
L 416.565718 123.243978 
L 417.560402 124.604914 
L 418.555086 125.647241 
L 419.54977 126.413085 
L 420.544454 126.952545 
L 421.539138 127.316621 
L 423.528506 127.697319 
L 426.512558 127.857311 
L 428.501926 127.874005 
L 428.501926 127.874005 
" style="fill:none;stroke:#d62728;stroke-linecap:square;stroke-width:1.4;"/>
   </g>
   <g id="patch_75">
    <path d="M 275.807708 127.88325 
L 275.807708 39.085574 
" style="fill:none;stroke:#000000;stroke-linecap:square;stroke-linejoin:miter;stroke-width:0.8;"/>
   </g>
   <g id="patch_76">
    <path d="M 470.066667 127.88325 
L 470.066667 39.085574 
" style="fill:none;stroke:#000000;stroke-linecap:square;stroke-linejoin:miter;stroke-width:0.8;"/>
   </g>
   <g id="patch_77">
    <path d="M 275.807708 127.88325 
L 470.066667 127.88325 
" style="fill:none;stroke:#000000;stroke-linecap:square;stroke-linejoin:miter;stroke-width:0.8;"/>
   </g>
   <g id="patch_78">
    <path d="M 275.807708 39.085574 
L 470.066667 39.085574 
" style="fill:none;stroke:#000000;stroke-linecap:square;stroke-linejoin:miter;stroke-width:0.8;"/>
   </g>
   <g id="text_18">
    <text style="font-family:DejaVu Serif;font-size:9.6px;font-style:normal;font-weight:normal;text-anchor:middle;" transform="rotate(-0, 372.937187, 33.085574)" x="372.937187" y="33.085574">Gaussian White Noise</text>
   </g>
   <g id="legend_2">
    <g id="patch_79">
     <path d="M 402.272917 68.970574 
L 464.466667 68.970574 
Q 466.066667 68.970574 466.066667 67.370574 
L 466.066667 44.685574 
Q 466.066667 43.085574 464.466667 43.085574 
L 402.272917 43.085574 
Q 400.672917 43.085574 400.672917 44.685574 
L 400.672917 67.370574 
Q 400.672917 68.970574 402.272917 68.970574 
z
" style="fill:#ffffff;opacity:0.8;stroke:#cccccc;stroke-linejoin:miter;stroke-width:0.24;"/>
    </g>
    <g id="patch_80">
     <path d="M 403.872917 52.364324 
L 419.872917 52.364324 
L 419.872917 46.764324 
L 403.872917 46.764324 
z
" style="fill:#1f77b4;opacity:0.4;"/>
    </g>
    <g id="text_19">
     <text style="font-family:DejaVu Serif;font-size:8px;font-style:normal;font-weight:normal;text-anchor:start;" transform="rotate(-0, 426.272917, 52.364324)" x="426.272917" y="52.364324">stimulus</text>
    </g>
    <g id="patch_81">
     <path d="M 403.872917 64.106824 
L 419.872917 64.106824 
L 419.872917 58.506824 
L 403.872917 58.506824 
z
" style="fill:#d62728;opacity:0.4;"/>
    </g>
    <g id="text_20">
     <text style="font-family:DejaVu Serif;font-size:8px;font-style:normal;font-weight:normal;text-anchor:start;" transform="rotate(-0, 426.272917, 64.106824)" x="426.272917" y="64.106824">response</text>
    </g>
   </g>
  </g>
  <g id="axes_3">
   <g id="patch_82">
    <path d="M 520.801042 127.88325 
L 715.06 127.88325 
L 715.06 39.085574 
L 520.801042 39.085574 
z
" style="fill:#ffffff;"/>
   </g>
   <g id="patch_83">
    <path clip-path="url(#p4633bff6e8)" d="M 551.796294 127.88325 
L 560.063072 127.88325 
L 560.063072 103.875717 
L 551.796294 103.875717 
z
" style="fill:#1f77b4;opacity:0.4;"/>
   </g>
   <g id="patch_84">
    <path clip-path="url(#p4633bff6e8)" d="M 560.063072 127.88325 
L 568.329851 127.88325 
L 568.329851 104.652431 
L 560.063072 104.652431 
z
" style="fill:#1f77b4;opacity:0.4;"/>
   </g>
   <g id="patch_85">
    <path clip-path="url(#p4633bff6e8)" d="M 568.329851 127.88325 
L 576.596629 127.88325 
L 576.596629 104.369989 
L 568.329851 104.369989 
z
" style="fill:#1f77b4;opacity:0.4;"/>
   </g>
   <g id="patch_86">
    <path clip-path="url(#p4633bff6e8)" d="M 576.596629 127.88325 
L 584.863407 127.88325 
L 584.863407 104.4406 
L 576.596629 104.4406 
z
" style="fill:#1f77b4;opacity:0.4;"/>
   </g>
   <g id="patch_87">
    <path clip-path="url(#p4633bff6e8)" d="M 584.863407 127.88325 
L 593.130186 127.88325 
L 593.130186 105.782197 
L 584.863407 105.782197 
z
" style="fill:#1f77b4;opacity:0.4;"/>
   </g>
   <g id="patch_88">
    <path clip-path="url(#p4633bff6e8)" d="M 593.130186 127.88325 
L 601.396964 127.88325 
L 601.396964 104.228769 
L 593.130186 104.228769 
z
" style="fill:#1f77b4;opacity:0.4;"/>
   </g>
   <g id="patch_89">
    <path clip-path="url(#p4633bff6e8)" d="M 601.396964 127.88325 
L 609.663742 127.88325 
L 609.663742 106.064639 
L 601.396964 106.064639 
z
" style="fill:#1f77b4;opacity:0.4;"/>
   </g>
   <g id="patch_90">
    <path clip-path="url(#p4633bff6e8)" d="M 609.663742 127.88325 
L 617.930521 127.88325 
L 617.930521 105.217314 
L 609.663742 105.217314 
z
" style="fill:#1f77b4;opacity:0.4;"/>
   </g>
   <g id="patch_91">
    <path clip-path="url(#p4633bff6e8)" d="M 617.930521 127.88325 
L 626.197299 127.88325 
L 626.197299 107.688678 
L 617.930521 107.688678 
z
" style="fill:#1f77b4;opacity:0.4;"/>
   </g>
   <g id="patch_92">
    <path clip-path="url(#p4633bff6e8)" d="M 626.197299 127.88325 
L 634.464078 127.88325 
L 634.464078 105.146704 
L 626.197299 105.146704 
z
" style="fill:#1f77b4;opacity:0.4;"/>
   </g>
   <g id="patch_93">
    <path clip-path="url(#p4633bff6e8)" d="M 634.464078 127.88325 
L 642.730856 127.88325 
L 642.730856 105.640976 
L 634.464078 105.640976 
z
" style="fill:#1f77b4;opacity:0.4;"/>
   </g>
   <g id="patch_94">
    <path clip-path="url(#p4633bff6e8)" d="M 642.730856 127.88325 
L 650.997634 127.88325 
L 650.997634 105.217314 
L 642.730856 105.217314 
z
" style="fill:#1f77b4;opacity:0.4;"/>
   </g>
   <g id="patch_95">
    <path clip-path="url(#p4633bff6e8)" d="M 650.997634 127.88325 
L 659.264413 127.88325 
L 659.264413 105.429145 
L 650.997634 105.429145 
z
" style="fill:#1f77b4;opacity:0.4;"/>
   </g>
   <g id="patch_96">
    <path clip-path="url(#p4633bff6e8)" d="M 659.264413 127.88325 
L 667.531191 127.88325 
L 667.531191 107.194405 
L 659.264413 107.194405 
z
" style="fill:#1f77b4;opacity:0.4;"/>
   </g>
   <g id="patch_97">
    <path clip-path="url(#p4633bff6e8)" d="M 667.531191 127.88325 
L 675.79797 127.88325 
L 675.79797 107.265015 
L 667.531191 107.265015 
z
" style="fill:#1f77b4;opacity:0.4;"/>
   </g>
   <g id="patch_98">
    <path clip-path="url(#p4633bff6e8)" d="M 675.79797 127.88325 
L 684.064748 127.88325 
L 684.064748 104.158158 
L 675.79797 104.158158 
z
" style="fill:#1f77b4;opacity:0.4;"/>
   </g>
   <g id="patch_99">
    <path clip-path="url(#p4633bff6e8)" d="M 561.161541 127.88325 
L 567.753219 127.88325 
L 567.753219 48.095959 
L 561.161541 48.095959 
z
" style="fill:#d62728;opacity:0.4;"/>
   </g>
   <g id="patch_100">
    <path clip-path="url(#p4633bff6e8)" d="M 567.753219 127.88325 
L 574.344897 127.88325 
L 574.344897 105.301941 
L 567.753219 105.301941 
z
" style="fill:#d62728;opacity:0.4;"/>
   </g>
   <g id="patch_101">
    <path clip-path="url(#p4633bff6e8)" d="M 574.344897 127.88325 
L 580.936575 127.88325 
L 580.936575 106.187483 
L 574.344897 106.187483 
z
" style="fill:#d62728;opacity:0.4;"/>
   </g>
   <g id="patch_102">
    <path clip-path="url(#p4633bff6e8)" d="M 580.936575 127.88325 
L 587.528253 127.88325 
L 587.528253 110.526636 
L 580.936575 110.526636 
z
" style="fill:#d62728;opacity:0.4;"/>
   </g>
   <g id="patch_103">
    <path clip-path="url(#p4633bff6e8)" d="M 587.528253 127.88325 
L 594.119932 127.88325 
L 594.119932 110.969407 
L 587.528253 110.969407 
z
" style="fill:#d62728;opacity:0.4;"/>
   </g>
   <g id="patch_104">
    <path clip-path="url(#p4633bff6e8)" d="M 594.119932 127.88325 
L 600.71161 127.88325 
L 600.71161 110.969407 
L 594.119932 110.969407 
z
" style="fill:#d62728;opacity:0.4;"/>
   </g>
   <g id="patch_105">
    <path clip-path="url(#p4633bff6e8)" d="M 600.71161 127.88325 
L 607.303288 127.88325 
L 607.303288 112.917598 
L 600.71161 112.917598 
z
" style="fill:#d62728;opacity:0.4;"/>
   </g>
   <g id="patch_106">
    <path clip-path="url(#p4633bff6e8)" d="M 607.303288 127.88325 
L 613.894966 127.88325 
L 613.894966 112.297719 
L 607.303288 112.297719 
z
" style="fill:#d62728;opacity:0.4;"/>
   </g>
   <g id="patch_107">
    <path clip-path="url(#p4633bff6e8)" d="M 613.894966 127.88325 
L 620.486644 127.88325 
L 620.486644 112.297719 
L 613.894966 112.297719 
z
" style="fill:#d62728;opacity:0.4;"/>
   </g>
   <g id="patch_108">
    <path clip-path="url(#p4633bff6e8)" d="M 620.486644 127.88325 
L 627.078322 127.88325 
L 627.078322 111.235069 
L 620.486644 111.235069 
z
" style="fill:#d62728;opacity:0.4;"/>
   </g>
   <g id="patch_109">
    <path clip-path="url(#p4633bff6e8)" d="M 627.078322 127.88325 
L 633.67 127.88325 
L 633.67 110.17242 
L 627.078322 110.17242 
z
" style="fill:#d62728;opacity:0.4;"/>
   </g>
   <g id="patch_110">
    <path clip-path="url(#p4633bff6e8)" d="M 633.67 127.88325 
L 640.261678 127.88325 
L 640.261678 107.161578 
L 633.67 107.161578 
z
" style="fill:#d62728;opacity:0.4;"/>
   </g>
   <g id="patch_111">
    <path clip-path="url(#p4633bff6e8)" d="M 640.261678 127.88325 
L 646.853356 127.88325 
L 646.853356 105.656158 
L 640.261678 105.656158 
z
" style="fill:#d62728;opacity:0.4;"/>
   </g>
   <g id="patch_112">
    <path clip-path="url(#p4633bff6e8)" d="M 646.853356 127.88325 
L 653.445035 127.88325 
L 653.445035 99.368813 
L 646.853356 99.368813 
z
" style="fill:#d62728;opacity:0.4;"/>
   </g>
   <g id="patch_113">
    <path clip-path="url(#p4633bff6e8)" d="M 653.445035 127.88325 
L 660.036713 127.88325 
L 660.036713 88.476652 
L 653.445035 88.476652 
z
" style="fill:#d62728;opacity:0.4;"/>
   </g>
   <g id="patch_114">
    <path clip-path="url(#p4633bff6e8)" d="M 660.036713 127.88325 
L 666.628391 127.88325 
L 666.628391 43.314035 
L 660.036713 43.314035 
z
" style="fill:#d62728;opacity:0.4;"/>
   </g>
   <g id="matplotlib.axis_5">
    <g id="xtick_11"/>
    <g id="xtick_12"/>
    <g id="xtick_13"/>
    <g id="xtick_14"/>
    <g id="xtick_15"/>
    <g id="text_21">
     <text style="font-family:DejaVu Serif;font-size:8.8px;font-style:normal;font-weight:normal;text-anchor:middle;" transform="rotate(-0, 617.930521, 138.569875)" x="617.930521" y="138.569875">Observed Value (v)</text>
    </g>
   </g>
   <g id="matplotlib.axis_6">
    <g id="ytick_11">
     <g id="line2d_15">
      <g>
       <use style="stroke:#000000;stroke-width:0.8;" x="520.801042" xlink:href="#m4a2eec2095" y="127.88325"/>
      </g>
     </g>
     <g id="text_22">
      <text style="font-family:DejaVu Serif;font-size:8px;font-style:normal;font-weight:normal;text-anchor:end;" transform="rotate(-0, 511.701042, 130.922625)" x="511.701042" y="130.922625">0.00</text>
     </g>
    </g>
    <g id="ytick_12">
     <g id="line2d_16">
      <g>
       <use style="stroke:#000000;stroke-width:0.8;" x="520.801042" xlink:href="#m4a2eec2095" y="108.552597"/>
      </g>
     </g>
     <g id="text_23">
      <text style="font-family:DejaVu Serif;font-size:8px;font-style:normal;font-weight:normal;text-anchor:end;" transform="rotate(-0, 511.701042, 111.591972)" x="511.701042" y="111.591972">0.25</text>
     </g>
    </g>
    <g id="ytick_13">
     <g id="line2d_17">
      <g>
       <use style="stroke:#000000;stroke-width:0.8;" x="520.801042" xlink:href="#m4a2eec2095" y="89.221945"/>
      </g>
     </g>
     <g id="text_24">
      <text style="font-family:DejaVu Serif;font-size:8px;font-style:normal;font-weight:normal;text-anchor:end;" transform="rotate(-0, 511.701042, 92.26132)" x="511.701042" y="92.26132">0.50</text>
     </g>
    </g>
    <g id="ytick_14">
     <g id="line2d_18">
      <g>
       <use style="stroke:#000000;stroke-width:0.8;" x="520.801042" xlink:href="#m4a2eec2095" y="69.891292"/>
      </g>
     </g>
     <g id="text_25">
      <text style="font-family:DejaVu Serif;font-size:8px;font-style:normal;font-weight:normal;text-anchor:end;" transform="rotate(-0, 511.701042, 72.930667)" x="511.701042" y="72.930667">0.75</text>
     </g>
    </g>
    <g id="ytick_15">
     <g id="line2d_19">
      <g>
       <use style="stroke:#000000;stroke-width:0.8;" x="520.801042" xlink:href="#m4a2eec2095" y="50.56064"/>
      </g>
     </g>
     <g id="text_26">
      <text style="font-family:DejaVu Serif;font-size:8px;font-style:normal;font-weight:normal;text-anchor:end;" transform="rotate(-0, 511.701042, 53.600015)" x="511.701042" y="53.600015">1.00</text>
     </g>
    </g>
    <g id="text_27">
     <text style="font-family:DejaVu Serif;font-size:8.8px;font-style:normal;font-weight:normal;text-anchor:middle;" transform="rotate(-90, 487.933292, 83.484412)" x="487.933292" y="83.484412">Statistical Density</text>
    </g>
   </g>
   <g id="line2d_20">
    <path clip-path="url(#p4633bff6e8)" d="M 529.630994 127.829144 
L 533.802625 127.69116 
L 536.583713 127.385956 
L 539.3648 126.734024 
L 540.755344 126.213199 
L 542.145888 125.527136 
L 543.536432 124.654414 
L 544.926975 123.582323 
L 546.317519 122.310524 
L 549.098606 119.24243 
L 556.051325 110.735505 
L 557.441869 109.347145 
L 558.832413 108.160759 
L 560.222956 107.188942 
L 561.6135 106.428666 
L 563.004044 105.863826 
L 564.394587 105.468856 
L 567.175675 105.062488 
L 569.956762 104.9575 
L 579.690568 104.828155 
L 586.643287 104.716847 
L 592.205462 104.836837 
L 597.767637 105.148913 
L 610.28253 106.068836 
L 615.844705 106.13651 
L 622.797424 106.004769 
L 636.702861 105.646363 
L 653.389386 105.648473 
L 657.561017 105.922314 
L 670.075911 107.214471 
L 672.856998 107.74116 
L 674.247542 108.177948 
L 675.638085 108.777747 
L 677.028629 109.567788 
L 678.419173 110.562544 
L 679.809717 111.759938 
L 682.590804 114.663701 
L 688.152979 121.075033 
L 689.543523 122.467669 
L 690.934066 123.690887 
L 692.32461 124.727285 
L 693.715154 125.574574 
L 695.105698 126.243085 
L 696.496241 126.7522 
L 699.277329 127.391927 
L 702.058416 127.692785 
L 706.230047 127.829234 
L 706.230047 127.829234 
" style="fill:none;stroke:#1f77b4;stroke-dasharray:8.96,2.24,1.4,2.24;stroke-dashoffset:0;stroke-width:1.4;"/>
   </g>
   <g id="line2d_21">
    <path clip-path="url(#p4633bff6e8)" d="M 538.996242 127.581958 
L 541.355257 127.336093 
L 542.534764 127.074583 
L 543.714271 126.687674 
L 544.893779 126.14183 
L 546.073286 125.398686 
L 547.252794 124.418052 
L 548.432301 123.162084 
L 549.611809 121.60047 
L 550.791316 119.716241 
L 551.970824 117.511535 
L 554.329839 112.271625 
L 559.047869 100.793037 
L 560.227376 98.389278 
L 561.406884 96.400654 
L 562.586391 94.905877 
L 563.765898 93.949371 
L 564.945406 93.537924 
L 566.124913 93.641814 
L 567.304421 94.200092 
L 568.483928 95.129015 
L 569.663436 96.332192 
L 572.022451 99.172952 
L 574.381466 102.049641 
L 576.740481 104.544368 
L 579.099496 106.50341 
L 581.45851 107.949192 
L 583.817525 108.978972 
L 586.17654 109.700481 
L 588.535555 110.208548 
L 592.074078 110.739361 
L 600.33063 111.667505 
L 605.04866 112.044688 
L 608.587182 112.154539 
L 612.125705 112.081241 
L 616.843735 111.724924 
L 622.741272 111.006331 
L 627.459302 110.184226 
L 630.997824 109.315408 
L 634.536347 108.175899 
L 636.895362 107.244749 
L 639.254376 106.140446 
L 641.613391 104.802442 
L 643.972406 103.143004 
L 646.331421 101.061143 
L 648.690436 98.478099 
L 651.049451 95.400847 
L 655.767481 88.711629 
L 656.946989 87.299867 
L 658.126496 86.172566 
L 659.306003 85.428138 
L 660.485511 85.156992 
L 661.665018 85.43208 
L 662.844526 86.300037 
L 664.024033 87.77423 
L 665.203541 89.830901 
L 666.383048 92.409185 
L 667.562556 95.415217 
L 669.921571 102.219529 
L 672.280586 109.184657 
L 674.639601 115.372799 
L 675.819108 117.981434 
L 676.998615 120.219246 
L 678.178123 122.083744 
L 679.35763 123.593371 
L 680.537138 124.781571 
L 681.716645 125.690676 
L 682.896153 126.366336 
L 684.07566 126.852952 
L 685.255168 127.190315 
L 687.614183 127.541046 
L 688.79369 127.595468 
L 688.79369 127.595468 
" style="fill:none;stroke:#d62728;stroke-linecap:square;stroke-width:1.4;"/>
   </g>
   <g id="patch_115">
    <path d="M 520.801042 127.88325 
L 520.801042 39.085574 
" style="fill:none;stroke:#000000;stroke-linecap:square;stroke-linejoin:miter;stroke-width:0.8;"/>
   </g>
   <g id="patch_116">
    <path d="M 715.06 127.88325 
L 715.06 39.085574 
" style="fill:none;stroke:#000000;stroke-linecap:square;stroke-linejoin:miter;stroke-width:0.8;"/>
   </g>
   <g id="patch_117">
    <path d="M 520.801042 127.88325 
L 715.06 127.88325 
" style="fill:none;stroke:#000000;stroke-linecap:square;stroke-linejoin:miter;stroke-width:0.8;"/>
   </g>
   <g id="patch_118">
    <path d="M 520.801042 39.085574 
L 715.06 39.085574 
" style="fill:none;stroke:#000000;stroke-linecap:square;stroke-linejoin:miter;stroke-width:0.8;"/>
   </g>
   <g id="text_28">
    <text style="font-family:DejaVu Serif;font-size:9.6px;font-style:normal;font-weight:normal;text-anchor:middle;" transform="rotate(-0, 617.930521, 33.085574)" x="617.930521" y="33.085574">Uniform White Noise</text>
   </g>
   <g id="legend_3">
    <g id="patch_119">
     <path d="M 586.833646 68.970574 
L 649.027396 68.970574 
Q 650.627396 68.970574 650.627396 67.370574 
L 650.627396 44.685574 
Q 650.627396 43.085574 649.027396 43.085574 
L 586.833646 43.085574 
Q 585.233646 43.085574 585.233646 44.685574 
L 585.233646 67.370574 
Q 585.233646 68.970574 586.833646 68.970574 
z
" style="fill:#ffffff;opacity:0.8;stroke:#cccccc;stroke-linejoin:miter;stroke-width:0.24;"/>
    </g>
    <g id="patch_120">
     <path d="M 588.433646 52.364324 
L 604.433646 52.364324 
L 604.433646 46.764324 
L 588.433646 46.764324 
z
" style="fill:#1f77b4;opacity:0.4;"/>
    </g>
    <g id="text_29">
     <text style="font-family:DejaVu Serif;font-size:8px;font-style:normal;font-weight:normal;text-anchor:start;" transform="rotate(-0, 610.833646, 52.364324)" x="610.833646" y="52.364324">stimulus</text>
    </g>
    <g id="patch_121">
     <path d="M 588.433646 64.106824 
L 604.433646 64.106824 
L 604.433646 58.506824 
L 588.433646 58.506824 
z
" style="fill:#d62728;opacity:0.4;"/>
    </g>
    <g id="text_30">
     <text style="font-family:DejaVu Serif;font-size:8px;font-style:normal;font-weight:normal;text-anchor:start;" transform="rotate(-0, 610.833646, 64.106824)" x="610.833646" y="64.106824">response</text>
    </g>
   </g>
  </g>
  <g id="text_31">
   <text style="font-family:DejaVu Serif;font-size:9.6px;font-style:normal;font-weight:normal;" transform="translate(268.4325 10.1313)">Stimulus and Response Distributions </text>
   <text style="font-family:DejaVu Serif;font-size:9.6px;font-style:normal;font-weight:normal;" transform="translate(305.307 20.8812)">(Scaled and Centered)</text>
  </g>
 </g>
 <defs>
  <clipPath id="p1000de7688">
   <rect height="88.797676" width="194.258958" x="35.904375" y="39.085574"/>
  </clipPath>
  <clipPath id="p41cafffdf4">
   <rect height="88.797676" width="194.258958" x="275.807708" y="39.085574"/>
  </clipPath>
  <clipPath id="p4633bff6e8">
   <rect height="88.797676" width="194.258958" x="520.801042" y="39.085574"/>
  </clipPath>
 </defs>
</svg>
